<?xml version="1.0" encoding="UTF-8"?><?xml-stylesheet type="text/xsl" href="static/style.xsl"?><OAI-PMH xmlns="http://www.openarchives.org/OAI/2.0/" xmlns:xsi="http://www.w3.org/2001/XMLSchema-instance" xsi:schemaLocation="http://www.openarchives.org/OAI/2.0/ http://www.openarchives.org/OAI/2.0/OAI-PMH.xsd"><responseDate>2014-10-06T12:45:56Z</responseDate>
    <request verb="ListIdentifiers" resumptionToken="MTo0MTAwfDI6fDM6fDQ6fDU6b2FpX2Rj">http://run.unl.pt/oai/request</request>
    <ListIdentifiers>
        <header>
            <identifier>oai:run.unl.pt:10362/7557</identifier>
            <datestamp>2012-07-23T13:42:29Z</datestamp>
            <setSpec>com_10362_2247</setSpec>
            <setSpec>com_10362_2089</setSpec>
            <setSpec>com_10362_1967</setSpec>
            <setSpec>col_10362_4243</setSpec>
        </header>
        <header>
            <identifier>oai:run.unl.pt:10362/7559</identifier>
            <datestamp>2012-07-23T14:29:35Z</datestamp>
            <setSpec>com_10362_2063</setSpec>
            <setSpec>col_10362_7356</setSpec>
        </header>
        <header>
            <identifier>oai:run.unl.pt:10362/7558</identifier>
            <datestamp>2012-07-23T14:14:31Z</datestamp>
            <setSpec>com_10362_413</setSpec>
            <setSpec>com_10362_2085</setSpec>
            <setSpec>com_10362_410</setSpec>
            <setSpec>col_10362_851</setSpec>
        </header>
        <header>
            <identifier>oai:run.unl.pt:10362/7560</identifier>
            <datestamp>2012-07-23T14:48:10Z</datestamp>
            <setSpec>com_10362_2063</setSpec>
            <setSpec>col_10362_7356</setSpec>
        </header>
        <header>
            <identifier>oai:run.unl.pt:10362/7565</identifier>
            <datestamp>2012-07-23T15:40:23Z</datestamp>
            <setSpec>com_10362_2063</setSpec>
            <setSpec>col_10362_7356</setSpec>
        </header>
        <header>
            <identifier>oai:run.unl.pt:10362/7561</identifier>
            <datestamp>2012-07-23T15:05:16Z</datestamp>
            <setSpec>com_10362_416</setSpec>
            <setSpec>com_10362_2085</setSpec>
            <setSpec>com_10362_410</setSpec>
            <setSpec>col_10362_1038</setSpec>
        </header>
        <header>
            <identifier>oai:run.unl.pt:10362/7562</identifier>
            <datestamp>2012-07-23T15:13:21Z</datestamp>
            <setSpec>com_10362_411</setSpec>
            <setSpec>com_10362_2085</setSpec>
            <setSpec>com_10362_410</setSpec>
            <setSpec>col_10362_824</setSpec>
        </header>
        <header>
            <identifier>oai:run.unl.pt:10362/7563</identifier>
            <datestamp>2012-07-23T15:21:00Z</datestamp>
            <setSpec>com_10362_419</setSpec>
            <setSpec>com_10362_2085</setSpec>
            <setSpec>com_10362_410</setSpec>
            <setSpec>col_10362_1044</setSpec>
        </header>
        <header>
            <identifier>oai:run.unl.pt:10362/7564</identifier>
            <datestamp>2012-07-23T15:32:32Z</datestamp>
            <setSpec>com_10362_415</setSpec>
            <setSpec>com_10362_2085</setSpec>
            <setSpec>com_10362_410</setSpec>
            <setSpec>col_10362_1036</setSpec>
        </header>
        <header>
            <identifier>oai:run.unl.pt:10362/7566</identifier>
            <datestamp>2012-07-23T16:24:29Z</datestamp>
            <setSpec>com_10362_2063</setSpec>
            <setSpec>col_10362_7356</setSpec>
        </header>
        <header>
            <identifier>oai:run.unl.pt:10362/7604</identifier>
            <datestamp>2012-07-25T09:49:47Z</datestamp>
            <setSpec>com_10362_2254</setSpec>
            <setSpec>com_10362_2089</setSpec>
            <setSpec>com_10362_1967</setSpec>
            <setSpec>col_10362_2409</setSpec>
        </header>
        <header>
            <identifier>oai:run.unl.pt:10362/7602</identifier>
            <datestamp>2012-07-25T09:28:25Z</datestamp>
            <setSpec>com_10362_2171</setSpec>
            <setSpec>com_10362_2089</setSpec>
            <setSpec>com_10362_1967</setSpec>
            <setSpec>col_10362_4659</setSpec>
        </header>
        <header>
            <identifier>oai:run.unl.pt:10362/7599</identifier>
            <datestamp>2014-07-01T01:01:05Z</datestamp>
            <setSpec>com_10362_2249</setSpec>
            <setSpec>com_10362_2089</setSpec>
            <setSpec>com_10362_1967</setSpec>
            <setSpec>col_10362_2326</setSpec>
        </header>
        <header>
            <identifier>oai:run.unl.pt:10362/7600</identifier>
            <datestamp>2012-07-25T09:10:42Z</datestamp>
            <setSpec>com_10362_2254</setSpec>
            <setSpec>com_10362_2089</setSpec>
            <setSpec>com_10362_1967</setSpec>
            <setSpec>col_10362_2409</setSpec>
        </header>
        <header>
            <identifier>oai:run.unl.pt:10362/7605</identifier>
            <datestamp>2012-09-03T15:10:08Z</datestamp>
            <setSpec>com_10362_2253</setSpec>
            <setSpec>com_10362_2089</setSpec>
            <setSpec>com_10362_1967</setSpec>
            <setSpec>col_10362_3762</setSpec>
        </header>
        <header>
            <identifier>oai:run.unl.pt:10362/7567</identifier>
            <datestamp>2012-07-24T10:21:29Z</datestamp>
            <setSpec>com_10362_2063</setSpec>
            <setSpec>col_10362_7356</setSpec>
        </header>
        <header>
            <identifier>oai:run.unl.pt:10362/7568</identifier>
            <datestamp>2012-07-24T10:25:26Z</datestamp>
            <setSpec>com_10362_416</setSpec>
            <setSpec>com_10362_2085</setSpec>
            <setSpec>com_10362_410</setSpec>
            <setSpec>col_10362_1038</setSpec>
        </header>
        <header>
            <identifier>oai:run.unl.pt:10362/7571</identifier>
            <datestamp>2012-07-24T10:49:01Z</datestamp>
            <setSpec>com_10362_2063</setSpec>
            <setSpec>col_10362_7356</setSpec>
        </header>
        <header>
            <identifier>oai:run.unl.pt:10362/7569</identifier>
            <datestamp>2012-07-24T10:34:13Z</datestamp>
            <setSpec>com_10362_416</setSpec>
            <setSpec>com_10362_2085</setSpec>
            <setSpec>com_10362_410</setSpec>
            <setSpec>col_10362_1038</setSpec>
        </header>
        <header>
            <identifier>oai:run.unl.pt:10362/7570</identifier>
            <datestamp>2012-07-24T10:42:10Z</datestamp>
            <setSpec>com_10362_415</setSpec>
            <setSpec>com_10362_2085</setSpec>
            <setSpec>com_10362_410</setSpec>
            <setSpec>col_10362_1036</setSpec>
        </header>
        <header>
            <identifier>oai:run.unl.pt:10362/7572</identifier>
            <datestamp>2012-07-24T10:54:41Z</datestamp>
            <setSpec>com_10362_415</setSpec>
            <setSpec>com_10362_2085</setSpec>
            <setSpec>com_10362_410</setSpec>
            <setSpec>col_10362_1036</setSpec>
        </header>
        <header>
            <identifier>oai:run.unl.pt:10362/7574</identifier>
            <datestamp>2012-07-24T11:05:52Z</datestamp>
            <setSpec>com_10362_2063</setSpec>
            <setSpec>col_10362_7356</setSpec>
        </header>
        <header>
            <identifier>oai:run.unl.pt:10362/7573</identifier>
            <datestamp>2012-07-24T11:00:34Z</datestamp>
            <setSpec>com_10362_421</setSpec>
            <setSpec>com_10362_2085</setSpec>
            <setSpec>com_10362_410</setSpec>
            <setSpec>col_10362_1048</setSpec>
        </header>
        <header>
            <identifier>oai:run.unl.pt:10362/7575</identifier>
            <datestamp>2012-07-24T11:08:29Z</datestamp>
            <setSpec>com_10362_418</setSpec>
            <setSpec>com_10362_2085</setSpec>
            <setSpec>com_10362_410</setSpec>
            <setSpec>col_10362_1042</setSpec>
        </header>
        <header>
            <identifier>oai:run.unl.pt:10362/7577</identifier>
            <datestamp>2012-07-24T11:32:50Z</datestamp>
            <setSpec>com_10362_2063</setSpec>
            <setSpec>col_10362_7356</setSpec>
        </header>
        <header>
            <identifier>oai:run.unl.pt:10362/7576</identifier>
            <datestamp>2012-07-24T11:19:43Z</datestamp>
            <setSpec>com_10362_416</setSpec>
            <setSpec>com_10362_2085</setSpec>
            <setSpec>com_10362_410</setSpec>
            <setSpec>col_10362_1038</setSpec>
        </header>
        <header>
            <identifier>oai:run.unl.pt:10362/7578</identifier>
            <datestamp>2012-10-18T10:37:34Z</datestamp>
            <setSpec>com_10362_2063</setSpec>
            <setSpec>col_10362_7356</setSpec>
        </header>
        <header>
            <identifier>oai:run.unl.pt:10362/7579</identifier>
            <datestamp>2012-07-24T13:50:14Z</datestamp>
            <setSpec>com_10362_2063</setSpec>
            <setSpec>col_10362_7356</setSpec>
        </header>
        <header>
            <identifier>oai:run.unl.pt:10362/7581</identifier>
            <datestamp>2012-07-24T14:00:32Z</datestamp>
            <setSpec>com_10362_2063</setSpec>
            <setSpec>col_10362_7356</setSpec>
        </header>
        <header>
            <identifier>oai:run.unl.pt:10362/7580</identifier>
            <datestamp>2012-07-24T14:00:19Z</datestamp>
            <setSpec>com_10362_416</setSpec>
            <setSpec>com_10362_2085</setSpec>
            <setSpec>com_10362_410</setSpec>
            <setSpec>col_10362_1038</setSpec>
        </header>
        <header>
            <identifier>oai:run.unl.pt:10362/7582</identifier>
            <datestamp>2012-07-24T14:07:31Z</datestamp>
            <setSpec>com_10362_416</setSpec>
            <setSpec>com_10362_2085</setSpec>
            <setSpec>com_10362_410</setSpec>
            <setSpec>col_10362_1038</setSpec>
        </header>
        <header>
            <identifier>oai:run.unl.pt:10362/7585</identifier>
            <datestamp>2012-07-24T14:21:11Z</datestamp>
            <setSpec>com_10362_2063</setSpec>
            <setSpec>col_10362_7356</setSpec>
        </header>
        <header>
            <identifier>oai:run.unl.pt:10362/7583</identifier>
            <datestamp>2012-07-24T14:12:24Z</datestamp>
            <setSpec>com_10362_416</setSpec>
            <setSpec>com_10362_2085</setSpec>
            <setSpec>com_10362_410</setSpec>
            <setSpec>col_10362_1038</setSpec>
        </header>
        <header>
            <identifier>oai:run.unl.pt:10362/7584</identifier>
            <datestamp>2012-07-24T14:21:39Z</datestamp>
            <setSpec>com_10362_417</setSpec>
            <setSpec>com_10362_2085</setSpec>
            <setSpec>com_10362_410</setSpec>
            <setSpec>col_10362_1040</setSpec>
        </header>
        <header>
            <identifier>oai:run.unl.pt:10362/7588</identifier>
            <datestamp>2012-07-24T14:36:55Z</datestamp>
            <setSpec>com_10362_2063</setSpec>
            <setSpec>col_10362_7356</setSpec>
        </header>
        <header>
            <identifier>oai:run.unl.pt:10362/7586</identifier>
            <datestamp>2013-03-14T10:19:01Z</datestamp>
            <setSpec>com_10362_411</setSpec>
            <setSpec>com_10362_2085</setSpec>
            <setSpec>com_10362_410</setSpec>
            <setSpec>col_10362_824</setSpec>
        </header>
        <header>
            <identifier>oai:run.unl.pt:10362/7587</identifier>
            <datestamp>2012-07-24T14:35:27Z</datestamp>
            <setSpec>com_10362_415</setSpec>
            <setSpec>com_10362_2085</setSpec>
            <setSpec>com_10362_410</setSpec>
            <setSpec>col_10362_1036</setSpec>
        </header>
        <header>
            <identifier>oai:run.unl.pt:10362/7589</identifier>
            <datestamp>2012-07-24T14:48:03Z</datestamp>
            <setSpec>com_10362_2063</setSpec>
            <setSpec>col_10362_7356</setSpec>
        </header>
        <header>
            <identifier>oai:run.unl.pt:10362/7590</identifier>
            <datestamp>2012-07-24T14:56:06Z</datestamp>
            <setSpec>com_10362_2063</setSpec>
            <setSpec>col_10362_7356</setSpec>
        </header>
        <header>
            <identifier>oai:run.unl.pt:10362/7591</identifier>
            <datestamp>2012-07-24T15:08:16Z</datestamp>
            <setSpec>com_10362_2063</setSpec>
            <setSpec>col_10362_7356</setSpec>
        </header>
        <header>
            <identifier>oai:run.unl.pt:10362/7592</identifier>
            <datestamp>2012-07-24T15:21:46Z</datestamp>
            <setSpec>com_10362_2063</setSpec>
            <setSpec>col_10362_7356</setSpec>
        </header>
        <header>
            <identifier>oai:run.unl.pt:10362/7593</identifier>
            <datestamp>2012-07-24T15:33:23Z</datestamp>
            <setSpec>com_10362_2063</setSpec>
            <setSpec>col_10362_7356</setSpec>
        </header>
        <header>
            <identifier>oai:run.unl.pt:10362/7594</identifier>
            <datestamp>2012-07-24T15:57:25Z</datestamp>
            <setSpec>com_10362_2063</setSpec>
            <setSpec>col_10362_7356</setSpec>
        </header>
        <header>
            <identifier>oai:run.unl.pt:10362/7595</identifier>
            <datestamp>2012-07-24T16:13:03Z</datestamp>
            <setSpec>com_10362_2063</setSpec>
            <setSpec>col_10362_7356</setSpec>
        </header>
        <header>
            <identifier>oai:run.unl.pt:10362/7596</identifier>
            <datestamp>2012-07-24T16:39:02Z</datestamp>
            <setSpec>com_10362_2063</setSpec>
            <setSpec>col_10362_7356</setSpec>
        </header>
        <header>
            <identifier>oai:run.unl.pt:10362/7597</identifier>
            <datestamp>2012-07-24T17:01:01Z</datestamp>
            <setSpec>com_10362_2063</setSpec>
            <setSpec>col_10362_7356</setSpec>
        </header>
        <header>
            <identifier>oai:run.unl.pt:10362/7598</identifier>
            <datestamp>2012-07-24T17:18:14Z</datestamp>
            <setSpec>com_10362_2063</setSpec>
            <setSpec>col_10362_7356</setSpec>
        </header>
        <header>
            <identifier>oai:run.unl.pt:10362/7601</identifier>
            <datestamp>2012-07-25T09:27:12Z</datestamp>
            <setSpec>com_10362_415</setSpec>
            <setSpec>com_10362_2085</setSpec>
            <setSpec>com_10362_410</setSpec>
            <setSpec>col_10362_1037</setSpec>
        </header>
        <header>
            <identifier>oai:run.unl.pt:10362/7606</identifier>
            <datestamp>2012-07-25T09:55:26Z</datestamp>
            <setSpec>com_10362_419</setSpec>
            <setSpec>com_10362_2085</setSpec>
            <setSpec>com_10362_410</setSpec>
            <setSpec>col_10362_1044</setSpec>
        </header>
        <header>
            <identifier>oai:run.unl.pt:10362/7607</identifier>
            <datestamp>2012-07-25T09:58:54Z</datestamp>
            <setSpec>com_10362_2253</setSpec>
            <setSpec>com_10362_2089</setSpec>
            <setSpec>com_10362_1967</setSpec>
            <setSpec>col_10362_3762</setSpec>
        </header>
        <header>
            <identifier>oai:run.unl.pt:10362/7608</identifier>
            <datestamp>2012-07-25T10:03:06Z</datestamp>
            <setSpec>com_10362_419</setSpec>
            <setSpec>com_10362_2085</setSpec>
            <setSpec>com_10362_410</setSpec>
            <setSpec>col_10362_1044</setSpec>
        </header>
        <header>
            <identifier>oai:run.unl.pt:10362/7610</identifier>
            <datestamp>2012-07-25T10:12:26Z</datestamp>
            <setSpec>com_10362_424</setSpec>
            <setSpec>com_10362_2085</setSpec>
            <setSpec>com_10362_410</setSpec>
            <setSpec>col_10362_1052</setSpec>
        </header>
        <header>
            <identifier>oai:run.unl.pt:10362/7609</identifier>
            <datestamp>2012-07-25T10:10:32Z</datestamp>
            <setSpec>com_10362_2249</setSpec>
            <setSpec>com_10362_2089</setSpec>
            <setSpec>com_10362_1967</setSpec>
            <setSpec>col_10362_2326</setSpec>
        </header>
        <header>
            <identifier>oai:run.unl.pt:10362/7611</identifier>
            <datestamp>2012-07-25T10:21:20Z</datestamp>
            <setSpec>com_10362_2252</setSpec>
            <setSpec>com_10362_2089</setSpec>
            <setSpec>com_10362_1967</setSpec>
            <setSpec>col_10362_4123</setSpec>
        </header>
        <header>
            <identifier>oai:run.unl.pt:10362/7612</identifier>
            <datestamp>2012-07-25T10:27:22Z</datestamp>
            <setSpec>com_10362_421</setSpec>
            <setSpec>com_10362_2085</setSpec>
            <setSpec>com_10362_410</setSpec>
            <setSpec>col_10362_1049</setSpec>
        </header>
        <header>
            <identifier>oai:run.unl.pt:10362/7613</identifier>
            <datestamp>2012-07-26T09:06:52Z</datestamp>
            <setSpec>com_10362_2251</setSpec>
            <setSpec>com_10362_2089</setSpec>
            <setSpec>com_10362_1967</setSpec>
            <setSpec>col_10362_3082</setSpec>
        </header>
        <header>
            <identifier>oai:run.unl.pt:10362/7614</identifier>
            <datestamp>2012-07-25T10:48:09Z</datestamp>
            <setSpec>com_10362_2257</setSpec>
            <setSpec>com_10362_2089</setSpec>
            <setSpec>com_10362_1967</setSpec>
            <setSpec>col_10362_4131</setSpec>
        </header>
        <header>
            <identifier>oai:run.unl.pt:10362/7615</identifier>
            <datestamp>2012-07-25T11:14:02Z</datestamp>
            <setSpec>com_10362_2256</setSpec>
            <setSpec>com_10362_2089</setSpec>
            <setSpec>com_10362_1967</setSpec>
            <setSpec>col_10362_2423</setSpec>
        </header>
        <header>
            <identifier>oai:run.unl.pt:10362/7616</identifier>
            <datestamp>2012-07-25T11:41:53Z</datestamp>
            <setSpec>com_10362_2186</setSpec>
            <setSpec>com_10362_2089</setSpec>
            <setSpec>com_10362_1967</setSpec>
            <setSpec>col_10362_4154</setSpec>
        </header>
        <header>
            <identifier>oai:run.unl.pt:10362/7617</identifier>
            <datestamp>2012-07-25T13:09:16Z</datestamp>
            <setSpec>com_10362_2254</setSpec>
            <setSpec>com_10362_2089</setSpec>
            <setSpec>com_10362_1967</setSpec>
            <setSpec>col_10362_2409</setSpec>
        </header>
        <header>
            <identifier>oai:run.unl.pt:10362/7619</identifier>
            <datestamp>2012-07-25T13:25:03Z</datestamp>
            <setSpec>com_10362_2186</setSpec>
            <setSpec>com_10362_2089</setSpec>
            <setSpec>com_10362_1967</setSpec>
            <setSpec>col_10362_4154</setSpec>
        </header>
        <header>
            <identifier>oai:run.unl.pt:10362/7618</identifier>
            <datestamp>2012-07-25T13:17:59Z</datestamp>
            <setSpec>com_10362_416</setSpec>
            <setSpec>com_10362_2085</setSpec>
            <setSpec>com_10362_410</setSpec>
            <setSpec>col_10362_1038</setSpec>
        </header>
        <header>
            <identifier>oai:run.unl.pt:10362/7620</identifier>
            <datestamp>2012-07-25T13:28:38Z</datestamp>
            <setSpec>com_10362_411</setSpec>
            <setSpec>com_10362_2085</setSpec>
            <setSpec>com_10362_410</setSpec>
            <setSpec>col_10362_824</setSpec>
        </header>
        <header>
            <identifier>oai:run.unl.pt:10362/7621</identifier>
            <datestamp>2012-07-25T13:36:50Z</datestamp>
            <setSpec>com_10362_417</setSpec>
            <setSpec>com_10362_2085</setSpec>
            <setSpec>com_10362_410</setSpec>
            <setSpec>col_10362_1040</setSpec>
        </header>
        <header>
            <identifier>oai:run.unl.pt:10362/7622</identifier>
            <datestamp>2012-07-25T13:41:48Z</datestamp>
            <setSpec>com_10362_2171</setSpec>
            <setSpec>com_10362_2089</setSpec>
            <setSpec>com_10362_1967</setSpec>
            <setSpec>col_10362_4659</setSpec>
        </header>
        <header>
            <identifier>oai:run.unl.pt:10362/7623</identifier>
            <datestamp>2012-07-25T13:47:31Z</datestamp>
            <setSpec>com_10362_415</setSpec>
            <setSpec>com_10362_2085</setSpec>
            <setSpec>com_10362_410</setSpec>
            <setSpec>col_10362_1036</setSpec>
        </header>
        <header>
            <identifier>oai:run.unl.pt:10362/7624</identifier>
            <datestamp>2012-07-25T13:58:00Z</datestamp>
            <setSpec>com_10362_415</setSpec>
            <setSpec>com_10362_2085</setSpec>
            <setSpec>com_10362_410</setSpec>
            <setSpec>col_10362_1036</setSpec>
        </header>
        <header>
            <identifier>oai:run.unl.pt:10362/7625</identifier>
            <datestamp>2012-07-25T14:06:38Z</datestamp>
            <setSpec>com_10362_422</setSpec>
            <setSpec>com_10362_2085</setSpec>
            <setSpec>com_10362_410</setSpec>
            <setSpec>col_10362_1035</setSpec>
        </header>
        <header>
            <identifier>oai:run.unl.pt:10362/7626</identifier>
            <datestamp>2012-07-25T14:14:56Z</datestamp>
            <setSpec>com_10362_415</setSpec>
            <setSpec>com_10362_2085</setSpec>
            <setSpec>com_10362_410</setSpec>
            <setSpec>col_10362_1036</setSpec>
        </header>
        <header>
            <identifier>oai:run.unl.pt:10362/7627</identifier>
            <datestamp>2013-02-06T11:16:56Z</datestamp>
            <setSpec>com_10362_421</setSpec>
            <setSpec>com_10362_2085</setSpec>
            <setSpec>com_10362_410</setSpec>
            <setSpec>col_10362_1049</setSpec>
        </header>
        <header>
            <identifier>oai:run.unl.pt:10362/7628</identifier>
            <datestamp>2014-06-04T10:55:48Z</datestamp>
            <setSpec>com_10362_413</setSpec>
            <setSpec>com_10362_2085</setSpec>
            <setSpec>com_10362_410</setSpec>
            <setSpec>col_10362_851</setSpec>
        </header>
        <header>
            <identifier>oai:run.unl.pt:10362/7629</identifier>
            <datestamp>2012-07-25T15:13:42Z</datestamp>
            <setSpec>com_10362_2063</setSpec>
            <setSpec>col_10362_7356</setSpec>
        </header>
        <header>
            <identifier>oai:run.unl.pt:10362/7630</identifier>
            <datestamp>2012-07-25T15:21:45Z</datestamp>
            <setSpec>com_10362_2063</setSpec>
            <setSpec>col_10362_7356</setSpec>
        </header>
        <header>
            <identifier>oai:run.unl.pt:10362/7631</identifier>
            <datestamp>2012-07-25T15:31:21Z</datestamp>
            <setSpec>com_10362_2063</setSpec>
            <setSpec>col_10362_7356</setSpec>
        </header>
        <header>
            <identifier>oai:run.unl.pt:10362/7632</identifier>
            <datestamp>2012-07-25T15:39:34Z</datestamp>
            <setSpec>com_10362_2063</setSpec>
            <setSpec>col_10362_7356</setSpec>
        </header>
        <header>
            <identifier>oai:run.unl.pt:10362/7633</identifier>
            <datestamp>2012-07-25T15:47:28Z</datestamp>
            <setSpec>com_10362_2063</setSpec>
            <setSpec>col_10362_7356</setSpec>
        </header>
        <header>
            <identifier>oai:run.unl.pt:10362/7634</identifier>
            <datestamp>2012-07-25T15:58:12Z</datestamp>
            <setSpec>com_10362_2063</setSpec>
            <setSpec>col_10362_7356</setSpec>
        </header>
        <header>
            <identifier>oai:run.unl.pt:10362/7635</identifier>
            <datestamp>2012-07-25T16:12:11Z</datestamp>
            <setSpec>com_10362_2063</setSpec>
            <setSpec>col_10362_7356</setSpec>
        </header>
        <header>
            <identifier>oai:run.unl.pt:10362/7636</identifier>
            <datestamp>2012-07-25T16:20:45Z</datestamp>
            <setSpec>com_10362_2063</setSpec>
            <setSpec>col_10362_7356</setSpec>
        </header>
        <header>
            <identifier>oai:run.unl.pt:10362/7637</identifier>
            <datestamp>2012-07-25T16:27:03Z</datestamp>
            <setSpec>com_10362_2063</setSpec>
            <setSpec>col_10362_7356</setSpec>
        </header>
        <header>
            <identifier>oai:run.unl.pt:10362/7638</identifier>
            <datestamp>2012-07-25T16:40:51Z</datestamp>
            <setSpec>com_10362_2063</setSpec>
            <setSpec>col_10362_7356</setSpec>
        </header>
        <header>
            <identifier>oai:run.unl.pt:10362/7639</identifier>
            <datestamp>2012-07-25T16:50:42Z</datestamp>
            <setSpec>com_10362_2063</setSpec>
            <setSpec>col_10362_7356</setSpec>
        </header>
        <header>
            <identifier>oai:run.unl.pt:10362/7640</identifier>
            <datestamp>2012-07-25T17:07:55Z</datestamp>
            <setSpec>com_10362_2063</setSpec>
            <setSpec>col_10362_7356</setSpec>
        </header>
        <header>
            <identifier>oai:run.unl.pt:10362/7641</identifier>
            <datestamp>2012-07-25T17:54:48Z</datestamp>
            <setSpec>com_10362_2063</setSpec>
            <setSpec>col_10362_7356</setSpec>
        </header>
        <header>
            <identifier>oai:run.unl.pt:10362/7642</identifier>
            <datestamp>2012-07-25T18:06:05Z</datestamp>
            <setSpec>com_10362_2063</setSpec>
            <setSpec>col_10362_7356</setSpec>
        </header>
        <header>
            <identifier>oai:run.unl.pt:10362/7643</identifier>
            <datestamp>2012-07-25T18:16:37Z</datestamp>
            <setSpec>com_10362_2063</setSpec>
            <setSpec>col_10362_7356</setSpec>
        </header>
        <header>
            <identifier>oai:run.unl.pt:10362/7644</identifier>
            <datestamp>2012-07-25T18:24:55Z</datestamp>
            <setSpec>com_10362_2063</setSpec>
            <setSpec>col_10362_7356</setSpec>
        </header>
        <header>
            <identifier>oai:run.unl.pt:10362/7645</identifier>
            <datestamp>2012-07-25T18:34:57Z</datestamp>
            <setSpec>com_10362_2063</setSpec>
            <setSpec>col_10362_7356</setSpec>
        </header>
        <header>
            <identifier>oai:run.unl.pt:10362/7646</identifier>
            <datestamp>2012-07-25T18:44:01Z</datestamp>
            <setSpec>com_10362_2063</setSpec>
            <setSpec>col_10362_7356</setSpec>
        </header>
        <header>
            <identifier>oai:run.unl.pt:10362/7647</identifier>
            <datestamp>2012-07-25T18:53:26Z</datestamp>
            <setSpec>com_10362_2063</setSpec>
            <setSpec>col_10362_7356</setSpec>
        </header>
        <header>
            <identifier>oai:run.unl.pt:10362/7648</identifier>
            <datestamp>2012-07-25T19:01:06Z</datestamp>
            <setSpec>com_10362_2063</setSpec>
            <setSpec>col_10362_7356</setSpec>
        </header>
        <header>
            <identifier>oai:run.unl.pt:10362/7649</identifier>
            <datestamp>2012-07-25T19:08:06Z</datestamp>
            <setSpec>com_10362_2063</setSpec>
            <setSpec>col_10362_7356</setSpec>
        </header>
        <header>
            <identifier>oai:run.unl.pt:10362/7650</identifier>
            <datestamp>2012-07-25T19:13:28Z</datestamp>
            <setSpec>com_10362_2063</setSpec>
            <setSpec>col_10362_7356</setSpec>
        </header>
        <header>
            <identifier>oai:run.unl.pt:10362/7651</identifier>
            <datestamp>2012-07-25T19:18:38Z</datestamp>
            <setSpec>com_10362_2063</setSpec>
            <setSpec>col_10362_7356</setSpec>
        </header>
        <header>
            <identifier>oai:run.unl.pt:10362/7652</identifier>
            <datestamp>2012-07-26T09:18:59Z</datestamp>
            <setSpec>com_10362_2063</setSpec>
            <setSpec>col_10362_7356</setSpec>
        </header>
        <header>
            <identifier>oai:run.unl.pt:10362/7653</identifier>
            <datestamp>2012-07-26T09:31:01Z</datestamp>
            <setSpec>com_10362_2063</setSpec>
            <setSpec>col_10362_7356</setSpec>
        </header>
        <header>
            <identifier>oai:run.unl.pt:10362/7655</identifier>
            <datestamp>2012-07-26T09:40:45Z</datestamp>
            <setSpec>com_10362_2063</setSpec>
            <setSpec>col_10362_7356</setSpec>
        </header>
        <header>
            <identifier>oai:run.unl.pt:10362/7654</identifier>
            <datestamp>2012-07-26T09:39:40Z</datestamp>
            <setSpec>com_10362_2254</setSpec>
            <setSpec>com_10362_2089</setSpec>
            <setSpec>com_10362_1967</setSpec>
            <setSpec>col_10362_2409</setSpec>
        </header>
        <header>
            <identifier>oai:run.unl.pt:10362/7656</identifier>
            <datestamp>2012-07-26T09:47:08Z</datestamp>
            <setSpec>com_10362_2063</setSpec>
            <setSpec>col_10362_7356</setSpec>
        </header>
        <header>
            <identifier>oai:run.unl.pt:10362/7657</identifier>
            <datestamp>2012-07-26T09:51:08Z</datestamp>
            <setSpec>com_10362_2249</setSpec>
            <setSpec>com_10362_2089</setSpec>
            <setSpec>com_10362_1967</setSpec>
            <setSpec>col_10362_2326</setSpec>
        </header>
        <resumptionToken completeListSize="8722" cursor="41">MTo0MjAwfDI6fDM6fDQ6fDU6b2FpX2Rj</resumptionToken>
    </ListIdentifiers>
</OAI-PMH>
