<?xml version="1.0" encoding="UTF-8"?><?xml-stylesheet type="text/xsl" href="static/style.xsl"?><OAI-PMH xmlns="http://www.openarchives.org/OAI/2.0/" xmlns:xsi="http://www.w3.org/2001/XMLSchema-instance" xsi:schemaLocation="http://www.openarchives.org/OAI/2.0/ http://www.openarchives.org/OAI/2.0/OAI-PMH.xsd"><responseDate>2014-10-06T12:46:00Z</responseDate>
    <request verb="ListIdentifiers" resumptionToken="MTo4NzAwfDI6fDM6fDQ6fDU6b2FpX2Rj">http://run.unl.pt/oai/request</request>
    <ListIdentifiers>
        <header>
            <identifier>oai:run.unl.pt:10362/13160</identifier>
            <datestamp>2014-10-02T01:01:50Z</datestamp>
            <setSpec>com_10362_414</setSpec>
            <setSpec>com_10362_2085</setSpec>
            <setSpec>com_10362_410</setSpec>
            <setSpec>col_10362_1031</setSpec>
        </header>
        <header>
            <identifier>oai:run.unl.pt:10362/13161</identifier>
            <datestamp>2014-10-02T01:01:42Z</datestamp>
            <setSpec>com_10362_418</setSpec>
            <setSpec>com_10362_2085</setSpec>
            <setSpec>com_10362_410</setSpec>
            <setSpec>col_10362_1042</setSpec>
        </header>
        <header>
            <identifier>oai:run.unl.pt:10362/13162</identifier>
            <datestamp>2014-10-02T01:01:47Z</datestamp>
            <setSpec>com_10362_2252</setSpec>
            <setSpec>com_10362_2089</setSpec>
            <setSpec>com_10362_1967</setSpec>
            <setSpec>col_10362_4123</setSpec>
        </header>
        <header>
            <identifier>oai:run.unl.pt:10362/13163</identifier>
            <datestamp>2014-10-02T01:01:48Z</datestamp>
            <setSpec>com_10362_2255</setSpec>
            <setSpec>com_10362_2089</setSpec>
            <setSpec>com_10362_1967</setSpec>
            <setSpec>col_10362_5285</setSpec>
        </header>
        <header>
            <identifier>oai:run.unl.pt:10362/13164</identifier>
            <datestamp>2014-10-02T01:01:49Z</datestamp>
            <setSpec>com_10362_2249</setSpec>
            <setSpec>com_10362_2089</setSpec>
            <setSpec>com_10362_1967</setSpec>
            <setSpec>col_10362_2326</setSpec>
        </header>
        <header>
            <identifier>oai:run.unl.pt:10362/13165</identifier>
            <datestamp>2014-10-02T01:01:39Z</datestamp>
            <setSpec>com_10362_2249</setSpec>
            <setSpec>com_10362_2089</setSpec>
            <setSpec>com_10362_1967</setSpec>
            <setSpec>col_10362_2326</setSpec>
        </header>
        <header>
            <identifier>oai:run.unl.pt:10362/13167</identifier>
            <datestamp>2014-10-03T01:01:48Z</datestamp>
            <setSpec>com_10362_2186</setSpec>
            <setSpec>com_10362_2089</setSpec>
            <setSpec>com_10362_1967</setSpec>
            <setSpec>col_10362_4154</setSpec>
        </header>
        <header>
            <identifier>oai:run.unl.pt:10362/13168</identifier>
            <datestamp>2014-10-03T01:01:32Z</datestamp>
            <setSpec>com_10362_2249</setSpec>
            <setSpec>com_10362_2089</setSpec>
            <setSpec>com_10362_1967</setSpec>
            <setSpec>col_10362_2326</setSpec>
        </header>
        <header>
            <identifier>oai:run.unl.pt:10362/13169</identifier>
            <datestamp>2014-10-03T01:01:40Z</datestamp>
            <setSpec>com_10362_2256</setSpec>
            <setSpec>com_10362_2089</setSpec>
            <setSpec>com_10362_1967</setSpec>
            <setSpec>col_10362_2423</setSpec>
        </header>
        <header>
            <identifier>oai:run.unl.pt:10362/13170</identifier>
            <datestamp>2014-10-03T01:01:50Z</datestamp>
            <setSpec>com_10362_416</setSpec>
            <setSpec>com_10362_2085</setSpec>
            <setSpec>com_10362_410</setSpec>
            <setSpec>col_10362_1038</setSpec>
        </header>
        <header>
            <identifier>oai:run.unl.pt:10362/13171</identifier>
            <datestamp>2014-10-03T01:01:39Z</datestamp>
            <setSpec>com_10362_419</setSpec>
            <setSpec>com_10362_2085</setSpec>
            <setSpec>com_10362_410</setSpec>
            <setSpec>col_10362_1044</setSpec>
        </header>
        <header>
            <identifier>oai:run.unl.pt:10362/13172</identifier>
            <datestamp>2014-10-03T01:01:44Z</datestamp>
            <setSpec>com_10362_419</setSpec>
            <setSpec>com_10362_2085</setSpec>
            <setSpec>com_10362_410</setSpec>
            <setSpec>col_10362_1044</setSpec>
        </header>
        <header>
            <identifier>oai:run.unl.pt:10362/13173</identifier>
            <datestamp>2014-10-03T01:01:51Z</datestamp>
            <setSpec>com_10362_419</setSpec>
            <setSpec>com_10362_2085</setSpec>
            <setSpec>com_10362_410</setSpec>
            <setSpec>col_10362_1044</setSpec>
        </header>
        <header>
            <identifier>oai:run.unl.pt:10362/13174</identifier>
            <datestamp>2014-10-03T01:01:37Z</datestamp>
            <setSpec>com_10362_421</setSpec>
            <setSpec>com_10362_2085</setSpec>
            <setSpec>com_10362_410</setSpec>
            <setSpec>col_10362_1048</setSpec>
        </header>
        <header>
            <identifier>oai:run.unl.pt:10362/13175</identifier>
            <datestamp>2014-10-03T16:19:02Z</datestamp>
            <setSpec>com_10362_2272</setSpec>
            <setSpec>com_10362_2068</setSpec>
            <setSpec>com_10362_1967</setSpec>
            <setSpec>col_10362_6499</setSpec>
        </header>
        <header>
            <identifier>oai:run.unl.pt:10362/13176</identifier>
            <datestamp>2014-10-04T01:01:33Z</datestamp>
            <setSpec>com_10362_415</setSpec>
            <setSpec>com_10362_2085</setSpec>
            <setSpec>com_10362_410</setSpec>
            <setSpec>col_10362_1036</setSpec>
        </header>
        <header>
            <identifier>oai:run.unl.pt:10362/13177</identifier>
            <datestamp>2014-10-04T01:01:45Z</datestamp>
            <setSpec>com_10362_2186</setSpec>
            <setSpec>com_10362_2089</setSpec>
            <setSpec>com_10362_1967</setSpec>
            <setSpec>col_10362_4154</setSpec>
        </header>
        <header>
            <identifier>oai:run.unl.pt:10362/13178</identifier>
            <datestamp>2014-10-04T01:01:58Z</datestamp>
            <setSpec>com_10362_415</setSpec>
            <setSpec>com_10362_2085</setSpec>
            <setSpec>com_10362_410</setSpec>
            <setSpec>col_10362_1036</setSpec>
        </header>
        <header>
            <identifier>oai:run.unl.pt:10362/13179</identifier>
            <datestamp>2014-10-04T01:01:39Z</datestamp>
            <setSpec>com_10362_415</setSpec>
            <setSpec>com_10362_2085</setSpec>
            <setSpec>com_10362_410</setSpec>
            <setSpec>col_10362_1036</setSpec>
        </header>
        <header>
            <identifier>oai:run.unl.pt:10362/13180</identifier>
            <datestamp>2014-10-04T01:01:50Z</datestamp>
            <setSpec>com_10362_415</setSpec>
            <setSpec>com_10362_2085</setSpec>
            <setSpec>com_10362_410</setSpec>
            <setSpec>col_10362_1036</setSpec>
        </header>
        <header>
            <identifier>oai:run.unl.pt:10362/13182</identifier>
            <datestamp>2014-10-04T01:01:44Z</datestamp>
            <setSpec>com_10362_2272</setSpec>
            <setSpec>com_10362_2068</setSpec>
            <setSpec>com_10362_1967</setSpec>
            <setSpec>col_10362_6499</setSpec>
        </header>
        <header>
            <identifier>oai:run.unl.pt:10362/13183</identifier>
            <datestamp>2014-10-04T01:01:48Z</datestamp>
            <setSpec>com_10362_2272</setSpec>
            <setSpec>com_10362_2068</setSpec>
            <setSpec>com_10362_1967</setSpec>
            <setSpec>col_10362_6499</setSpec>
        </header>
        <resumptionToken completeListSize="8722" cursor="87"></resumptionToken>
    </ListIdentifiers>
</OAI-PMH>
