<?xml version="1.0" encoding="UTF-8"?><?xml-stylesheet type="text/xsl" href="static/style.xsl"?><OAI-PMH xmlns="http://www.openarchives.org/OAI/2.0/" xmlns:xsi="http://www.w3.org/2001/XMLSchema-instance" xsi:schemaLocation="http://www.openarchives.org/OAI/2.0/ http://www.openarchives.org/OAI/2.0/OAI-PMH.xsd"><responseDate>2014-10-06T12:45:51Z</responseDate>
    <request verb="ListSets" resumptionToken="MToyMDB8Mjp8Mzp8NDp8NTo=">http://run.unl.pt/oai/request</request>
    <ListSets>
        <set>
            <setSpec>com_10362_3585</setSpec>
            <setName>ITQB: Physiology of Environmentally Conditioned Microbiota</setName>
        </set>
        <set>
            <setSpec>com_10362_3667</setSpec>
            <setName>ITQB: LA</setName>
        </set>
        <set>
            <setSpec>com_10362_3749</setSpec>
            <setName>Revista da Faculdade de Ciências Sociais e Humanas</setName>
        </set>
        <set>
            <setSpec>com_10362_3766</setSpec>
            <setName>IHMT: Microbiologia Médica</setName>
        </set>
        <set>
            <setSpec>com_10362_3776</setSpec>
            <setName>IHMT: Saúde Pública e Internacional e Bioestatística</setName>
        </set>
        <set>
            <setSpec>com_10362_3778</setSpec>
            <setName>IHMT: Clínica Tropical</setName>
        </set>
        <set>
            <setSpec>com_10362_3780</setSpec>
            <setName>IHMT: Parasitologia Médica</setName>
        </set>
        <set>
            <setSpec>com_10362_4004</setSpec>
            <setName>FCT Divisão de Documentação e Biblioteca</setName>
        </set>
        <set>
            <setSpec>com_10362_4159</setSpec>
            <setName>ENSP: Área Disciplinar de Saúde Pública - Saúde Ambiental</setName>
        </set>
        <set>
            <setSpec>com_10362_4160</setSpec>
            <setName>ENSP: Área Disciplinar de Saúde Pública - Economia da Saúde</setName>
        </set>
        <set>
            <setSpec>com_10362_4161</setSpec>
            <setName>ENSP: Área Disciplinar de Saúde Pública - Direito da Saúde</setName>
        </set>
        <set>
            <setSpec>com_10362_4162</setSpec>
            <setName>ENSP: Área Disciplinar de Saúde Pública - Sociologia da Saúde</setName>
        </set>
        <set>
            <setSpec>com_10362_4163</setSpec>
            <setName>ENSP: Área Disciplinar de Saúde Pública - Promoção e Protecção da Saúde</setName>
        </set>
        <set>
            <setSpec>com_10362_4189</setSpec>
            <setName>FCM: Formação Pós-Graduada (3º Ciclo de Bolonha)</setName>
        </set>
        <set>
            <setSpec>com_10362_4481</setSpec>
            <setName>ITQB: Disease and Stress Biology</setName>
        </set>
        <set>
            <setSpec>com_10362_4482</setSpec>
            <setName>ITQB: Forest Biotech</setName>
        </set>
        <set>
            <setSpec>com_10362_4483</setSpec>
            <setName>ITQB: Genomics of Plant Stress (GPlantS)</setName>
        </set>
        <set>
            <setSpec>com_10362_4484</setSpec>
            <setName>ITQB: Plant Biochemistry</setName>
        </set>
        <set>
            <setSpec>com_10362_4485</setSpec>
            <setName>ITQB: Plant Cell Biology</setName>
        </set>
        <set>
            <setSpec>com_10362_4486</setSpec>
            <setName>ITQB: Plant Cell Biotechnology</setName>
        </set>
        <set>
            <setSpec>com_10362_4487</setSpec>
            <setName>ITQB: Plant Cell Wall</setName>
        </set>
        <set>
            <setSpec>com_10362_4488</setSpec>
            <setName>ITQB: Plant Developmental Genetics</setName>
        </set>
        <set>
            <setSpec>com_10362_4489</setSpec>
            <setName>ITQB: Plant Molecular Ecophysiology</setName>
        </set>
        <set>
            <setSpec>com_10362_4550</setSpec>
            <setName>ITQB: Analytical Chemistry</setName>
        </set>
        <set>
            <setSpec>com_10362_4551</setSpec>
            <setName>ITQB: Stress by Antibiotics and Virulence of Enterococci</setName>
        </set>
        <set>
            <setSpec>com_10362_4552</setSpec>
            <setName>ITQB: Applied and Environmental Mycology</setName>
        </set>
        <set>
            <setSpec>com_10362_4553</setSpec>
            <setName>ITQB: Biomathematics</setName>
        </set>
        <set>
            <setSpec>com_10362_4554</setSpec>
            <setName>ITQB: Biomolecular Diagnostics</setName>
        </set>
        <set>
            <setSpec>com_10362_4555</setSpec>
            <setName>ITQB: Cell Bioprocesses Laboratory - Animal Cell Technology Unit</setName>
        </set>
        <set>
            <setSpec>com_10362_4556</setSpec>
            <setName>ITQB: Cell Line Development and Molecular Biotechnology Laboratory - Animal Cell Technology Unit</setName>
        </set>
        <set>
            <setSpec>com_10362_4557</setSpec>
            <setName>ITQB: Engineering Cellular Applications Laboratory - Animal Cell Technology Unit</setName>
        </set>
        <set>
            <setSpec>com_10362_4558</setSpec>
            <setName>ITQB: Food Microbial Technology</setName>
        </set>
        <set>
            <setSpec>com_10362_4559</setSpec>
            <setName>ITQB: Mass Spectrometry</setName>
        </set>
        <set>
            <setSpec>com_10362_4560</setSpec>
            <setName>ITQB: Microbiology of Man-made Environments</setName>
        </set>
        <set>
            <setSpec>com_10362_4561</setSpec>
            <setName>ITQB: Molecular Thermodynamics</setName>
        </set>
        <set>
            <setSpec>com_10362_4562</setSpec>
            <setName>ITQB: Nutraceuticals and Delivery</setName>
        </set>
        <set>
            <setSpec>com_10362_4563</setSpec>
            <setName>ITQB: Pharmacokinetics and Biopharmaceutical Analysis</setName>
        </set>
        <set>
            <setSpec>com_10362_4564</setSpec>
            <setName>ITQB: Systems Biodynamics</setName>
        </set>
        <set>
            <setSpec>com_10362_8835</setSpec>
            <setName>FCM: Neonatologia</setName>
        </set>
        <set>
            <setSpec>com_10362_8836</setSpec>
            <setName>FCM: Pediatria Cirúrgica</setName>
        </set>
        <set>
            <setSpec>com_10362_8879</setSpec>
            <setName>FCM: Cirurgia Cabeça e Pescoço</setName>
        </set>
        <set>
            <setSpec>com_10362_8888</setSpec>
            <setName>FCM: Cirurgia Cardio-Torácica</setName>
        </set>
        <set>
            <setSpec>com_10362_8894</setSpec>
            <setName>FCM: Cirurgia Castrense</setName>
        </set>
        <set>
            <setSpec>com_10362_8900</setSpec>
            <setName>FCM: Neurocirurgia</setName>
        </set>
        <set>
            <setSpec>com_10362_8906</setSpec>
            <setName>FCM: Neuroradiologia</setName>
        </set>
        <set>
            <setSpec>com_10362_8912</setSpec>
            <setName>FCM: Cirurgia Pediátrica</setName>
        </set>
        <set>
            <setSpec>com_10362_8918</setSpec>
            <setName>FCM: Anestesia e Reanimação</setName>
        </set>
        <set>
            <setSpec>com_10362_8924</setSpec>
            <setName>FCM: Dermatologia e Venereologia</setName>
        </set>
        <set>
            <setSpec>com_10362_8930</setSpec>
            <setName>FCM: Doenças Infecciosas e Parasitárias</setName>
        </set>
        <set>
            <setSpec>com_10362_8936</setSpec>
            <setName>FCM: Hematologia</setName>
        </set>
        <set>
            <setSpec>com_10362_8942</setSpec>
            <setName>FCM: Imuno-alergologia</setName>
        </set>
        <set>
            <setSpec>com_10362_8955</setSpec>
            <setName>FCM: Medicina Interna</setName>
        </set>
        <set>
            <setSpec>com_10362_8961</setSpec>
            <setName>FCM: Medicina Nuclear</setName>
        </set>
        <set>
            <setSpec>com_10362_8967</setSpec>
            <setName>FCM: Medicina Tropical</setName>
        </set>
        <set>
            <setSpec>com_10362_8973</setSpec>
            <setName>FCM: Radioterapia</setName>
        </set>
        <set>
            <setSpec>com_10362_8979</setSpec>
            <setName>FCM: Reumatologia</setName>
        </set>
        <set>
            <setSpec>com_10362_8985</setSpec>
            <setName>FCM: Gastrenterologia</setName>
        </set>
        <set>
            <setSpec>com_10362_8991</setSpec>
            <setName>FCM: Medicina Laboratorial</setName>
        </set>
        <set>
            <setSpec>com_10362_9003</setSpec>
            <setName>FCM: Bioinformática</setName>
        </set>
        <set>
            <setSpec>com_10362_9009</setSpec>
            <setName>FCM: Imunohemoterapia</setName>
        </set>
        <set>
            <setSpec>com_10362_9015</setSpec>
            <setName>FCM: Deontologia Médica</setName>
        </set>
        <set>
            <setSpec>com_10362_9021</setSpec>
            <setName>FCM: Medicina Desportiva</setName>
        </set>
        <set>
            <setSpec>com_10362_9027</setSpec>
            <setName>FCM: Medicina do Trabalho</setName>
        </set>
        <set>
            <setSpec>com_10362_9033</setSpec>
            <setName>FCM: Medicina Tropical</setName>
        </set>
        <set>
            <setSpec>com_10362_9039</setSpec>
            <setName>FCM: Epidemiologia</setName>
        </set>
        <set>
            <setSpec>com_10362_9045</setSpec>
            <setName>FCM: Medicina Castrense</setName>
        </set>
        <set>
            <setSpec>com_10362_11016</setSpec>
            <setName>NSBE: Knowledge Centers</setName>
        </set>
        <set>
            <setSpec>com_10362_12362</setSpec>
            <setName>Revista do Instituto de História da Arte</setName>
        </set>
        <set>
            <setSpec>com_10362_12365</setSpec>
            <setName>GeoINova - Revista do DGPR</setName>
        </set>
        <set>
            <setSpec>com_10362_12550</setSpec>
            <setName>Comunidade teste CONVERIS</setName>
        </set>
        <set>
            <setSpec>col_10362_15</setSpec>
            <setName>FCT: UIED - Dissertações de Mestrado</setName>
        </set>
        <set>
            <setSpec>col_10362_59</setSpec>
            <setName>FCT: UIED - Teses de Doutoramento</setName>
        </set>
        <set>
            <setSpec>col_10362_197</setSpec>
            <setName>FCT: UIED - Livros</setName>
        </set>
        <set>
            <setSpec>col_10362_385</setSpec>
            <setName>FCT: UIED - Dissertações de Mestrado internacionais</setName>
        </set>
        <set>
            <setSpec>col_10362_490</setSpec>
            <setName>FCT: DCEA - Teses de Doutoramento</setName>
        </set>
        <set>
            <setSpec>col_10362_759</setSpec>
            <setName>FCT: DF - Óptica Aplicada</setName>
        </set>
        <set>
            <setSpec>col_10362_824</setSpec>
            <setName>FCT: DCEA - Dissertações de Mestrado</setName>
        </set>
        <set>
            <setSpec>col_10362_851</setSpec>
            <setName>FCT: DCT - Dissertações de Mestrado</setName>
        </set>
        <set>
            <setSpec>col_10362_852</setSpec>
            <setName>FCT: DCT - Teses de Doutoramento</setName>
        </set>
        <set>
            <setSpec>col_10362_1029</setSpec>
            <setName>FCT: DCM - Dissertações de Mestrado</setName>
        </set>
        <set>
            <setSpec>col_10362_1030</setSpec>
            <setName>FCT: DCM - Teses de Doutoramento</setName>
        </set>
        <set>
            <setSpec>col_10362_1031</setSpec>
            <setName>FCT: DCSA - Dissertações de Mestrado</setName>
        </set>
        <set>
            <setSpec>col_10362_1032</setSpec>
            <setName>FCT: DCSA - Teses de Doutoramento</setName>
        </set>
        <set>
            <setSpec>col_10362_1034</setSpec>
            <setName>FCT: DCR - Teses de Doutoramento</setName>
        </set>
        <set>
            <setSpec>col_10362_1035</setSpec>
            <setName>FCT: DCR - Dissertações de Mestrado</setName>
        </set>
        <set>
            <setSpec>col_10362_1036</setSpec>
            <setName>FCT: DEC - Dissertações de Mestrado</setName>
        </set>
        <set>
            <setSpec>col_10362_1037</setSpec>
            <setName>FCT: DEC - Teses de Doutoramento</setName>
        </set>
        <set>
            <setSpec>col_10362_1038</setSpec>
            <setName>FCT: DEE - Dissertações de Mestrado</setName>
        </set>
        <set>
            <setSpec>col_10362_1039</setSpec>
            <setName>FCT: DEE - Teses de Doutoramento</setName>
        </set>
        <set>
            <setSpec>col_10362_1040</setSpec>
            <setName>FCT: DEMI - Dissertações de Mestrado</setName>
        </set>
        <set>
            <setSpec>col_10362_1041</setSpec>
            <setName>FCT: DEMI - Teses de Doutoramento</setName>
        </set>
        <set>
            <setSpec>col_10362_1042</setSpec>
            <setName>FCT: DF - Dissertações de Mestrado</setName>
        </set>
        <set>
            <setSpec>col_10362_1043</setSpec>
            <setName>FCT: DF - Teses de Doutoramento</setName>
        </set>
        <set>
            <setSpec>col_10362_1044</setSpec>
            <setName>FCT: DI - Dissertações de Mestrado</setName>
        </set>
        <set>
            <setSpec>col_10362_1045</setSpec>
            <setName>FCT: DI - Teses de Doutoramento</setName>
        </set>
        <set>
            <setSpec>col_10362_1046</setSpec>
            <setName>FCT: DM - Dissertações de Mestrado</setName>
        </set>
        <set>
            <setSpec>col_10362_1047</setSpec>
            <setName>FCT: DM - Teses de Doutoramento</setName>
        </set>
        <set>
            <setSpec>col_10362_1048</setSpec>
            <setName>FCT: DQ - Dissertações de Mestrado</setName>
        </set>
        <set>
            <setSpec>col_10362_1049</setSpec>
            <setName>FCT: DQ - Teses de Doutoramento</setName>
        </set>
        <set>
            <setSpec>col_10362_1050</setSpec>
            <setName>FCT: DCTB - Dissertações de Mestrado</setName>
        </set>
        <resumptionToken completeListSize="1584" cursor="2">MTozMDB8Mjp8Mzp8NDp8NTo=</resumptionToken>
    </ListSets>
</OAI-PMH>
