<?xml version="1.0" encoding="UTF-8"?><?xml-stylesheet type="text/xsl" href="static/style.xsl"?><OAI-PMH xmlns="http://www.openarchives.org/OAI/2.0/" xmlns:xsi="http://www.w3.org/2001/XMLSchema-instance" xsi:schemaLocation="http://www.openarchives.org/OAI/2.0/ http://www.openarchives.org/OAI/2.0/OAI-PMH.xsd"><responseDate>2014-10-06T12:45:52Z</responseDate>
    <request verb="ListSets" resumptionToken="MToxNDAwfDI6fDM6fDQ6fDU6">http://run.unl.pt/oai/request</request>
    <ListSets>
        <set>
            <setSpec>col_10362_8931</setSpec>
            <setName>FCM: Doenças Infecciosas e Parasitárias - Artigos em revista internacional com arbitragem científica</setName>
        </set>
        <set>
            <setSpec>col_10362_8932</setSpec>
            <setName>FCM: Doenças Infecciosas e Parasitárias - Artigos em revista nacional com arbitragem científica</setName>
        </set>
        <set>
            <setSpec>col_10362_8933</setSpec>
            <setName>FCM: Doenças Infecciosas e Parasitárias - Capítulos de Livros</setName>
        </set>
        <set>
            <setSpec>col_10362_8934</setSpec>
            <setName>FCM: Doenças Infecciosas e Parasitárias - Dissertações de Mestrado</setName>
        </set>
        <set>
            <setSpec>col_10362_8935</setSpec>
            <setName>FCM: Doenças Infecciosas e Parasitárias - Teses de Doutoramento</setName>
        </set>
        <set>
            <setSpec>col_10362_8937</setSpec>
            <setName>FCM: Hematologia - Artigos em revista internacional com arbitragem científica</setName>
        </set>
        <set>
            <setSpec>col_10362_8938</setSpec>
            <setName>FCM: Hematologia - Artigos em revista nacional com arbitragem científica</setName>
        </set>
        <set>
            <setSpec>col_10362_8939</setSpec>
            <setName>FCM: Hematologia - Capítulos de Livros</setName>
        </set>
        <set>
            <setSpec>col_10362_8940</setSpec>
            <setName>FCM: Hematologia - Dissertações de Mestrado</setName>
        </set>
        <set>
            <setSpec>col_10362_8941</setSpec>
            <setName>FCM: Hematologia - Teses de Doutoramento</setName>
        </set>
        <set>
            <setSpec>col_10362_8943</setSpec>
            <setName>FCM: Imuno-alergologia - Artigos em revista internacional com arbitragem científica</setName>
        </set>
        <set>
            <setSpec>col_10362_8944</setSpec>
            <setName>FCM: Imuno-alergologia - Artigos em revista internacional com arbitragem científica</setName>
        </set>
        <set>
            <setSpec>col_10362_8945</setSpec>
            <setName>FCM: Imuno-alergologia - Dissertações de Mestrado</setName>
        </set>
        <set>
            <setSpec>col_10362_8946</setSpec>
            <setName>FCM: Imuno-alergologia - Teses de Doutoramento</setName>
        </set>
        <set>
            <setSpec>col_10362_8947</setSpec>
            <setName>FCM: Imuno-alergologia - Capítulos de Livros</setName>
        </set>
        <set>
            <setSpec>col_10362_8956</setSpec>
            <setName>FCM: Medicina Interna - Artigos em revista internacional com arbitragem científica</setName>
        </set>
        <set>
            <setSpec>col_10362_8957</setSpec>
            <setName>FCM: Medicina Interna - Artigos em revista nacional com arbitragem científica</setName>
        </set>
        <set>
            <setSpec>col_10362_8958</setSpec>
            <setName>FCM: Medicina Interna - Capítulos de Livros</setName>
        </set>
        <set>
            <setSpec>col_10362_8959</setSpec>
            <setName>FCM: Medicina Interna - Dissertações de Mestrado</setName>
        </set>
        <set>
            <setSpec>col_10362_8960</setSpec>
            <setName>FCM: Medicina Interna  - Teses de Doutoramento</setName>
        </set>
        <set>
            <setSpec>col_10362_8962</setSpec>
            <setName>FCM: Medicina Nuclear  - Artigos em revista internacional com arbitragem científica</setName>
        </set>
        <set>
            <setSpec>col_10362_8963</setSpec>
            <setName>FCM: Medicina Nuclear - Artigos em revista nacional com arbitragem científica</setName>
        </set>
        <set>
            <setSpec>col_10362_8964</setSpec>
            <setName>FCM: Medicina Nuclear  - Capítulos de Livros</setName>
        </set>
        <set>
            <setSpec>col_10362_8965</setSpec>
            <setName>FCM: Medicina Nuclear - Dissertações de Mestrado</setName>
        </set>
        <set>
            <setSpec>col_10362_8966</setSpec>
            <setName>FCM: Medicina Nuclear - Teses de Doutoramento</setName>
        </set>
        <set>
            <setSpec>col_10362_8968</setSpec>
            <setName>FCM: Medicina Tropical - Artigos em revista internacional com arbitragem científica</setName>
        </set>
        <set>
            <setSpec>col_10362_8969</setSpec>
            <setName>FCM: Medicina Tropical - Artigos em revista nacional com arbitragem científica</setName>
        </set>
        <set>
            <setSpec>col_10362_8970</setSpec>
            <setName>FCM: Medicina Tropical - Dissertações de Mestrado</setName>
        </set>
        <set>
            <setSpec>col_10362_8971</setSpec>
            <setName>FCM: Medicina Tropical - Teses de Doutoramento</setName>
        </set>
        <set>
            <setSpec>col_10362_8972</setSpec>
            <setName>FCM: Medicina Tropical - Capítulos de Livros</setName>
        </set>
        <set>
            <setSpec>col_10362_8974</setSpec>
            <setName>FCM: Radioterapia  - Artigos em revista internacional com arbitragem científica</setName>
        </set>
        <set>
            <setSpec>col_10362_8975</setSpec>
            <setName>FCM: Radioterapia  - Artigos em revista nacional com arbitragem científica</setName>
        </set>
        <set>
            <setSpec>col_10362_8976</setSpec>
            <setName>FCM: Radioterapia - Capítulos de Livros</setName>
        </set>
        <set>
            <setSpec>col_10362_8977</setSpec>
            <setName>FCM: Radioterapia  - Dissertações de Mestrado</setName>
        </set>
        <set>
            <setSpec>col_10362_8978</setSpec>
            <setName>FCM: Radioterapia - Teses de Doutoramento</setName>
        </set>
        <set>
            <setSpec>col_10362_8980</setSpec>
            <setName>FCM: Reumatologia - Artigos em revista internacional com arbitragem científica</setName>
        </set>
        <set>
            <setSpec>col_10362_8981</setSpec>
            <setName>FCM: Reumatologia - Artigos em revista nacional com arbitragem científica</setName>
        </set>
        <set>
            <setSpec>col_10362_8982</setSpec>
            <setName>FCM: Reumatologia - Capítulos de Livros</setName>
        </set>
        <set>
            <setSpec>col_10362_8983</setSpec>
            <setName>FCM: Reumatologia - Dissertações de Mestrado</setName>
        </set>
        <set>
            <setSpec>col_10362_8984</setSpec>
            <setName>FCM: Reumatologia - Teses de Doutoramento</setName>
        </set>
        <set>
            <setSpec>col_10362_8986</setSpec>
            <setName>FCM: Gastrenterologia - Artigos em revista internacional com arbitragem científica</setName>
        </set>
        <set>
            <setSpec>col_10362_8987</setSpec>
            <setName>FCM: Gastrenterologia - Artigos em revista nacional com arbitragem científica</setName>
        </set>
        <set>
            <setSpec>col_10362_8988</setSpec>
            <setName>FCM: Gastrenterologia - Capítulos de Livros</setName>
        </set>
        <set>
            <setSpec>col_10362_8989</setSpec>
            <setName>FCM: Gastrenterologia - Dissertações de Mestrado</setName>
        </set>
        <set>
            <setSpec>col_10362_8990</setSpec>
            <setName>FCM: Gastrenterologia - Teses de Doutoramento</setName>
        </set>
        <set>
            <setSpec>col_10362_8992</setSpec>
            <setName>FCM: Medicina Laboratorial - Artigos em revista internacional com arbitragem científica</setName>
        </set>
        <set>
            <setSpec>col_10362_8993</setSpec>
            <setName>FCM: Medicina Laboratorial - Artigos em revista nacional com arbitragem científica</setName>
        </set>
        <set>
            <setSpec>col_10362_8994</setSpec>
            <setName>FCM: Medicina Laboratorial - Capítulos de Livros</setName>
        </set>
        <set>
            <setSpec>col_10362_8995</setSpec>
            <setName>FCM: Medicina Laboratorial  - Dissertações de Mestrado</setName>
        </set>
        <set>
            <setSpec>col_10362_8996</setSpec>
            <setName>FCM: Medicina Laboratorial - Teses de Doutoramento</setName>
        </set>
        <set>
            <setSpec>col_10362_9004</setSpec>
            <setName>FCM: Bioinformática - Artigos em revista internacional com arbitragem científica</setName>
        </set>
        <set>
            <setSpec>col_10362_9005</setSpec>
            <setName>FCM: Bioinformática - Artigos em revista nacional com arbitragem científica</setName>
        </set>
        <set>
            <setSpec>col_10362_9006</setSpec>
            <setName>FCM: Bioinformática - Capítulos de Livros</setName>
        </set>
        <set>
            <setSpec>col_10362_9007</setSpec>
            <setName>FCM: Bioinformática - Artigos em revista nacional com arbitragem científica</setName>
        </set>
        <set>
            <setSpec>col_10362_9008</setSpec>
            <setName>FCM: Bioinformática  - Teses de Doutoramento</setName>
        </set>
        <set>
            <setSpec>col_10362_9010</setSpec>
            <setName>FCM: Imunohemoterapia - - Artigos em revista internacional com arbitragem científica</setName>
        </set>
        <set>
            <setSpec>col_10362_9011</setSpec>
            <setName>FCM: Imunohemoterapia - Artigos em revista nacional com arbitragem científica</setName>
        </set>
        <set>
            <setSpec>col_10362_9012</setSpec>
            <setName>FCM: Imunohemoterapia - Capítulos de Livros</setName>
        </set>
        <set>
            <setSpec>col_10362_9013</setSpec>
            <setName>FCM: Imunohemoterapia - Dissertações de Mestrado</setName>
        </set>
        <set>
            <setSpec>col_10362_9014</setSpec>
            <setName>FCM: Imunohemoterapia - Teses de Doutoramento</setName>
        </set>
        <set>
            <setSpec>col_10362_9016</setSpec>
            <setName>FCM: Deontologia Médica - Artigos em revista internacional com arbitragem científica</setName>
        </set>
        <set>
            <setSpec>col_10362_9017</setSpec>
            <setName>FCM: Deontologia Médica  - Artigos em revista nacional com arbitragem científica</setName>
        </set>
        <set>
            <setSpec>col_10362_9018</setSpec>
            <setName>FCM: Deontologia Médica  - Capítulos de Livros</setName>
        </set>
        <set>
            <setSpec>col_10362_9019</setSpec>
            <setName>FCM: Deontologia Médica - Teses de Doutoramento</setName>
        </set>
        <set>
            <setSpec>col_10362_9020</setSpec>
            <setName>FCM: Deontologia Médica - Dissertações de Mestrado</setName>
        </set>
        <set>
            <setSpec>col_10362_9022</setSpec>
            <setName>FCM: Medicina Desportiva - Artigos em revista internacional com arbitragem científica</setName>
        </set>
        <set>
            <setSpec>col_10362_9023</setSpec>
            <setName>FCM: Medicina Desportiva - Artigos em revista nacional com arbitragem científica</setName>
        </set>
        <set>
            <setSpec>col_10362_9024</setSpec>
            <setName>FCM: Medicina Desportiva  - Capítulos de Livros</setName>
        </set>
        <set>
            <setSpec>col_10362_9025</setSpec>
            <setName>FCM: Medicina Desportiva - Dissertações de Mestrado</setName>
        </set>
        <set>
            <setSpec>col_10362_9026</setSpec>
            <setName>FCM: Medicina Desportiva - Teses de Doutoramento</setName>
        </set>
        <set>
            <setSpec>col_10362_9028</setSpec>
            <setName>FCM: Medicina do Trabalho - Artigos em revista internacional com arbitragem científica</setName>
        </set>
        <set>
            <setSpec>col_10362_9029</setSpec>
            <setName>FCM: Medicina do Trabalho - Artigos em revista nacional com arbitragem científica</setName>
        </set>
        <set>
            <setSpec>col_10362_9030</setSpec>
            <setName>FCM: Medicina do Trabalho - Teses de Doutoramento</setName>
        </set>
        <set>
            <setSpec>col_10362_9031</setSpec>
            <setName>FCM: Medicina do Trabalho - Dissertações de Mestrado</setName>
        </set>
        <set>
            <setSpec>col_10362_9032</setSpec>
            <setName>FCM: Medicina do Trabalho - Capítulos de Livros</setName>
        </set>
        <set>
            <setSpec>col_10362_9034</setSpec>
            <setName>FCM: Medicina Tropical - Artigos em revista internacional com arbitragem científica</setName>
        </set>
        <set>
            <setSpec>col_10362_9035</setSpec>
            <setName>FCM: Medicina Tropical - Artigos em revista nacional com arbitragem científica</setName>
        </set>
        <set>
            <setSpec>col_10362_9036</setSpec>
            <setName>FCM: Medicina Tropical - Capítulos de Livros</setName>
        </set>
        <set>
            <setSpec>col_10362_9037</setSpec>
            <setName>FCM: Medicina Tropical - Dissertações de Mestrado</setName>
        </set>
        <set>
            <setSpec>col_10362_9038</setSpec>
            <setName>FCM: Medicina Tropical  - Teses de Doutoramento</setName>
        </set>
        <set>
            <setSpec>col_10362_9040</setSpec>
            <setName>FCM: Epidemiologia - Artigos em revista internacional com arbitragem científica</setName>
        </set>
        <set>
            <setSpec>col_10362_9041</setSpec>
            <setName>FCM: Epidemiologia - Artigos em revista nacional com arbitragem científica</setName>
        </set>
        <set>
            <setSpec>col_10362_9042</setSpec>
            <setName>FCM: Epidemiologia - Teses de Doutoramento</setName>
        </set>
        <set>
            <setSpec>col_10362_9043</setSpec>
            <setName>FCM: Epidemiologia  - Capítulos de Livros</setName>
        </set>
        <set>
            <setSpec>col_10362_9044</setSpec>
            <setName>FCM: Epidemiologia - Dissertações de Mestrado</setName>
        </set>
        <set>
            <setSpec>col_10362_9046</setSpec>
            <setName>FCM: Medicina Castrense - Artigos em revista internacional com arbitragem científica</setName>
        </set>
        <set>
            <setSpec>col_10362_9047</setSpec>
            <setName>FCM: Medicina Castrense - Artigos em revista nacional com arbitragem científica</setName>
        </set>
        <set>
            <setSpec>col_10362_9048</setSpec>
            <setName>FCM: Medicina Castrense - Capítulos de Livros</setName>
        </set>
        <set>
            <setSpec>col_10362_9049</setSpec>
            <setName>FCM: Medicina Castrense - Dissertações de Mestrado</setName>
        </set>
        <set>
            <setSpec>col_10362_9050</setSpec>
            <setName>FCM: Medicina Castrense - Teses de Doutoramento</setName>
        </set>
        <set>
            <setSpec>col_10362_9099</setSpec>
            <setName>FCSH: DEP -  Working papers</setName>
        </set>
        <set>
            <setSpec>col_10362_9159</setSpec>
            <setName>FCSH: DGPR - Working papers</setName>
        </set>
        <set>
            <setSpec>col_10362_9780</setSpec>
            <setName>ITQB:FMT-PhD Thesis</setName>
        </set>
        <set>
            <setSpec>col_10362_9818</setSpec>
            <setName>FCSH: IHC - Livros nacionais</setName>
        </set>
        <set>
            <setSpec>col_10362_10509</setSpec>
            <setName>ITQB:PBA-PhD Theses</setName>
        </set>
        <set>
            <setSpec>col_10362_10662</setSpec>
            <setName>FCT: DM - Capítulos de livros nacionais</setName>
        </set>
        <set>
            <setSpec>col_10362_10663</setSpec>
            <setName>FCT: DM - Livros nacionais</setName>
        </set>
        <set>
            <setSpec>col_10362_10664</setSpec>
            <setName>FCT: CMA - Artigos em revista internacional com arbitragem científica</setName>
        </set>
        <set>
            <setSpec>col_10362_10665</setSpec>
            <setName>FCT: CMA - Artigos em revista nacional com arbitragem científica</setName>
        </set>
        <set>
            <setSpec>col_10362_10666</setSpec>
            <setName>FCT: CMA - Capítulos de livros internacionais</setName>
        </set>
        <resumptionToken completeListSize="1584" cursor="14">MToxNTAwfDI6fDM6fDQ6fDU6</resumptionToken>
    </ListSets>
</OAI-PMH>
