<?xml version="1.0" encoding="UTF-8"?><?xml-stylesheet type="text/xsl" href="static/style.xsl"?><OAI-PMH xmlns="http://www.openarchives.org/OAI/2.0/" xmlns:xsi="http://www.w3.org/2001/XMLSchema-instance" xsi:schemaLocation="http://www.openarchives.org/OAI/2.0/ http://www.openarchives.org/OAI/2.0/OAI-PMH.xsd"><responseDate>2014-10-06T12:45:52Z</responseDate>
    <request verb="ListSets" resumptionToken="MToxMDAwfDI6fDM6fDQ6fDU6">http://run.unl.pt/oai/request</request>
    <ListSets>
        <set>
            <setSpec>col_10362_4548</setSpec>
            <setName>ITQB: OC - PhD Theses</setName>
        </set>
        <set>
            <setSpec>col_10362_4549</setSpec>
            <setName>ITQB: SMP - PhD Theses</setName>
        </set>
        <set>
            <setSpec>col_10362_4565</setSpec>
            <setName>ITQB: DSB - Artigos em revista internacional com arbitragem científica</setName>
        </set>
        <set>
            <setSpec>col_10362_4566</setSpec>
            <setName>ITQB: DSB - Artigos em revista nacional com arbitragem científica</setName>
        </set>
        <set>
            <setSpec>col_10362_4567</setSpec>
            <setName>ITQB: DSB - Book</setName>
        </set>
        <set>
            <setSpec>col_10362_4568</setSpec>
            <setName>ITQB: DSB - MA Dissertations</setName>
        </set>
        <set>
            <setSpec>col_10362_4569</setSpec>
            <setName>ITQB: DSB - Part of book or chapter of book</setName>
        </set>
        <set>
            <setSpec>col_10362_4570</setSpec>
            <setName>ITQB: DSB - PhD Theses</setName>
        </set>
        <set>
            <setSpec>col_10362_4571</setSpec>
            <setName>ITQB: FB - Artigos em revista internacional com arbitragem científica</setName>
        </set>
        <set>
            <setSpec>col_10362_4572</setSpec>
            <setName>ITQB: FB - Artigos em revista nacional com arbitragem científica</setName>
        </set>
        <set>
            <setSpec>col_10362_4573</setSpec>
            <setName>ITQB: FB - Book</setName>
        </set>
        <set>
            <setSpec>col_10362_4574</setSpec>
            <setName>ITQB: FB - MA Dissertations</setName>
        </set>
        <set>
            <setSpec>col_10362_4575</setSpec>
            <setName>ITQB: FB - Part of book or chapter of book</setName>
        </set>
        <set>
            <setSpec>col_10362_4576</setSpec>
            <setName>ITQB: FB - PhD Theses</setName>
        </set>
        <set>
            <setSpec>col_10362_4577</setSpec>
            <setName>ITQB: GPS - Artigos em revista internacional com arbitragem científica</setName>
        </set>
        <set>
            <setSpec>col_10362_4578</setSpec>
            <setName>ITQB: GPS - Artigos em revista nacional com arbitragem científica</setName>
        </set>
        <set>
            <setSpec>col_10362_4579</setSpec>
            <setName>ITQB: GPS - Book</setName>
        </set>
        <set>
            <setSpec>col_10362_4580</setSpec>
            <setName>ITQB: GPS - MA Dissertations</setName>
        </set>
        <set>
            <setSpec>col_10362_4581</setSpec>
            <setName>ITQB: GPS - Part of book or chapter of book</setName>
        </set>
        <set>
            <setSpec>col_10362_4582</setSpec>
            <setName>ITQB: GPS - PhD Theses</setName>
        </set>
        <set>
            <setSpec>col_10362_4583</setSpec>
            <setName>ITQB: PB - Artigos em revista internacional com arbitragem científica</setName>
        </set>
        <set>
            <setSpec>col_10362_4584</setSpec>
            <setName>ITQB: PB - Artigos em revista nacional com arbitragem científica</setName>
        </set>
        <set>
            <setSpec>col_10362_4585</setSpec>
            <setName>ITQB: PB - Book</setName>
        </set>
        <set>
            <setSpec>col_10362_4586</setSpec>
            <setName>ITQB: PB - MA Dissertations</setName>
        </set>
        <set>
            <setSpec>col_10362_4587</setSpec>
            <setName>ITQB: PB - Part of book or chapter of book</setName>
        </set>
        <set>
            <setSpec>col_10362_4588</setSpec>
            <setName>ITQB: PB - PhD Theses</setName>
        </set>
        <set>
            <setSpec>col_10362_4605</setSpec>
            <setName>ITQB: PCB - Artigos em revista internacional com arbitragem científica</setName>
        </set>
        <set>
            <setSpec>col_10362_4606</setSpec>
            <setName>ITQB: PCB - Artigos em revista nacional com arbitragem científica</setName>
        </set>
        <set>
            <setSpec>col_10362_4607</setSpec>
            <setName>ITQB: PCB - Book</setName>
        </set>
        <set>
            <setSpec>col_10362_4608</setSpec>
            <setName>ITQB: PCB - MA Dissertations</setName>
        </set>
        <set>
            <setSpec>col_10362_4609</setSpec>
            <setName>ITQB: PCB - Part of book or chapter of book</setName>
        </set>
        <set>
            <setSpec>col_10362_4610</setSpec>
            <setName>ITQB: PCB - PhD Theses</setName>
        </set>
        <set>
            <setSpec>col_10362_4611</setSpec>
            <setName>ITQB: PCBTH - Artigos em revista internacional com arbitragem científica</setName>
        </set>
        <set>
            <setSpec>col_10362_4612</setSpec>
            <setName>ITQB: PCBTH - Artigos em revista nacional com arbitragem científica</setName>
        </set>
        <set>
            <setSpec>col_10362_4613</setSpec>
            <setName>ITQB: PCBTH - Book</setName>
        </set>
        <set>
            <setSpec>col_10362_4614</setSpec>
            <setName>ITQB: PCBTH - MA Dissertations</setName>
        </set>
        <set>
            <setSpec>col_10362_4615</setSpec>
            <setName>ITQB: PCBTH - Part of book or chapter of book</setName>
        </set>
        <set>
            <setSpec>col_10362_4616</setSpec>
            <setName>ITQB: PCBTH - PhD Theses</setName>
        </set>
        <set>
            <setSpec>col_10362_4617</setSpec>
            <setName>ITQB: PCW - Artigos em revista internacional com arbitragem científica</setName>
        </set>
        <set>
            <setSpec>col_10362_4618</setSpec>
            <setName>ITQB: PCW - Artigos em revista nacional com arbitragem científica</setName>
        </set>
        <set>
            <setSpec>col_10362_4619</setSpec>
            <setName>ITQB: PCW - Book</setName>
        </set>
        <set>
            <setSpec>col_10362_4620</setSpec>
            <setName>ITQB: PCW - MA Dissertations</setName>
        </set>
        <set>
            <setSpec>col_10362_4621</setSpec>
            <setName>ITQB: PCW - Part of book or chapter of book</setName>
        </set>
        <set>
            <setSpec>col_10362_4622</setSpec>
            <setName>ITQB: PCW - PhD Theses</setName>
        </set>
        <set>
            <setSpec>col_10362_4623</setSpec>
            <setName>ITQB: PDG - Artigos em revista internacional com arbitragem científica</setName>
        </set>
        <set>
            <setSpec>col_10362_4624</setSpec>
            <setName>ITQB: PDG - Artigos em revista nacional com arbitragem científica</setName>
        </set>
        <set>
            <setSpec>col_10362_4625</setSpec>
            <setName>ITQB: PDG - Book</setName>
        </set>
        <set>
            <setSpec>col_10362_4626</setSpec>
            <setName>ITQB: PDG - MA Dissertations</setName>
        </set>
        <set>
            <setSpec>col_10362_4627</setSpec>
            <setName>ITQB: PDG - Part of book or chapter of book</setName>
        </set>
        <set>
            <setSpec>col_10362_4628</setSpec>
            <setName>ITQB: PDG - PhD Theses</setName>
        </set>
        <set>
            <setSpec>col_10362_4629</setSpec>
            <setName>ITQB: PME - Artigos em revista internacional com arbitragem científica</setName>
        </set>
        <set>
            <setSpec>col_10362_4630</setSpec>
            <setName>ITQB: PME - Artigos em revista nacional com arbitragem científica</setName>
        </set>
        <set>
            <setSpec>col_10362_4631</setSpec>
            <setName>ITQB: PME - Book</setName>
        </set>
        <set>
            <setSpec>col_10362_4632</setSpec>
            <setName>ITQB: PME - MA Dissertations</setName>
        </set>
        <set>
            <setSpec>col_10362_4633</setSpec>
            <setName>ITQB: PME - Part of book or chapter of book</setName>
        </set>
        <set>
            <setSpec>col_10362_4634</setSpec>
            <setName>ITQB: PME - PhD Theses</setName>
        </set>
        <set>
            <setSpec>col_10362_4635</setSpec>
            <setName>ITQB: BD - Artigos em revista internacional com arbitragem científica</setName>
        </set>
        <set>
            <setSpec>col_10362_4636</setSpec>
            <setName>ITQB: BD - Artigos em revista nacional com arbitragem científica</setName>
        </set>
        <set>
            <setSpec>col_10362_4641</setSpec>
            <setName>FCT: DI - Artigos em revista internacional com arbitragem científica</setName>
        </set>
        <set>
            <setSpec>col_10362_4642</setSpec>
            <setName>FCT: DI - Artigos em revista nacional com arbitragem científica</setName>
        </set>
        <set>
            <setSpec>col_10362_4643</setSpec>
            <setName>FCT: DI - Documentos de conferências internacionais</setName>
        </set>
        <set>
            <setSpec>col_10362_4644</setSpec>
            <setName>FCT: DI - Documentos de conferências nacionais</setName>
        </set>
        <set>
            <setSpec>col_10362_4646</setSpec>
            <setName>ITQB: BD - Book</setName>
        </set>
        <set>
            <setSpec>col_10362_4647</setSpec>
            <setName>ITQB: BD - MA Dissertations</setName>
        </set>
        <set>
            <setSpec>col_10362_4648</setSpec>
            <setName>ITQB: BD - Part of book or chapter of book</setName>
        </set>
        <set>
            <setSpec>col_10362_4649</setSpec>
            <setName>ITQB: BD - PhD Theses</setName>
        </set>
        <set>
            <setSpec>col_10362_4653</setSpec>
            <setName>FCT: DI - Capítulos de livros internacionais</setName>
        </set>
        <set>
            <setSpec>col_10362_4654</setSpec>
            <setName>FCT: DI - Capítulos de livros nacionais</setName>
        </set>
        <set>
            <setSpec>col_10362_4655</setSpec>
            <setName>FCT: DI - Relatórios</setName>
        </set>
        <set>
            <setSpec>col_10362_4656</setSpec>
            <setName>FCT: DI - Working papers</setName>
        </set>
        <set>
            <setSpec>col_10362_4659</setSpec>
            <setName>FCSH: DS - Dissertações de Mestrado</setName>
        </set>
        <set>
            <setSpec>col_10362_4904</setSpec>
            <setName>FCSH: DCM - Teses de Doutoramento</setName>
        </set>
        <set>
            <setSpec>col_10362_4905</setSpec>
            <setName>FCSH: IHC - Artigos em revista internacional com arbitragem científica</setName>
        </set>
        <set>
            <setSpec>col_10362_4906</setSpec>
            <setName>FCSH: IHC - Artigos em revista nacional com arbitragem científica</setName>
        </set>
        <set>
            <setSpec>col_10362_4907</setSpec>
            <setName>FCSH: IHC - Documentos de conferências internacionais</setName>
        </set>
        <set>
            <setSpec>col_10362_4908</setSpec>
            <setName>FCSH: IHC - Documentos de conferências nacionais</setName>
        </set>
        <set>
            <setSpec>col_10362_4933</setSpec>
            <setName>FCSH: IHC - Capítulos de livros internacionais</setName>
        </set>
        <set>
            <setSpec>col_10362_4935</setSpec>
            <setName>FCSH:  DCC - Teses de Doutoramento</setName>
        </set>
        <set>
            <setSpec>col_10362_4943</setSpec>
            <setName>FCT: CIUHCT - Artigos em revista internacional com arbitragem científica</setName>
        </set>
        <set>
            <setSpec>col_10362_4945</setSpec>
            <setName>FCT: CIUHCT - Artigos em revista nacional com arbitragem científica</setName>
        </set>
        <set>
            <setSpec>col_10362_4947</setSpec>
            <setName>FCT: CIUHCT - Documentos de conferências internacionais</setName>
        </set>
        <set>
            <setSpec>col_10362_4948</setSpec>
            <setName>FCT: CIUHCT - Documentos de conferências nacionais</setName>
        </set>
        <set>
            <setSpec>col_10362_4949</setSpec>
            <setName>FCT: CIUHCT - Capítulos de livros</setName>
        </set>
        <set>
            <setSpec>col_10362_4950</setSpec>
            <setName>FCT: CIUHCT - Livros</setName>
        </set>
        <set>
            <setSpec>col_10362_4981</setSpec>
            <setName>FCSH: CESNOVA - Dissertações de Mestrado</setName>
        </set>
        <set>
            <setSpec>col_10362_5083</setSpec>
            <setName>FCSH: CESNOVA - Livros nacionais</setName>
        </set>
        <set>
            <setSpec>col_10362_5111</setSpec>
            <setName>Erasmus Mundus - Crossways in European Humanities</setName>
        </set>
        <set>
            <setSpec>col_10362_5212</setSpec>
            <setName>ITQB: BCPD - Book</setName>
        </set>
        <set>
            <setSpec>col_10362_5213</setSpec>
            <setName>ITQB: BCPD - MA Dissertations</setName>
        </set>
        <set>
            <setSpec>col_10362_5214</setSpec>
            <setName>ITQB: BCPD - Part of book or chapter of book</setName>
        </set>
        <set>
            <setSpec>col_10362_5215</setSpec>
            <setName>ITQB: BC - Book</setName>
        </set>
        <set>
            <setSpec>col_10362_5216</setSpec>
            <setName>ITQB: BC - MA Dissertations</setName>
        </set>
        <set>
            <setSpec>col_10362_5217</setSpec>
            <setName>ITQB: BC - Part of book or chapter of book</setName>
        </set>
        <set>
            <setSpec>col_10362_5218</setSpec>
            <setName>ITQB: CPS - Book</setName>
        </set>
        <set>
            <setSpec>col_10362_5219</setSpec>
            <setName>ITQB: CPS - Part of book or chapter of book</setName>
        </set>
        <set>
            <setSpec>col_10362_5220</setSpec>
            <setName>ITQB: CPS - MA Dissertations</setName>
        </set>
        <set>
            <setSpec>col_10362_5221</setSpec>
            <setName>ITQB: CSC - Book</setName>
        </set>
        <set>
            <setSpec>col_10362_5222</setSpec>
            <setName>ITQB: CSC - Part of book or chapter of book</setName>
        </set>
        <set>
            <setSpec>col_10362_5223</setSpec>
            <setName>ITQB: CSC - MA Dissertations</setName>
        </set>
        <set>
            <setSpec>col_10362_5224</setSpec>
            <setName>ITQB: HC - Book</setName>
        </set>
        <resumptionToken completeListSize="1584" cursor="10">MToxMTAwfDI6fDM6fDQ6fDU6</resumptionToken>
    </ListSets>
</OAI-PMH>
