<?xml version="1.0" encoding="UTF-8"?><?xml-stylesheet type="text/xsl" href="static/style.xsl"?><OAI-PMH xmlns="http://www.openarchives.org/OAI/2.0/" xmlns:xsi="http://www.w3.org/2001/XMLSchema-instance" xsi:schemaLocation="http://www.openarchives.org/OAI/2.0/ http://www.openarchives.org/OAI/2.0/OAI-PMH.xsd"><responseDate>2014-10-06T12:45:52Z</responseDate>
    <request verb="ListSets" resumptionToken="MTo4MDB8Mjp8Mzp8NDp8NTo=">http://run.unl.pt/oai/request</request>
    <ListSets>
        <set>
            <setSpec>col_10362_3604</setSpec>
            <setName>ITQB: PECM - MA Dissertations</setName>
        </set>
        <set>
            <setSpec>col_10362_3605</setSpec>
            <setName>ITQB: PECM - Part of book or chapter of book</setName>
        </set>
        <set>
            <setSpec>col_10362_3606</setSpec>
            <setName>ITQB: PECM - PhD Theses</setName>
        </set>
        <set>
            <setSpec>col_10362_3627</setSpec>
            <setName>FCSH: DEPOR - Capítulos de livros internacionais</setName>
        </set>
        <set>
            <setSpec>col_10362_3628</setSpec>
            <setName>FCSH: DEPOR - Capítulos de livros nacionais</setName>
        </set>
        <set>
            <setSpec>col_10362_3629</setSpec>
            <setName>FCSH: DEPOR - Documentos de conferência internacionais</setName>
        </set>
        <set>
            <setSpec>col_10362_3630</setSpec>
            <setName>FCSH: DEPOR - Documentos de conferência nacionais</setName>
        </set>
        <set>
            <setSpec>col_10362_3654</setSpec>
            <setName>FCSH: CHC - Capítulo de livros nacionais</setName>
        </set>
        <set>
            <setSpec>col_10362_3655</setSpec>
            <setName>ITQB: G - PhD Thesis</setName>
        </set>
        <set>
            <setSpec>col_10362_3656</setSpec>
            <setName>ITQB: G - Artigos em revista internacional com arbitragem científica</setName>
        </set>
        <set>
            <setSpec>col_10362_3657</setSpec>
            <setName>ITQB: G - Artigos em revista nacional com arbitragem científica</setName>
        </set>
        <set>
            <setSpec>col_10362_3658</setSpec>
            <setName>ITQB: G - Book</setName>
        </set>
        <set>
            <setSpec>col_10362_3659</setSpec>
            <setName>ITQB: G - MA Dissertations</setName>
        </set>
        <set>
            <setSpec>col_10362_3660</setSpec>
            <setName>ITQB: G - Part of book or chapter of book</setName>
        </set>
        <set>
            <setSpec>col_10362_3668</setSpec>
            <setName>ITQB: BCB - Artigos em revista internacional com arbitragem científica</setName>
        </set>
        <set>
            <setSpec>col_10362_3669</setSpec>
            <setName>ITQB: BCB - Artigos em revista nacional com arbitragem científica</setName>
        </set>
        <set>
            <setSpec>col_10362_3670</setSpec>
            <setName>ITQB: BCB - Book</setName>
        </set>
        <set>
            <setSpec>col_10362_3671</setSpec>
            <setName>ITQB: BCB - MA Dissertations</setName>
        </set>
        <set>
            <setSpec>col_10362_3672</setSpec>
            <setName>ITQB: BCB - Part of book or chapter of book</setName>
        </set>
        <set>
            <setSpec>col_10362_3673</setSpec>
            <setName>ITQB: BCB - PhD Theses</setName>
        </set>
        <set>
            <setSpec>col_10362_3675</setSpec>
            <setName>ITQB: BCSP - Artigos em revista internacional com arbitragem científica</setName>
        </set>
        <set>
            <setSpec>col_10362_3676</setSpec>
            <setName>ITQB: BCSP - Artigos em revista nacional com arbitragem científica</setName>
        </set>
        <set>
            <setSpec>col_10362_3677</setSpec>
            <setName>ITQB: BCSP - Book</setName>
        </set>
        <set>
            <setSpec>col_10362_3678</setSpec>
            <setName>ITQB: BCSP - MA Dissertations</setName>
        </set>
        <set>
            <setSpec>col_10362_3679</setSpec>
            <setName>ITQB: BCSP - Part of book or chapter of book</setName>
        </set>
        <set>
            <setSpec>col_10362_3680</setSpec>
            <setName>ITQB: BCSP - PhD Theses</setName>
        </set>
        <set>
            <setSpec>col_10362_3681</setSpec>
            <setName>ITQB: BMP - PhD Theses</setName>
        </set>
        <set>
            <setSpec>col_10362_3682</setSpec>
            <setName>ITQB: BMP - Part of book or chapter of book</setName>
        </set>
        <set>
            <setSpec>col_10362_3683</setSpec>
            <setName>ITQB: BMP - MA Dissertations</setName>
        </set>
        <set>
            <setSpec>col_10362_3684</setSpec>
            <setName>ITQB: BMP - Book</setName>
        </set>
        <set>
            <setSpec>col_10362_3685</setSpec>
            <setName>ITQB: BMP - Artigos em revista nacional com arbitragem científica</setName>
        </set>
        <set>
            <setSpec>col_10362_3686</setSpec>
            <setName>ITQB: BMP - Artigos em revista internacional com arbitragem científica</setName>
        </set>
        <set>
            <setSpec>col_10362_3687</setSpec>
            <setName>ITQB: BS - Artigos em revista internacional com arbitragem científica</setName>
        </set>
        <set>
            <setSpec>col_10362_3688</setSpec>
            <setName>ITQB: BS - Artigos em revista nacional com arbitragem científica</setName>
        </set>
        <set>
            <setSpec>col_10362_3689</setSpec>
            <setName>ITQB: BS - Book</setName>
        </set>
        <set>
            <setSpec>col_10362_3690</setSpec>
            <setName>ITQB: BS - MA Dissertations</setName>
        </set>
        <set>
            <setSpec>col_10362_3691</setSpec>
            <setName>ITQB: BS - Part of book or chapter of book</setName>
        </set>
        <set>
            <setSpec>col_10362_3692</setSpec>
            <setName>ITQB: BS - PhD Theses</setName>
        </set>
        <set>
            <setSpec>col_10362_3693</setSpec>
            <setName>ITQB: CPN - PhD Theses</setName>
        </set>
        <set>
            <setSpec>col_10362_3694</setSpec>
            <setName>ITQB: CPN - Part of book or chapter of book</setName>
        </set>
        <set>
            <setSpec>col_10362_3695</setSpec>
            <setName>ITQB: CPN - MA Dissertations</setName>
        </set>
        <set>
            <setSpec>col_10362_3696</setSpec>
            <setName>ITQB: CPN - Book</setName>
        </set>
        <set>
            <setSpec>col_10362_3697</setSpec>
            <setName>ITQB: CPN - Artigos em revista nacional com arbitragem científica</setName>
        </set>
        <set>
            <setSpec>col_10362_3698</setSpec>
            <setName>ITQB: CPN - Artigos em revista internacional com arbitragem científica</setName>
        </set>
        <set>
            <setSpec>col_10362_3699</setSpec>
            <setName>ITQB: CSD - Artigos em revista internacional com arbitragem científica</setName>
        </set>
        <set>
            <setSpec>col_10362_3700</setSpec>
            <setName>ITQB: CSD - Artigos em revista nacional com arbitragem científica</setName>
        </set>
        <set>
            <setSpec>col_10362_3701</setSpec>
            <setName>ITQB: CSD - Book</setName>
        </set>
        <set>
            <setSpec>col_10362_3702</setSpec>
            <setName>ITQB: CSD - MA Dissertations</setName>
        </set>
        <set>
            <setSpec>col_10362_3703</setSpec>
            <setName>ITQB: CSD - Part of book or chapter of book</setName>
        </set>
        <set>
            <setSpec>col_10362_3704</setSpec>
            <setName>ITQB: CSD - PhD Theses</setName>
        </set>
        <set>
            <setSpec>col_10362_3705</setSpec>
            <setName>ITQB: CGE - PhD Theses</setName>
        </set>
        <set>
            <setSpec>col_10362_3706</setSpec>
            <setName>ITQB: CGE - Part of book or chapter of book</setName>
        </set>
        <set>
            <setSpec>col_10362_3707</setSpec>
            <setName>ITQB: CGE - MA Dissertations</setName>
        </set>
        <set>
            <setSpec>col_10362_3708</setSpec>
            <setName>ITQB: CGE - Book</setName>
        </set>
        <set>
            <setSpec>col_10362_3709</setSpec>
            <setName>ITQB: CGE - Artigos em revista nacional com arbitragem científica</setName>
        </set>
        <set>
            <setSpec>col_10362_3710</setSpec>
            <setName>ITQB: CGE - Artigos em revista internacional com arbitragem científica</setName>
        </set>
        <set>
            <setSpec>col_10362_3711</setSpec>
            <setName>ITQB: IB - Artigos em revista internacional com arbitragem científica</setName>
        </set>
        <set>
            <setSpec>col_10362_3712</setSpec>
            <setName>ITQB: IB - Artigos em revista nacional com arbitragem científica</setName>
        </set>
        <set>
            <setSpec>col_10362_3713</setSpec>
            <setName>ITQB: IB - Book</setName>
        </set>
        <set>
            <setSpec>col_10362_3714</setSpec>
            <setName>ITQB: IB - MA Dissertations</setName>
        </set>
        <set>
            <setSpec>col_10362_3715</setSpec>
            <setName>ITQB: IB - Part of book or chapter of book</setName>
        </set>
        <set>
            <setSpec>col_10362_3716</setSpec>
            <setName>ITQB: IB - PhD Theses</setName>
        </set>
        <set>
            <setSpec>col_10362_3717</setSpec>
            <setName>ITQB: LABIVN - PhD Theses</setName>
        </set>
        <set>
            <setSpec>col_10362_3718</setSpec>
            <setName>ITQB: LABIVN - Part of book or chapter of book</setName>
        </set>
        <set>
            <setSpec>col_10362_3719</setSpec>
            <setName>ITQB: LABIVN - MA Dissertations</setName>
        </set>
        <set>
            <setSpec>col_10362_3720</setSpec>
            <setName>ITQB: LABIVN - Book</setName>
        </set>
        <set>
            <setSpec>col_10362_3721</setSpec>
            <setName>ITQB: LABIVN - Artigos em revista nacional com arbitragem científica</setName>
        </set>
        <set>
            <setSpec>col_10362_3722</setSpec>
            <setName>ITQB: LABIVN - Artigos em revista internacional com arbitragem científica</setName>
        </set>
        <set>
            <setSpec>col_10362_3723</setSpec>
            <setName>ITQB: MD - Artigos em revista internacional com arbitragem científica</setName>
        </set>
        <set>
            <setSpec>col_10362_3724</setSpec>
            <setName>ITQB: MD - Artigos em revista nacional com arbitragem científica</setName>
        </set>
        <set>
            <setSpec>col_10362_3725</setSpec>
            <setName>ITQB: MD - Book</setName>
        </set>
        <set>
            <setSpec>col_10362_3726</setSpec>
            <setName>ITQB: MD - MA Dissertations</setName>
        </set>
        <set>
            <setSpec>col_10362_3727</setSpec>
            <setName>ITQB: MD - Part of book or chapter of book</setName>
        </set>
        <set>
            <setSpec>col_10362_3728</setSpec>
            <setName>ITQB: MD - PhD Theses</setName>
        </set>
        <set>
            <setSpec>col_10362_3729</setSpec>
            <setName>ITQB: MG - PhD Theses</setName>
        </set>
        <set>
            <setSpec>col_10362_3730</setSpec>
            <setName>ITQB: MG - Part of book or chapter of book</setName>
        </set>
        <set>
            <setSpec>col_10362_3731</setSpec>
            <setName>ITQB: MG - MA Dissertations</setName>
        </set>
        <set>
            <setSpec>col_10362_3732</setSpec>
            <setName>ITQB: MG - Book</setName>
        </set>
        <set>
            <setSpec>col_10362_3733</setSpec>
            <setName>ITQB: MG - Artigos em revista nacional com arbitragem científica</setName>
        </set>
        <set>
            <setSpec>col_10362_3734</setSpec>
            <setName>ITQB: MG - Artigos em revista internacional com arbitragem científica</setName>
        </set>
        <set>
            <setSpec>col_10362_3741</setSpec>
            <setName>FCSH: CHC - Artigos em revista nacional com arbitragem científica</setName>
        </set>
        <set>
            <setSpec>col_10362_3742</setSpec>
            <setName>FCSH: CHC - Artigos em revista internacional com arbitragem científica</setName>
        </set>
        <set>
            <setSpec>col_10362_3743</setSpec>
            <setName>FCSH: CHC - Capítulo de livros internacionais</setName>
        </set>
        <set>
            <setSpec>col_10362_3744</setSpec>
            <setName>FCSH: DLCLM - Artigos em revista nacional com arbitragem científica</setName>
        </set>
        <set>
            <setSpec>col_10362_3750</setSpec>
            <setName>Revista da FCSH - 1997</setName>
        </set>
        <set>
            <setSpec>col_10362_3762</setSpec>
            <setName>FCSH: DEP - Dissertações de Mestrado</setName>
        </set>
        <set>
            <setSpec>col_10362_3763</setSpec>
            <setName>Revista da FCSH - 2007</setName>
        </set>
        <set>
            <setSpec>col_10362_3764</setSpec>
            <setName>Revista da FCSH - 2006</setName>
        </set>
        <set>
            <setSpec>col_10362_3770</setSpec>
            <setName>IHMT: MM - Artigos em revista internacional com arbitragem científica</setName>
        </set>
        <set>
            <setSpec>col_10362_3785</setSpec>
            <setName>IHMT: MM - Artigos em revista nacional com arbitragem científica</setName>
        </set>
        <set>
            <setSpec>col_10362_3786</setSpec>
            <setName>IHMT: MM - Capítulos de livros</setName>
        </set>
        <set>
            <setSpec>col_10362_3787</setSpec>
            <setName>IHMT: MM - Dissertações de Mestrado</setName>
        </set>
        <set>
            <setSpec>col_10362_3788</setSpec>
            <setName>IHMT: MM - Teses de Doutoramento</setName>
        </set>
        <set>
            <setSpec>col_10362_3789</setSpec>
            <setName>IHMT: MM - Documentos de conferências internacionais</setName>
        </set>
        <set>
            <setSpec>col_10362_3790</setSpec>
            <setName>IHMT: MM - Documentos de conferências nacionais</setName>
        </set>
        <set>
            <setSpec>col_10362_3791</setSpec>
            <setName>IHMT: MM - Relatórios técnicos</setName>
        </set>
        <set>
            <setSpec>col_10362_3792</setSpec>
            <setName>IHMT: MM - Livros</setName>
        </set>
        <set>
            <setSpec>col_10362_3793</setSpec>
            <setName>IHMT: CT - Artigos em revista internacional com arbitragem científica</setName>
        </set>
        <set>
            <setSpec>col_10362_3794</setSpec>
            <setName>IHMT: CT - Artigos em revista nacional com arbitragem científica</setName>
        </set>
        <set>
            <setSpec>col_10362_3795</setSpec>
            <setName>IHMT: CT - Capítulos de livros</setName>
        </set>
        <resumptionToken completeListSize="1584" cursor="8">MTo5MDB8Mjp8Mzp8NDp8NTo=</resumptionToken>
    </ListSets>
</OAI-PMH>
