<?xml version="1.0" encoding="UTF-8"?><?xml-stylesheet type="text/xsl" href="static/style.xsl"?><OAI-PMH xmlns="http://www.openarchives.org/OAI/2.0/" xmlns:xsi="http://www.w3.org/2001/XMLSchema-instance" xsi:schemaLocation="http://www.openarchives.org/OAI/2.0/ http://www.openarchives.org/OAI/2.0/OAI-PMH.xsd"><responseDate>2014-10-03T19:33:50Z</responseDate>
    <request verb="ListSets" resumptionToken="MToxMzAwfDI6fDM6fDQ6fDU6">http://run.unl.pt/oai/request</request>
    <ListSets>
        <set>
            <setSpec>col_10362_6535</setSpec>
            <setName>FCSH: CIMJ - Artigos em revista internacional com arbitragem científica</setName>
        </set>
        <set>
            <setSpec>col_10362_6536</setSpec>
            <setName>FCSH: CIMJ - Artigos em revista nacional com arbitragem científica</setName>
        </set>
        <set>
            <setSpec>col_10362_6537</setSpec>
            <setName>FCSH: CHAM - Artigos em revista internacional com arbitragem científica</setName>
        </set>
        <set>
            <setSpec>col_10362_6538</setSpec>
            <setName>FCSH: CHAM - Artigos em revista nacional com arbitragem científica</setName>
        </set>
        <set>
            <setSpec>col_10362_6539</setSpec>
            <setName>FCSH: CEIL - Artigos em revista nacional com arbitragem científica</setName>
        </set>
        <set>
            <setSpec>col_10362_6540</setSpec>
            <setName>FCSH: CEIL - Artigos em revista internacional com arbitragem científica</setName>
        </set>
        <set>
            <setSpec>col_10362_6541</setSpec>
            <setName>FCSH: CITI - Artigos em revista internacional com arbitragem científica</setName>
        </set>
        <set>
            <setSpec>col_10362_6542</setSpec>
            <setName>FCSH: CITI - Artigos em revista internacional com arbitragem científica</setName>
        </set>
        <set>
            <setSpec>col_10362_6543</setSpec>
            <setName>FCSH: CITI - Documentos de conferências internacionais</setName>
        </set>
        <set>
            <setSpec>col_10362_6544</setSpec>
            <setName>FCSH: CITI - Documentos de conferências nacionais</setName>
        </set>
        <set>
            <setSpec>col_10362_6545</setSpec>
            <setName>FCSH: CITI - Capítulo de livros internacionais</setName>
        </set>
        <set>
            <setSpec>col_10362_6546</setSpec>
            <setName>FCSH: CITI - Capítulo de livros nacionais</setName>
        </set>
        <set>
            <setSpec>col_10362_6547</setSpec>
            <setName>FCSH: CITI - Teses de Doutoramento</setName>
        </set>
        <set>
            <setSpec>col_10362_6548</setSpec>
            <setName>FCSH: CITI - Relatórios técnicos</setName>
        </set>
        <set>
            <setSpec>col_10362_6549</setSpec>
            <setName>FCSH: CITI - Livros internacionais</setName>
        </set>
        <set>
            <setSpec>col_10362_6550</setSpec>
            <setName>FCSH: CITI - Livros nacionais</setName>
        </set>
        <set>
            <setSpec>col_10362_6551</setSpec>
            <setName>FCSH: CESEM - Relatórios técnicos</setName>
        </set>
        <set>
            <setSpec>col_10362_6552</setSpec>
            <setName>FCSH: CEHUNL - Relatórios técnicos</setName>
        </set>
        <set>
            <setSpec>col_10362_6553</setSpec>
            <setName>FCSH: CHC - Livros internacionais</setName>
        </set>
        <set>
            <setSpec>col_10362_6554</setSpec>
            <setName>FCSH: CHC - Livros nacionais</setName>
        </set>
        <set>
            <setSpec>col_10362_6555</setSpec>
            <setName>FCSH: CLUNL - Artigos em revista internacional com arbitragem científica</setName>
        </set>
        <set>
            <setSpec>col_10362_6556</setSpec>
            <setName>FCSH: CLUNL - Artigos em revista nacional com arbitragem científica</setName>
        </set>
        <set>
            <setSpec>col_10362_6557</setSpec>
            <setName>FCSH: CLUNL - Documentos de conferências internacionais</setName>
        </set>
        <set>
            <setSpec>col_10362_6558</setSpec>
            <setName>FCSH: CLUNL - Documentos de conferências nacionais</setName>
        </set>
        <set>
            <setSpec>col_10362_6559</setSpec>
            <setName>FCSH: CLUNL - Capítulo de livros internacionais</setName>
        </set>
        <set>
            <setSpec>col_10362_6560</setSpec>
            <setName>FCSH: CLUNL - Capítulo de livros nacionais</setName>
        </set>
        <set>
            <setSpec>col_10362_6561</setSpec>
            <setName>FCSH: CLUNL - Relatórios técnicos</setName>
        </set>
        <set>
            <setSpec>col_10362_6562</setSpec>
            <setName>FCSH: CLUNL - Livros internacionais</setName>
        </set>
        <set>
            <setSpec>col_10362_6563</setSpec>
            <setName>FCSH: CLUNL - Livros nacionais</setName>
        </set>
        <set>
            <setSpec>col_10362_6565</setSpec>
            <setName>FCSH: CRIA - Relatórios técnicos</setName>
        </set>
        <set>
            <setSpec>col_10362_6566</setSpec>
            <setName>FCSH: CRIA - Dissertações de Mestrado</setName>
        </set>
        <set>
            <setSpec>col_10362_6946</setSpec>
            <setName>Revista da FCSH -1998</setName>
        </set>
        <set>
            <setSpec>col_10362_7356</setSpec>
            <setName>ISEGI - Working Papers</setName>
        </set>
        <set>
            <setSpec>col_10362_7415</setSpec>
            <setName>FCSH: DH - Outros</setName>
        </set>
        <set>
            <setSpec>col_10362_7483</setSpec>
            <setName>Revista da FCSH - 2000</setName>
        </set>
        <set>
            <setSpec>col_10362_7959</setSpec>
            <setName>Revista da FCSH - 2003</setName>
        </set>
        <set>
            <setSpec>col_10362_8033</setSpec>
            <setName>Revista da FCSH - 2005</setName>
        </set>
        <set>
            <setSpec>col_10362_8452</setSpec>
            <setName>FCSH: IEM - Artigos em revista internacional com arbitragem científica</setName>
        </set>
        <set>
            <setSpec>col_10362_8453</setSpec>
            <setName>FCSH: IEM - Artigos em revista nacional com arbitragem científica</setName>
        </set>
        <set>
            <setSpec>col_10362_8454</setSpec>
            <setName>FCSH: IEM - Capítulos de livros internacionais</setName>
        </set>
        <set>
            <setSpec>col_10362_8455</setSpec>
            <setName>FCSH: IEM - Capítulos de livros nacionais</setName>
        </set>
        <set>
            <setSpec>col_10362_8456</setSpec>
            <setName>FCSH: IEM - Documentos de conferências internacionais</setName>
        </set>
        <set>
            <setSpec>col_10362_8457</setSpec>
            <setName>FCSH: IEM - Documentos de conferências nacionais</setName>
        </set>
        <set>
            <setSpec>col_10362_8458</setSpec>
            <setName>FCSH: IEM - Livros internacionais</setName>
        </set>
        <set>
            <setSpec>col_10362_8459</setSpec>
            <setName>FCSH: IEM - Livros nacionais</setName>
        </set>
        <set>
            <setSpec>col_10362_8460</setSpec>
            <setName>FCSH: IEM - Dissertações de Mestrado</setName>
        </set>
        <set>
            <setSpec>col_10362_8461</setSpec>
            <setName>FCSH: IEM - Teses de Doutoramento</setName>
        </set>
        <set>
            <setSpec>col_10362_8462</setSpec>
            <setName>FCSH: IEM - Outros</setName>
        </set>
        <set>
            <setSpec>col_10362_8805</setSpec>
            <setName>FCSH: DEP - Provas de agregação</setName>
        </set>
        <set>
            <setSpec>col_10362_8834</setSpec>
            <setName>FCM: Endocrinologia, Doenças do metabolismo e da Nutrição - Teses de Doutoramento</setName>
        </set>
        <set>
            <setSpec>col_10362_8837</setSpec>
            <setName>FCM: Neonatologia - Artigos em revista internacional com arbitragem científica</setName>
        </set>
        <set>
            <setSpec>col_10362_8838</setSpec>
            <setName>FCM: Neonatologia - Artigos em revista nacional com arbitragem científica</setName>
        </set>
        <set>
            <setSpec>col_10362_8839</setSpec>
            <setName>FCM: Neonatologia - Dissertações de Mestrado</setName>
        </set>
        <set>
            <setSpec>col_10362_8840</setSpec>
            <setName>FCM: Neonatologia - Capítulos de livros</setName>
        </set>
        <set>
            <setSpec>col_10362_8841</setSpec>
            <setName>FCM: Neonatologia - Teses de Doutoramento</setName>
        </set>
        <set>
            <setSpec>col_10362_8842</setSpec>
            <setName>FCM: Pediatria Cirúrgica - Artigos em revista nacional com arbitragem científica</setName>
        </set>
        <set>
            <setSpec>col_10362_8843</setSpec>
            <setName>FCM: Pediatria Cirúrgica - Artigos em revista internacional com arbitragem científica</setName>
        </set>
        <set>
            <setSpec>col_10362_8844</setSpec>
            <setName>FCM: Pediatria Cirúrgica - Capítulos de livros</setName>
        </set>
        <set>
            <setSpec>col_10362_8845</setSpec>
            <setName>FCM: Pediatria Cirúrgica - Dissertações de Mestrado</setName>
        </set>
        <set>
            <setSpec>col_10362_8846</setSpec>
            <setName>FCM: Pediatria Cirúrgica - Teses de Doutoramento</setName>
        </set>
        <set>
            <setSpec>col_10362_8880</setSpec>
            <setName>FCM: Cirurgia Cabeça e Pescoço - Artigos em revista internacional com arbitragem científica</setName>
        </set>
        <set>
            <setSpec>col_10362_8881</setSpec>
            <setName>FCM: Cirurgia Cabeça e Pescoço - Artigos em revista nacional com arbitragem científica</setName>
        </set>
        <set>
            <setSpec>col_10362_8882</setSpec>
            <setName>FCM: Cirurgia Cabeça e Pescoço - Capítulos de Livros</setName>
        </set>
        <set>
            <setSpec>col_10362_8883</setSpec>
            <setName>FCM: Cirurgia Cabeça e Pescoço - Dissertações de Mestrado</setName>
        </set>
        <set>
            <setSpec>col_10362_8885</setSpec>
            <setName>FCM: Cirurgia Cabeça e Pescoço - Teses de Doutoramento</setName>
        </set>
        <set>
            <setSpec>col_10362_8889</setSpec>
            <setName>FCM: Cirurgia Cardio-Torácica - Artigos em revista internacional com arbitragem científica</setName>
        </set>
        <set>
            <setSpec>col_10362_8890</setSpec>
            <setName>FCM: Cirurgia Cardio-Torácica - Artigos em revista nacional com arbitragem científica</setName>
        </set>
        <set>
            <setSpec>col_10362_8891</setSpec>
            <setName>FCM: Cirurgia Cardio-Torácica - Capítulos de Livros</setName>
        </set>
        <set>
            <setSpec>col_10362_8892</setSpec>
            <setName>FCM: Cirurgia Cardio-Torácica - Dissertações de Mestrado</setName>
        </set>
        <set>
            <setSpec>col_10362_8893</setSpec>
            <setName>FCM: Cirurgia Cardio-Torácica - Teses de Doutoramento</setName>
        </set>
        <set>
            <setSpec>col_10362_8895</setSpec>
            <setName>FCM: Cirurgia Castrense - Artigos em revista internacional com arbitragem científica</setName>
        </set>
        <set>
            <setSpec>col_10362_8896</setSpec>
            <setName>FCM: Cirurgia Castrense - Artigos em revista nacional com arbitragem científica</setName>
        </set>
        <set>
            <setSpec>col_10362_8897</setSpec>
            <setName>FCM: Cirurgia Castrense - Capítulos de Livros</setName>
        </set>
        <set>
            <setSpec>col_10362_8898</setSpec>
            <setName>FCM: Cirurgia Castrense - Dissertações de Mestrado</setName>
        </set>
        <set>
            <setSpec>col_10362_8899</setSpec>
            <setName>FCM: Cirurgia Castrense - Teses de Doutoramento</setName>
        </set>
        <set>
            <setSpec>col_10362_8901</setSpec>
            <setName>FCM: Neurocirurgia - Artigos em revista internacional com arbitragem científica</setName>
        </set>
        <set>
            <setSpec>col_10362_8902</setSpec>
            <setName>FCM: Neurocirurgia - Artigos em revista nacional com arbitragem científica</setName>
        </set>
        <set>
            <setSpec>col_10362_8903</setSpec>
            <setName>FCM: Neurocirurgia - Capítulos de Livros</setName>
        </set>
        <set>
            <setSpec>col_10362_8904</setSpec>
            <setName>FCM: Neurocirurgia - Dissertações de Mestrado</setName>
        </set>
        <set>
            <setSpec>col_10362_8905</setSpec>
            <setName>FCM: Neurocirurgia - Teses de Doutoramento</setName>
        </set>
        <set>
            <setSpec>col_10362_8907</setSpec>
            <setName>FCM: Neuroradiologia - Artigos em revista internacional com arbitragem científica</setName>
        </set>
        <set>
            <setSpec>col_10362_8908</setSpec>
            <setName>FCM: Neuroradiologia - Artigos em revista nacional com arbitragem científica</setName>
        </set>
        <set>
            <setSpec>col_10362_8909</setSpec>
            <setName>FCM: Neuroradiologia - Capítulos de Livros</setName>
        </set>
        <set>
            <setSpec>col_10362_8910</setSpec>
            <setName>FCM: Neuroradiologia - Dissertações de Mestrado</setName>
        </set>
        <set>
            <setSpec>col_10362_8911</setSpec>
            <setName>FCM: Neuroradiologia - Teses de Doutoramento</setName>
        </set>
        <set>
            <setSpec>col_10362_8913</setSpec>
            <setName>FCM: Cirurgia Pediátrica - Artigos em revista internacional com arbitragem científica</setName>
        </set>
        <set>
            <setSpec>col_10362_8914</setSpec>
            <setName>FCM: Cirurgia Pediátrica - Artigos em revista nacional com arbitragem científica</setName>
        </set>
        <set>
            <setSpec>col_10362_8915</setSpec>
            <setName>FCM: Cirurgia Pediátrica - Capítulos de Livros</setName>
        </set>
        <set>
            <setSpec>col_10362_8916</setSpec>
            <setName>FCM: Cirurgia Pediátrica -.Dissertações de Mestrado</setName>
        </set>
        <set>
            <setSpec>col_10362_8917</setSpec>
            <setName>FCM: Cirurgia Pediátrica - Teses de Doutoramento</setName>
        </set>
        <set>
            <setSpec>col_10362_8919</setSpec>
            <setName>FCM: Anestesia e Reanimação - Artigos em revista internacional com arbitragem científica</setName>
        </set>
        <set>
            <setSpec>col_10362_8920</setSpec>
            <setName>FCM: Anestesia e Reanimação - Artigos em revista nacional com arbitragem científica</setName>
        </set>
        <set>
            <setSpec>col_10362_8921</setSpec>
            <setName>FCM: Anestesia e Reanimação - Capítulos de Livros</setName>
        </set>
        <set>
            <setSpec>col_10362_8922</setSpec>
            <setName>FCM: Anestesia e Reanimação - Dissertações de Mestrado</setName>
        </set>
        <set>
            <setSpec>col_10362_8923</setSpec>
            <setName>FCM: Anestesia e Reanimação - Teses de Doutoramento</setName>
        </set>
        <set>
            <setSpec>col_10362_8925</setSpec>
            <setName>FCM: Dermatologia e Venereologia - Artigos em revista internacional com arbitragem científica</setName>
        </set>
        <set>
            <setSpec>col_10362_8926</setSpec>
            <setName>FCM: Dermatologia e Venereologia - Artigos em revista nacional com arbitragem científica</setName>
        </set>
        <set>
            <setSpec>col_10362_8927</setSpec>
            <setName>FCM: Dermatologia e Venereologia - Capítulos de Livros</setName>
        </set>
        <set>
            <setSpec>col_10362_8928</setSpec>
            <setName>FCM: Dermatologia e Venereologia - Dissertações de Mestrado</setName>
        </set>
        <set>
            <setSpec>col_10362_8929</setSpec>
            <setName>FCM: Dermatologia e Venereologia - Teses de Doutoramento</setName>
        </set>
        <resumptionToken completeListSize="1584" cursor="13">MToxNDAwfDI6fDM6fDQ6fDU6</resumptionToken>
    </ListSets>
</OAI-PMH>
