<?xml version="1.0" encoding="UTF-8"?><?xml-stylesheet type="text/xsl" href="static/style.xsl"?><OAI-PMH xmlns="http://www.openarchives.org/OAI/2.0/" xmlns:xsi="http://www.w3.org/2001/XMLSchema-instance" xsi:schemaLocation="http://www.openarchives.org/OAI/2.0/ http://www.openarchives.org/OAI/2.0/OAI-PMH.xsd"><responseDate>2014-10-03T19:33:44Z</responseDate>
    <request verb="ListSets" resumptionToken="MTo1MDB8Mjp8Mzp8NDp8NTo=">http://run.unl.pt/oai/request</request>
    <ListSets>
        <set>
            <setSpec>col_10362_2925</setSpec>
            <setName>FCM: Oftalmologia - Artigos em revista internacional com arbitragem científica</setName>
        </set>
        <set>
            <setSpec>col_10362_2926</setSpec>
            <setName>FCM:  Oftalmologia  -  Artigos em revista nacional com arbitragem científica</setName>
        </set>
        <set>
            <setSpec>col_10362_2927</setSpec>
            <setName>FCM: Oftalmologia - Capítulos de livros</setName>
        </set>
        <set>
            <setSpec>col_10362_2928</setSpec>
            <setName>FCM: Oftalmologia - Dissertações de Mestrado</setName>
        </set>
        <set>
            <setSpec>col_10362_2933</setSpec>
            <setName>FCM: Oftalmologia - Teses de Doutoramento</setName>
        </set>
        <set>
            <setSpec>col_10362_2934</setSpec>
            <setName>FCM: Ortopedia - Artigos em revista internacional com arbitragem científica</setName>
        </set>
        <set>
            <setSpec>col_10362_2935</setSpec>
            <setName>FCM: Ortopedia -  Artigos em revista nacional com arbitragem científica</setName>
        </set>
        <set>
            <setSpec>col_10362_2936</setSpec>
            <setName>FCM: Ortopedia - Capítulos de livros</setName>
        </set>
        <set>
            <setSpec>col_10362_2937</setSpec>
            <setName>FCM: Ortopedia - Dissertações de Mestrado</setName>
        </set>
        <set>
            <setSpec>col_10362_2942</setSpec>
            <setName>FCM: Ortopedia - Teses de Doutoramento</setName>
        </set>
        <set>
            <setSpec>col_10362_2943</setSpec>
            <setName>FCM: Otorrinolaringologia - Artigos em revista internacional com arbitragem científica</setName>
        </set>
        <set>
            <setSpec>col_10362_2944</setSpec>
            <setName>FCM: Otorrinolaringologia -  Artigos em revista nacional com arbitragem científica</setName>
        </set>
        <set>
            <setSpec>col_10362_2945</setSpec>
            <setName>FCM: Otorrinolaringologia - Capítulos de livros</setName>
        </set>
        <set>
            <setSpec>col_10362_2946</setSpec>
            <setName>FCM: Otorrinolaringologia - Dissertações de Mestrado</setName>
        </set>
        <set>
            <setSpec>col_10362_2951</setSpec>
            <setName>FCM: Otorrinolaringologia - Teses de Doutoramento</setName>
        </set>
        <set>
            <setSpec>col_10362_2952</setSpec>
            <setName>FCM: Urologia - Artigos em revista internacional com arbitragem científica</setName>
        </set>
        <set>
            <setSpec>col_10362_2953</setSpec>
            <setName>FCM:  Urologia -  Artigos em revista nacional com arbitragem científica</setName>
        </set>
        <set>
            <setSpec>col_10362_2954</setSpec>
            <setName>FCM: Urologia - Capítulos de livros</setName>
        </set>
        <set>
            <setSpec>col_10362_2955</setSpec>
            <setName>FCM: Urologia - Dissertações de Mestrado</setName>
        </set>
        <set>
            <setSpec>col_10362_2960</setSpec>
            <setName>FCM: Urologia - Teses de Doutoramento</setName>
        </set>
        <set>
            <setSpec>col_10362_2961</setSpec>
            <setName>FCM: Anatomia Patológica - Artigos em revista internacional com arbitragem científica</setName>
        </set>
        <set>
            <setSpec>col_10362_2962</setSpec>
            <setName>FCM:  Anatomia Patológica - Artigos em revista nacional com arbitragem científica</setName>
        </set>
        <set>
            <setSpec>col_10362_2963</setSpec>
            <setName>FCM:  Anatomia Patológica - Capítulos de livros</setName>
        </set>
        <set>
            <setSpec>col_10362_2964</setSpec>
            <setName>FCM:  Anatomia Patológica - Dissertações de Mestrado</setName>
        </set>
        <set>
            <setSpec>col_10362_2969</setSpec>
            <setName>FCM:  Anatomia Patológica - Teses de Doutoramento</setName>
        </set>
        <set>
            <setSpec>col_10362_2970</setSpec>
            <setName>FCM: Bioética - Artigos em revista internacional com arbitragem científica</setName>
        </set>
        <set>
            <setSpec>col_10362_2971</setSpec>
            <setName>FCM: Bioética - Artigos em revista nacional com arbitragem científica</setName>
        </set>
        <set>
            <setSpec>col_10362_2972</setSpec>
            <setName>FCM: Bioética - Capítulos de livros</setName>
        </set>
        <set>
            <setSpec>col_10362_2973</setSpec>
            <setName>FCM: Bioética - Dissertações de Mestrado</setName>
        </set>
        <set>
            <setSpec>col_10362_2978</setSpec>
            <setName>FCM: Bioética - Teses de Doutoramento</setName>
        </set>
        <set>
            <setSpec>col_10362_2979</setSpec>
            <setName>FCM: Genética - Artigos em revista internacional com arbitragem científica</setName>
        </set>
        <set>
            <setSpec>col_10362_2980</setSpec>
            <setName>FCM: Genética - Artigos em revista nacional com arbitragem científica</setName>
        </set>
        <set>
            <setSpec>col_10362_2981</setSpec>
            <setName>FCM: Genética - Capítulos de livros</setName>
        </set>
        <set>
            <setSpec>col_10362_2982</setSpec>
            <setName>FCM: Genética - Dissertações de Mestrado</setName>
        </set>
        <set>
            <setSpec>col_10362_2987</setSpec>
            <setName>FCM: Genética - Teses de Doutoramento</setName>
        </set>
        <set>
            <setSpec>col_10362_2988</setSpec>
            <setName>FCM:  Medicina Legal e Toxicologia Forense - Artigos em revista internacional com arbitragem científica</setName>
        </set>
        <set>
            <setSpec>col_10362_2989</setSpec>
            <setName>FCM:  Medicina Legal e Toxicologia Forense - Artigos em revista nacional com arbitragem científica</setName>
        </set>
        <set>
            <setSpec>col_10362_2990</setSpec>
            <setName>FCM:  Medicina Legal e Toxicologia Forense - Capítulos de livros</setName>
        </set>
        <set>
            <setSpec>col_10362_2991</setSpec>
            <setName>FCM:  Medicina Legal e Toxicologia Forense - Dissertações de Mestrado</setName>
        </set>
        <set>
            <setSpec>col_10362_2996</setSpec>
            <setName>FCM:  Medicina Legal e Toxicologia Forense - Teses de Doutoramento</setName>
        </set>
        <set>
            <setSpec>col_10362_2997</setSpec>
            <setName>FCM: Oncologia - Artigos em revista internacional com arbitragem científica</setName>
        </set>
        <set>
            <setSpec>col_10362_2998</setSpec>
            <setName>FCM: Oncologia - Artigos em revista nacional com arbitragem científica</setName>
        </set>
        <set>
            <setSpec>col_10362_2999</setSpec>
            <setName>FCM: Oncologia - Capítulos de livros</setName>
        </set>
        <set>
            <setSpec>col_10362_3000</setSpec>
            <setName>FCM: Oncologia - Dissertações de Mestrado</setName>
        </set>
        <set>
            <setSpec>col_10362_3005</setSpec>
            <setName>FCM: Oncologia - Teses de Doutoramento</setName>
        </set>
        <set>
            <setSpec>col_10362_3006</setSpec>
            <setName>FCM: Biologia Celular - Artigos em revista internacional com arbitragem científica</setName>
        </set>
        <set>
            <setSpec>col_10362_3007</setSpec>
            <setName>FCM: Biologia Celular - Artigos em revista nacional com arbitragem científica</setName>
        </set>
        <set>
            <setSpec>col_10362_3009</setSpec>
            <setName>FCM: Biologia Celular - Capítulos de livros</setName>
        </set>
        <set>
            <setSpec>col_10362_3010</setSpec>
            <setName>FCM: Biologia Celular - Dissertações de Mestrado</setName>
        </set>
        <set>
            <setSpec>col_10362_3015</setSpec>
            <setName>FCM: Biologia Celular - Teses de Doutoramento</setName>
        </set>
        <set>
            <setSpec>col_10362_3016</setSpec>
            <setName>FCM: Bioquímica - Artigos em revista internacional com arbitragem científica</setName>
        </set>
        <set>
            <setSpec>col_10362_3017</setSpec>
            <setName>FCM: Bioquímica - Artigos em revista nacional com arbitragem científica</setName>
        </set>
        <set>
            <setSpec>col_10362_3018</setSpec>
            <setName>FCM: Bioquímica  - Capítulos de livros</setName>
        </set>
        <set>
            <setSpec>col_10362_3019</setSpec>
            <setName>FCM: Bioquímica  - Dissertações de Mestrado</setName>
        </set>
        <set>
            <setSpec>col_10362_3024</setSpec>
            <setName>FCM: Bioquímica  - Teses de Doutoramento</setName>
        </set>
        <set>
            <setSpec>col_10362_3025</setSpec>
            <setName>FCM: Embriologia - Artigos em revista internacional com arbitragem científica</setName>
        </set>
        <set>
            <setSpec>col_10362_3026</setSpec>
            <setName>FCM: Embriologia - Artigos em revista nacional com arbitragem científica</setName>
        </set>
        <set>
            <setSpec>col_10362_3027</setSpec>
            <setName>FCM: Embriologia - Capítulos de livros</setName>
        </set>
        <set>
            <setSpec>col_10362_3028</setSpec>
            <setName>FCM: Embriologia - Dissertações de Mestrado</setName>
        </set>
        <set>
            <setSpec>col_10362_3033</setSpec>
            <setName>FCM: Embriologia - Teses de Doutoramento</setName>
        </set>
        <set>
            <setSpec>col_10362_3034</setSpec>
            <setName>FCM: Histologia - Artigos em revista internacional com arbitragem científica</setName>
        </set>
        <set>
            <setSpec>col_10362_3035</setSpec>
            <setName>FCM: Histologia - Artigos em revista nacional com arbitragem científica</setName>
        </set>
        <set>
            <setSpec>col_10362_3036</setSpec>
            <setName>FCM: Histologia - Capítulos de livros</setName>
        </set>
        <set>
            <setSpec>col_10362_3037</setSpec>
            <setName>FCM: Histologia - Dissertações de Mestrado</setName>
        </set>
        <set>
            <setSpec>col_10362_3044</setSpec>
            <setName>FCM: Histologia - Teses de Doutoramento</setName>
        </set>
        <set>
            <setSpec>col_10362_3045</setSpec>
            <setName>FCM: Imunologia - Artigos em revista internacional com arbitragem científica</setName>
        </set>
        <set>
            <setSpec>col_10362_3046</setSpec>
            <setName>FCM: Imunologia - Artigos em revista nacional com arbitragem científica</setName>
        </set>
        <set>
            <setSpec>col_10362_3047</setSpec>
            <setName>FCM: Imunologia - Capítulos de livros</setName>
        </set>
        <set>
            <setSpec>col_10362_3048</setSpec>
            <setName>FCM: Imunologia - Dissertações de Mestrado</setName>
        </set>
        <set>
            <setSpec>col_10362_3053</setSpec>
            <setName>FCM: Imunologia - Teses de Doutoramento</setName>
        </set>
        <set>
            <setSpec>col_10362_3054</setSpec>
            <setName>FCM: Cardiologia - Artigos em revista internacional com arbitragem científica</setName>
        </set>
        <set>
            <setSpec>col_10362_3055</setSpec>
            <setName>FCM: Cardiologia - Artigos em revista nacional com arbitragem científica</setName>
        </set>
        <set>
            <setSpec>col_10362_3056</setSpec>
            <setName>FCM: Cardiologia - Capítulos de livros</setName>
        </set>
        <set>
            <setSpec>col_10362_3057</setSpec>
            <setName>FCM: Cardiologia - Dissertações de Mestrado</setName>
        </set>
        <set>
            <setSpec>col_10362_3062</setSpec>
            <setName>FCM: Cardiologia - Teses de Doutoramento</setName>
        </set>
        <set>
            <setSpec>col_10362_3064</setSpec>
            <setName>FCM: Endocrinologia, Doenças do metabolismo e da Nutrição - Artigos em revista internacional com arbitragem científica</setName>
        </set>
        <set>
            <setSpec>col_10362_3065</setSpec>
            <setName>FCM: Endocrinologia, Doenças do metabolismo e da Nutrição - Artigos em revista nacional com arbitragem científica</setName>
        </set>
        <set>
            <setSpec>col_10362_3066</setSpec>
            <setName>FCM: Endocrinologia, Doenças do metabolismo e da Nutrição - Capítulos de livros</setName>
        </set>
        <set>
            <setSpec>col_10362_3067</setSpec>
            <setName>FCM: Endocrinologia, Doenças do metabolismo e da Nutrição - Dissertações de Mestrado</setName>
        </set>
        <set>
            <setSpec>col_10362_3073</setSpec>
            <setName>FCM: Geriatria - Artigos em revista internacional com arbitragem científica</setName>
        </set>
        <set>
            <setSpec>col_10362_3074</setSpec>
            <setName>FCM: Geriatria - Artigos em revista nacional com arbitragem científica</setName>
        </set>
        <set>
            <setSpec>col_10362_3075</setSpec>
            <setName>FCM: Geriatria - Capítulos de livros</setName>
        </set>
        <set>
            <setSpec>col_10362_3076</setSpec>
            <setName>FCM: Geriatria - Dissertações de Mestrado</setName>
        </set>
        <set>
            <setSpec>col_10362_3081</setSpec>
            <setName>FCM: Geriatria - Teses de Doutoramento</setName>
        </set>
        <set>
            <setSpec>col_10362_3082</setSpec>
            <setName>FCSH: DCE - Dissertações de Mestrado</setName>
        </set>
        <set>
            <setSpec>col_10362_3083</setSpec>
            <setName>FCM: Pneumologia - Artigos em revista internacional com arbitragem científica</setName>
        </set>
        <set>
            <setSpec>col_10362_3084</setSpec>
            <setName>FCM: Pneumologia - Artigos em revista nacional com arbitragem científica</setName>
        </set>
        <set>
            <setSpec>col_10362_3085</setSpec>
            <setName>FCM: Pneumologia - Capítulos de livros</setName>
        </set>
        <set>
            <setSpec>col_10362_3086</setSpec>
            <setName>FCM: Pneumologia - Dissertações de Mestrado</setName>
        </set>
        <set>
            <setSpec>col_10362_3091</setSpec>
            <setName>FCM: Pneumologia - Teses de Doutoramento</setName>
        </set>
        <set>
            <setSpec>col_10362_3092</setSpec>
            <setName>FCM: Medicina Física e Reabilitação - Artigos em revista internacional com arbitragem científica</setName>
        </set>
        <set>
            <setSpec>col_10362_3093</setSpec>
            <setName>FCM: Medicina Física e Reabilitação - Artigos em revista nacional com arbitragem científica</setName>
        </set>
        <set>
            <setSpec>col_10362_3094</setSpec>
            <setName>FCM: Medicina Física e Reabilitação - Capítulos de livros</setName>
        </set>
        <set>
            <setSpec>col_10362_3095</setSpec>
            <setName>FCM: Medicina Física e Reabilitação - Dissertações de Mestrado</setName>
        </set>
        <set>
            <setSpec>col_10362_3100</setSpec>
            <setName>FCM: Medicina Física e Reabilitação - Teses de Doutoramento</setName>
        </set>
        <set>
            <setSpec>col_10362_3101</setSpec>
            <setName>FCM: Microbiologia e Parasitologia - Artigos em revista internacional com arbitragem científica</setName>
        </set>
        <set>
            <setSpec>col_10362_3102</setSpec>
            <setName>FCM: Microbiologia e Parasitologia - Artigos em revista nacional com arbitragem científica</setName>
        </set>
        <set>
            <setSpec>col_10362_3103</setSpec>
            <setName>FCM: Microbiologia e Parasitologia - Capítulos de livros</setName>
        </set>
        <set>
            <setSpec>col_10362_3104</setSpec>
            <setName>FCM: Microbiologia e Parasitologia - Dissertações de Mestrado</setName>
        </set>
        <set>
            <setSpec>col_10362_3109</setSpec>
            <setName>FCM: Microbiologia e Parasitologia - Teses de Doutoramento</setName>
        </set>
        <resumptionToken completeListSize="1584" cursor="5">MTo2MDB8Mjp8Mzp8NDp8NTo=</resumptionToken>
    </ListSets>
</OAI-PMH>
