<?xml version="1.0" encoding="UTF-8"?><?xml-stylesheet type="text/xsl" href="static/style.xsl"?><OAI-PMH xmlns="http://www.openarchives.org/OAI/2.0/" xmlns:xsi="http://www.w3.org/2001/XMLSchema-instance" xsi:schemaLocation="http://www.openarchives.org/OAI/2.0/ http://www.openarchives.org/OAI/2.0/OAI-PMH.xsd"><responseDate>2014-10-06T12:45:52Z</responseDate>
    <request verb="ListSets" resumptionToken="MTo2MDB8Mjp8Mzp8NDp8NTo=">http://run.unl.pt/oai/request</request>
    <ListSets>
        <set>
            <setSpec>col_10362_3110</setSpec>
            <setName>FCM: Neurologia - Artigos em revista internacional com arbitragem científica</setName>
        </set>
        <set>
            <setSpec>col_10362_3111</setSpec>
            <setName>FCM: Neurologia - Artigos em revista nacional com arbitragem científica</setName>
        </set>
        <set>
            <setSpec>col_10362_3112</setSpec>
            <setName>FCM: Neurologia - Capítulos de livros</setName>
        </set>
        <set>
            <setSpec>col_10362_3113</setSpec>
            <setName>FCM: Neurologia - Dissertações de Mestrado</setName>
        </set>
        <set>
            <setSpec>col_10362_3118</setSpec>
            <setName>FCM: Neurologia - Teses de Doutoramento</setName>
        </set>
        <set>
            <setSpec>col_10362_3119</setSpec>
            <setName>FCM: Nefrologia - Artigos em revista internacional com arbitragem científica</setName>
        </set>
        <set>
            <setSpec>col_10362_3120</setSpec>
            <setName>FCM: Nefrologia - Artigos em revista nacional com arbitragem científica</setName>
        </set>
        <set>
            <setSpec>col_10362_3121</setSpec>
            <setName>FCM: Nefrologia - Capítulos de livros</setName>
        </set>
        <set>
            <setSpec>col_10362_3122</setSpec>
            <setName>FCM: Nefrologia - Dissertações de Mestrado</setName>
        </set>
        <set>
            <setSpec>col_10362_3128</setSpec>
            <setName>FCM: Nefrologia - Teses de Doutoramento</setName>
        </set>
        <set>
            <setSpec>col_10362_3129</setSpec>
            <setName>FCM: Obstetrícia e Ginecologia - Artigos em revista internacional com arbitragem científica</setName>
        </set>
        <set>
            <setSpec>col_10362_3130</setSpec>
            <setName>FCM: Obstetrícia e Ginecologia - Artigos em revista nacional com arbitragem científica</setName>
        </set>
        <set>
            <setSpec>col_10362_3131</setSpec>
            <setName>FCM: Obstetrícia e Ginecologia - Capítulos de livros</setName>
        </set>
        <set>
            <setSpec>col_10362_3132</setSpec>
            <setName>FCM: Obstetrícia e Ginecologia - Dissertações de Mestrado</setName>
        </set>
        <set>
            <setSpec>col_10362_3137</setSpec>
            <setName>FCM: Obstetrícia e Ginecologia - Teses de Doutoramento</setName>
        </set>
        <set>
            <setSpec>col_10362_3138</setSpec>
            <setName>FCM: Pediatria - Artigos em revista internacional com arbitragem científica</setName>
        </set>
        <set>
            <setSpec>col_10362_3139</setSpec>
            <setName>FCM: Pediatria - Artigos em revista nacional com arbitragem científica</setName>
        </set>
        <set>
            <setSpec>col_10362_3140</setSpec>
            <setName>FCM: Pediatria - Capítulos de livros</setName>
        </set>
        <set>
            <setSpec>col_10362_3144</setSpec>
            <setName>FCM: Pediatria - Dissertações de Mestrado</setName>
        </set>
        <set>
            <setSpec>col_10362_3146</setSpec>
            <setName>FCM: Pediatria - Teses de Doutoramento</setName>
        </set>
        <set>
            <setSpec>col_10362_3147</setSpec>
            <setName>FCM: Cardiologia Pediátrica - Artigos em revista internacional com arbitragem científica</setName>
        </set>
        <set>
            <setSpec>col_10362_3148</setSpec>
            <setName>FCM: Cardiologia Pediátrica - Artigos em revista nacional com arbitragem científica</setName>
        </set>
        <set>
            <setSpec>col_10362_3149</setSpec>
            <setName>FCM: Cardiologia Pediátrica - Capítulos de livros</setName>
        </set>
        <set>
            <setSpec>col_10362_3150</setSpec>
            <setName>FCM: Cardiologia Pediátrica - Dissertações de Mestrado</setName>
        </set>
        <set>
            <setSpec>col_10362_3155</setSpec>
            <setName>FCM: Cardiologia Pediátrica - Teses de Doutoramento</setName>
        </set>
        <set>
            <setSpec>col_10362_3156</setSpec>
            <setName>FCM: Bioestatística - Artigos em revista internacional com arbitragem científica</setName>
        </set>
        <set>
            <setSpec>col_10362_3157</setSpec>
            <setName>FCM: Bioestatística - Artigos em revista nacional com arbitragem científica</setName>
        </set>
        <set>
            <setSpec>col_10362_3158</setSpec>
            <setName>FCM: Bioestatística - Capítulos de livros</setName>
        </set>
        <set>
            <setSpec>col_10362_3159</setSpec>
            <setName>FCM: Bioestatística - Dissertações de Mestrado</setName>
        </set>
        <set>
            <setSpec>col_10362_3164</setSpec>
            <setName>FCM: Bioestatística - Teses de Doutoramento</setName>
        </set>
        <set>
            <setSpec>col_10362_3165</setSpec>
            <setName>FCM: História da Medicina - Artigos em revista internacional com arbitragem científica</setName>
        </set>
        <set>
            <setSpec>col_10362_3166</setSpec>
            <setName>FCM: História da Medicina - Artigos em revista nacional com arbitragem científica</setName>
        </set>
        <set>
            <setSpec>col_10362_3167</setSpec>
            <setName>FCM: História da Medicina - Capítulos de livros</setName>
        </set>
        <set>
            <setSpec>col_10362_3168</setSpec>
            <setName>FCM: História da Medicina - Dissertações de Mestrado</setName>
        </set>
        <set>
            <setSpec>col_10362_3169</setSpec>
            <setName>FCM: História da Medicina - Documentos de conferências internacionais</setName>
        </set>
        <set>
            <setSpec>col_10362_3170</setSpec>
            <setName>FCM: História da Medicina - Documentos de conferências nacionais</setName>
        </set>
        <set>
            <setSpec>col_10362_3173</setSpec>
            <setName>FCM: História da Medicina - Teses de Doutoramento</setName>
        </set>
        <set>
            <setSpec>col_10362_3174</setSpec>
            <setName>FCM: Medicina Geral e Familiar - Artigos em revista internacional com arbitragem científica</setName>
        </set>
        <set>
            <setSpec>col_10362_3176</setSpec>
            <setName>FCM: Medicina Geral e Familiar - Artigos em revista nacional com arbitragem científica</setName>
        </set>
        <set>
            <setSpec>col_10362_3177</setSpec>
            <setName>FCM: Medicina Geral e Familiar - Capítulos de livros</setName>
        </set>
        <set>
            <setSpec>col_10362_3178</setSpec>
            <setName>FCM: Medicina Geral e Familiar - Dissertações de Mestrado</setName>
        </set>
        <set>
            <setSpec>col_10362_3183</setSpec>
            <setName>FCM: Medicina Geral e Familiar - Teses de Doutoramento</setName>
        </set>
        <set>
            <setSpec>col_10362_3184</setSpec>
            <setName>FCM: Educação em Saúde - Artigos em revista internacional com arbitragem científica</setName>
        </set>
        <set>
            <setSpec>col_10362_3185</setSpec>
            <setName>FCM: Educação em Saúde - Artigos em revista nacional com arbitragem científica</setName>
        </set>
        <set>
            <setSpec>col_10362_3186</setSpec>
            <setName>FCM: Educação em Saúde - Capítulos de livros</setName>
        </set>
        <set>
            <setSpec>col_10362_3187</setSpec>
            <setName>FCM: Educação em Saúde - Dissertações de Mestrado</setName>
        </set>
        <set>
            <setSpec>col_10362_3192</setSpec>
            <setName>FCM: Educação em Saúde - Teses de Doutoramento</setName>
        </set>
        <set>
            <setSpec>col_10362_3193</setSpec>
            <setName>FCM: Psicologia Médica - Artigos em revista internacional com arbitragem científica</setName>
        </set>
        <set>
            <setSpec>col_10362_3194</setSpec>
            <setName>FCM: Psicologia Médica - Artigos em revista nacional com arbitragem científica</setName>
        </set>
        <set>
            <setSpec>col_10362_3195</setSpec>
            <setName>FCM: Psicologia Médica - Capítulos de livros</setName>
        </set>
        <set>
            <setSpec>col_10362_3196</setSpec>
            <setName>FCM: Psicologia Médica  - Dissertações de Mestrado</setName>
        </set>
        <set>
            <setSpec>col_10362_3201</setSpec>
            <setName>FCM: Psicologia Médica - Teses de Doutoramento</setName>
        </set>
        <set>
            <setSpec>col_10362_3202</setSpec>
            <setName>FCM: Saúde Mental e Psiquiatria - Artigos em revista internacional com arbitragem científica</setName>
        </set>
        <set>
            <setSpec>col_10362_3203</setSpec>
            <setName>FCM: Saúde Mental e Psiquiatria - Artigos em revista nacional com arbitragem científica</setName>
        </set>
        <set>
            <setSpec>col_10362_3204</setSpec>
            <setName>FCM: Saúde Mental e Psiquiatria - Capítulos de livros</setName>
        </set>
        <set>
            <setSpec>col_10362_3205</setSpec>
            <setName>FCM: Saúde Mental e Psiquiatria - Dissertações de Mestrado</setName>
        </set>
        <set>
            <setSpec>col_10362_3210</setSpec>
            <setName>FCM: Saúde Mental e Psiquiatria - Teses de Doutoramento</setName>
        </set>
        <set>
            <setSpec>col_10362_3211</setSpec>
            <setName>FCM: Psiquiatria da Infância e da Adolescência - Artigos em revista internacional com arbitragem científica</setName>
        </set>
        <set>
            <setSpec>col_10362_3212</setSpec>
            <setName>FCM: Psiquiatria da Infância e da Adolescência - Artigos em revista nacional com arbitragem científica</setName>
        </set>
        <set>
            <setSpec>col_10362_3213</setSpec>
            <setName>FCM: Psiquiatria da Infância e da Adolescência - Capítulos de livros</setName>
        </set>
        <set>
            <setSpec>col_10362_3214</setSpec>
            <setName>FCM: Psiquiatria da Infância e da Adolescência - Dissertações de Mestrado</setName>
        </set>
        <set>
            <setSpec>col_10362_3219</setSpec>
            <setName>FCM: Psiquiatria da Infância e da Adolescência - Teses de Doutoramento</setName>
        </set>
        <set>
            <setSpec>col_10362_3220</setSpec>
            <setName>FCM: Saúde Pública - Artigos em revista internacional com arbitragem científica</setName>
        </set>
        <set>
            <setSpec>col_10362_3221</setSpec>
            <setName>FCM: Saúde Pública - Artigos em revista nacional com arbitragem científica</setName>
        </set>
        <set>
            <setSpec>col_10362_3222</setSpec>
            <setName>FCM: Saúde Pública - Capítulos de livros</setName>
        </set>
        <set>
            <setSpec>col_10362_3223</setSpec>
            <setName>FCM: Saúde Pública - Dissertações de Mestrado</setName>
        </set>
        <set>
            <setSpec>col_10362_3228</setSpec>
            <setName>FCM: Saúde Pública - Teses de Doutoramento</setName>
        </set>
        <set>
            <setSpec>col_10362_3229</setSpec>
            <setName>FCM: Políticas e Serviços de Saúde - Artigos em revista internacional com arbitragem científica</setName>
        </set>
        <set>
            <setSpec>col_10362_3230</setSpec>
            <setName>FCM: Políticas e Serviços de Saúde - Artigos em revista nacional com arbitragem científica</setName>
        </set>
        <set>
            <setSpec>col_10362_3231</setSpec>
            <setName>FCM: Políticas e Serviços de Saúde - Capítulos de livros</setName>
        </set>
        <set>
            <setSpec>col_10362_3232</setSpec>
            <setName>FCM: Políticas e Serviços de Saúde - Dissertações de Mestrado</setName>
        </set>
        <set>
            <setSpec>col_10362_3237</setSpec>
            <setName>FCM: Políticas e Serviços de Saúde - Teses de Doutoramento</setName>
        </set>
        <set>
            <setSpec>col_10362_3244</setSpec>
            <setName>FCT: DCV - Artigos em revista internacional com arbitragem científica</setName>
        </set>
        <set>
            <setSpec>col_10362_3245</setSpec>
            <setName>FCT: DCV - Artigos em revista nacional com arbitragem científica</setName>
        </set>
        <set>
            <setSpec>col_10362_3251</setSpec>
            <setName>FCSH: CESNOVA - Teses de Doutoramento</setName>
        </set>
        <set>
            <setSpec>col_10362_3259</setSpec>
            <setName>ENSP: GOSS - Teses de Doutoramento</setName>
        </set>
        <set>
            <setSpec>col_10362_3260</setSpec>
            <setName>ENSP: GOSS - Dissertações de Mestrado</setName>
        </set>
        <set>
            <setSpec>col_10362_3266</setSpec>
            <setName>FCSH: DA - Livros internacionais</setName>
        </set>
        <set>
            <setSpec>col_10362_3267</setSpec>
            <setName>FCSH: DA - Livros nacionais</setName>
        </set>
        <set>
            <setSpec>col_10362_3268</setSpec>
            <setName>FCSH: DA - Capítulo de livros internacionais</setName>
        </set>
        <set>
            <setSpec>col_10362_3269</setSpec>
            <setName>FCSH: DA - Capítulo de livros nacionais</setName>
        </set>
        <set>
            <setSpec>col_10362_3270</setSpec>
            <setName>FCSH: DA - Relatórios técnicos</setName>
        </set>
        <set>
            <setSpec>col_10362_3271</setSpec>
            <setName>FCSH: DA - Relatórios da disciplina</setName>
        </set>
        <set>
            <setSpec>col_10362_3305</setSpec>
            <setName>FCT: CEFITEC - Artigos em revista internacional com arbitragem científica</setName>
        </set>
        <set>
            <setSpec>col_10362_3313</setSpec>
            <setName>FCSH: CHC - Documentos de conferências internacional</setName>
        </set>
        <set>
            <setSpec>col_10362_3314</setSpec>
            <setName>FCSH: CHC - Documentos de conferências nacional</setName>
        </set>
        <set>
            <setSpec>col_10362_3315</setSpec>
            <setName>FCSH: CHC - Dissertações de Mestrado</setName>
        </set>
        <set>
            <setSpec>col_10362_3382</setSpec>
            <setName>FCSH: CHAM - Teses de Doutoramento</setName>
        </set>
        <set>
            <setSpec>col_10362_3383</setSpec>
            <setName>ITQB: BN - Artigos em revista internacional com arbitragem científica</setName>
        </set>
        <set>
            <setSpec>col_10362_3385</setSpec>
            <setName>ITQB: BN - Artigos em revista nacional com arbitragem científica</setName>
        </set>
        <set>
            <setSpec>col_10362_3389</setSpec>
            <setName>ITQB: BN - PhD Theses</setName>
        </set>
        <set>
            <setSpec>col_10362_3390</setSpec>
            <setName>ITQB: BN - MA Dissertations</setName>
        </set>
        <set>
            <setSpec>col_10362_3391</setSpec>
            <setName>ITQB: BN - Book</setName>
        </set>
        <set>
            <setSpec>col_10362_3392</setSpec>
            <setName>ITQB: BN - Part of book or chapter of book</setName>
        </set>
        <set>
            <setSpec>col_10362_3408</setSpec>
            <setName>ITQB: MMB - Artigos em revista nacional com arbitragem científica</setName>
        </set>
        <set>
            <setSpec>col_10362_3409</setSpec>
            <setName>ITQB: MMB - Book</setName>
        </set>
        <set>
            <setSpec>col_10362_3410</setSpec>
            <setName>ITQB: MMB - MA Dissertations</setName>
        </set>
        <set>
            <setSpec>col_10362_3411</setSpec>
            <setName>ITQB: MMB - PhD Theses</setName>
        </set>
        <set>
            <setSpec>col_10362_3412</setSpec>
            <setName>ITQB: MMB - Part of book or chapter of book</setName>
        </set>
        <set>
            <setSpec>col_10362_3413</setSpec>
            <setName>ITQB: PBFS - Artigos em revista internacional com arbitragem científica</setName>
        </set>
        <resumptionToken completeListSize="1584" cursor="6">MTo3MDB8Mjp8Mzp8NDp8NTo=</resumptionToken>
    </ListSets>
</OAI-PMH>
