<?xml version="1.0" encoding="UTF-8"?><?xml-stylesheet type="text/xsl" href="static/style.xsl"?><OAI-PMH xmlns="http://www.openarchives.org/OAI/2.0/" xmlns:xsi="http://www.w3.org/2001/XMLSchema-instance" xsi:schemaLocation="http://www.openarchives.org/OAI/2.0/ http://www.openarchives.org/OAI/2.0/OAI-PMH.xsd"><responseDate>2014-10-03T19:33:44Z</responseDate>
    <request verb="ListSets" resumptionToken="MToxMTAwfDI6fDM6fDQ6fDU6">http://run.unl.pt/oai/request</request>
    <ListSets>
        <set>
            <setSpec>col_10362_5225</setSpec>
            <setName>ITQB: HC - MA Dissertations</setName>
        </set>
        <set>
            <setSpec>col_10362_5226</setSpec>
            <setName>ITQB: HC - Part of book or chapter of book</setName>
        </set>
        <set>
            <setSpec>col_10362_5227</setSpec>
            <setName>ITQB: MHS - Book</setName>
        </set>
        <set>
            <setSpec>col_10362_5228</setSpec>
            <setName>ITQB: MHS - MA Dissertations</setName>
        </set>
        <set>
            <setSpec>col_10362_5229</setSpec>
            <setName>ITQB: MHS - Part of book or chapter of book</setName>
        </set>
        <set>
            <setSpec>col_10362_5230</setSpec>
            <setName>ITQB: OS - Part of book or chapter of book</setName>
        </set>
        <set>
            <setSpec>col_10362_5231</setSpec>
            <setName>ITQB: OS - Book</setName>
        </set>
        <set>
            <setSpec>col_10362_5232</setSpec>
            <setName>ITQB: OS - MA Dissertations</setName>
        </set>
        <set>
            <setSpec>col_10362_5233</setSpec>
            <setName>ITQB: OC - Book</setName>
        </set>
        <set>
            <setSpec>col_10362_5235</setSpec>
            <setName>ITQB: OC - MA Dissertations</setName>
        </set>
        <set>
            <setSpec>col_10362_5236</setSpec>
            <setName>ITQB: OC - Part of book or chapter of book</setName>
        </set>
        <set>
            <setSpec>col_10362_5237</setSpec>
            <setName>ITQB: SMP - Book</setName>
        </set>
        <set>
            <setSpec>col_10362_5238</setSpec>
            <setName>ITQB: SMP - MA Dissertations</setName>
        </set>
        <set>
            <setSpec>col_10362_5239</setSpec>
            <setName>ITQB: SMP - Part of book or chapter of book</setName>
        </set>
        <set>
            <setSpec>col_10362_5240</setSpec>
            <setName>ITQB: ECAL - PhD Theses</setName>
        </set>
        <set>
            <setSpec>col_10362_5242</setSpec>
            <setName>ITQB: MT - PhD Theses</setName>
        </set>
        <set>
            <setSpec>col_10362_5248</setSpec>
            <setName>ITQB: CBL - PhD Theses</setName>
        </set>
        <set>
            <setSpec>col_10362_5285</setSpec>
            <setName>FCSH: DHA - Dissertações de Mestrado</setName>
        </set>
        <set>
            <setSpec>col_10362_5382</setSpec>
            <setName>ITQB: SBD - Artigos em revista internacional com arbitragem científica</setName>
        </set>
        <set>
            <setSpec>col_10362_5383</setSpec>
            <setName>ITQB: SBD - Artigos em revista nacional com arbitragem científica</setName>
        </set>
        <set>
            <setSpec>col_10362_5647</setSpec>
            <setName>ITQB: MMME - Artigos em revista internacional com arbitragem científica</setName>
        </set>
        <set>
            <setSpec>col_10362_5761</setSpec>
            <setName>ITQB: SAVE - PhD Theses</setName>
        </set>
        <set>
            <setSpec>col_10362_5764</setSpec>
            <setName>ITQB: BIOMath - PhD Theses</setName>
        </set>
        <set>
            <setSpec>col_10362_5767</setSpec>
            <setName>ITQB: CLDMB - PhD Theses</setName>
        </set>
        <set>
            <setSpec>col_10362_5826</setSpec>
            <setName>FCT: DDB - Documentos em conferências internacionais</setName>
        </set>
        <set>
            <setSpec>col_10362_5873</setSpec>
            <setName>FCSH: DHA - Teses de Doutoramento</setName>
        </set>
        <set>
            <setSpec>col_10362_6246</setSpec>
            <setName>FCSH: DH - Capítulo de livros nacionais</setName>
        </set>
        <set>
            <setSpec>col_10362_6247</setSpec>
            <setName>FCSH: DH - Capítulo de livros internacionais</setName>
        </set>
        <set>
            <setSpec>col_10362_6248</setSpec>
            <setName>FCSH: DH - Livros nacionais</setName>
        </set>
        <set>
            <setSpec>col_10362_6359</setSpec>
            <setName>FCSH: DCC - Artigos em revista internacional com arbitragem científica</setName>
        </set>
        <set>
            <setSpec>col_10362_6360</setSpec>
            <setName>FCSH: DCC - Artigos em revista nacional com arbitragem científica</setName>
        </set>
        <set>
            <setSpec>col_10362_6361</setSpec>
            <setName>FCSH: DCC - Documentos de conferências internacionais</setName>
        </set>
        <set>
            <setSpec>col_10362_6362</setSpec>
            <setName>FCSH: DCC - Documentos de conferências nacionais</setName>
        </set>
        <set>
            <setSpec>col_10362_6363</setSpec>
            <setName>FCSH: DCC - Capítulo de livros internacionais</setName>
        </set>
        <set>
            <setSpec>col_10362_6364</setSpec>
            <setName>FCSH: DCC - Capítulo de livros nacionais</setName>
        </set>
        <set>
            <setSpec>col_10362_6365</setSpec>
            <setName>FCSH: DCC - Livros internacionais</setName>
        </set>
        <set>
            <setSpec>col_10362_6366</setSpec>
            <setName>FCSH: DCC - Livros nacionais</setName>
        </set>
        <set>
            <setSpec>col_10362_6367</setSpec>
            <setName>FCSH: DCC - Relatórios da disciplina</setName>
        </set>
        <set>
            <setSpec>col_10362_6368</setSpec>
            <setName>FCSH: DCC - Relatórios técnicos</setName>
        </set>
        <set>
            <setSpec>col_10362_6369</setSpec>
            <setName>FCSH: DCE - Artigos em revista internacional com arbitragem científica</setName>
        </set>
        <set>
            <setSpec>col_10362_6370</setSpec>
            <setName>FCSH: DCE - Artigos em revista nacional com arbitragem científica</setName>
        </set>
        <set>
            <setSpec>col_10362_6371</setSpec>
            <setName>FCSH: DCE - Documentos de conferências internacionais</setName>
        </set>
        <set>
            <setSpec>col_10362_6372</setSpec>
            <setName>FCSH: DCE - Documentos de conferências nacionais</setName>
        </set>
        <set>
            <setSpec>col_10362_6374</setSpec>
            <setName>FCSH: DCE - Capítulo de livros internacionais</setName>
        </set>
        <set>
            <setSpec>col_10362_6375</setSpec>
            <setName>FCSH: DCE - Relatórios da disciplina</setName>
        </set>
        <set>
            <setSpec>col_10362_6376</setSpec>
            <setName>FCSH: DCE - Capítulo de livros nacionais</setName>
        </set>
        <set>
            <setSpec>col_10362_6377</setSpec>
            <setName>FCSH: DCE - Livros internacionais</setName>
        </set>
        <set>
            <setSpec>col_10362_6378</setSpec>
            <setName>FCSH: DCE - Livros nacionais</setName>
        </set>
        <set>
            <setSpec>col_10362_6379</setSpec>
            <setName>FCSH: DCE - Relatórios técnicos</setName>
        </set>
        <set>
            <setSpec>col_10362_6380</setSpec>
            <setName>FCSH: DCM - Artigos em revista internacional com arbitragem científica</setName>
        </set>
        <set>
            <setSpec>col_10362_6381</setSpec>
            <setName>FCSH: DCM - Artigos em revista nacional com arbitragem científica</setName>
        </set>
        <set>
            <setSpec>col_10362_6382</setSpec>
            <setName>FCSH: DCM - Relatórios da disciplina</setName>
        </set>
        <set>
            <setSpec>col_10362_6383</setSpec>
            <setName>FCSH: DCM - Documentos de conferências nacionais</setName>
        </set>
        <set>
            <setSpec>col_10362_6384</setSpec>
            <setName>FCSH: DCM - Capítulo de livros internacionais</setName>
        </set>
        <set>
            <setSpec>col_10362_6385</setSpec>
            <setName>FCSH: DCM - Capítulo de livros nacionais</setName>
        </set>
        <set>
            <setSpec>col_10362_6386</setSpec>
            <setName>FCSH: DCM - Documentos de conferências internacionais</setName>
        </set>
        <set>
            <setSpec>col_10362_6387</setSpec>
            <setName>FCSH: DCM - Relatórios técnicos</setName>
        </set>
        <set>
            <setSpec>col_10362_6388</setSpec>
            <setName>FCSH: DCM - Livros internacionais</setName>
        </set>
        <set>
            <setSpec>col_10362_6389</setSpec>
            <setName>FCSH: DCM - Livros nacionais</setName>
        </set>
        <set>
            <setSpec>col_10362_6390</setSpec>
            <setName>FCSH: DEP - Artigos em revista internacional com arbitragem científica</setName>
        </set>
        <set>
            <setSpec>col_10362_6391</setSpec>
            <setName>FCSH: DEP - Artigos em revista nacional com arbitragem científica</setName>
        </set>
        <set>
            <setSpec>col_10362_6392</setSpec>
            <setName>FCSH: DEP - Documentos de conferências internacionais</setName>
        </set>
        <set>
            <setSpec>col_10362_6393</setSpec>
            <setName>FCSH: DEP - Documentos de conferências nacionais</setName>
        </set>
        <set>
            <setSpec>col_10362_6394</setSpec>
            <setName>FCSH: DEP - Capítulo de livros internacionais</setName>
        </set>
        <set>
            <setSpec>col_10362_6395</setSpec>
            <setName>FCSH: DEP - Capítulo de livros nacionais</setName>
        </set>
        <set>
            <setSpec>col_10362_6396</setSpec>
            <setName>FCSH: DEP - Livros internacionais</setName>
        </set>
        <set>
            <setSpec>col_10362_6397</setSpec>
            <setName>FCSH: DEP - Livros nacionais</setName>
        </set>
        <set>
            <setSpec>col_10362_6398</setSpec>
            <setName>FCSH: DEP - Relatórios da disciplina</setName>
        </set>
        <set>
            <setSpec>col_10362_6399</setSpec>
            <setName>FCSH: DEP - Relatórios técnicos</setName>
        </set>
        <set>
            <setSpec>col_10362_6400</setSpec>
            <setName>FCSH: DEPOR - Relatórios da disciplina</setName>
        </set>
        <set>
            <setSpec>col_10362_6401</setSpec>
            <setName>FCSH: DEPOR - Relatórios técnicos</setName>
        </set>
        <set>
            <setSpec>col_10362_6402</setSpec>
            <setName>FCSH: DF - Documentos de conferências internacionais</setName>
        </set>
        <set>
            <setSpec>col_10362_6403</setSpec>
            <setName>FCSH: DF - Documentos de conferências nacionais</setName>
        </set>
        <set>
            <setSpec>col_10362_6404</setSpec>
            <setName>FCSH: DF - Capítulo de livros internacionais</setName>
        </set>
        <set>
            <setSpec>col_10362_6405</setSpec>
            <setName>FCSH: DF - Capítulo de livros nacionais</setName>
        </set>
        <set>
            <setSpec>col_10362_6406</setSpec>
            <setName>FCSH: DF - Livros internacionais</setName>
        </set>
        <set>
            <setSpec>col_10362_6407</setSpec>
            <setName>FCSH: DF - Livros nacionais</setName>
        </set>
        <set>
            <setSpec>col_10362_6408</setSpec>
            <setName>FCSH: DF - Relatórios da disciplina</setName>
        </set>
        <set>
            <setSpec>col_10362_6409</setSpec>
            <setName>FCSH: DF - Relatórios técnicos</setName>
        </set>
        <set>
            <setSpec>col_10362_6410</setSpec>
            <setName>FCSH: DGPR - Documentos de conferências internacionais</setName>
        </set>
        <set>
            <setSpec>col_10362_6411</setSpec>
            <setName>FCSH: DGPR - Documentos de conferências nacionais</setName>
        </set>
        <set>
            <setSpec>col_10362_6412</setSpec>
            <setName>FCSH: DGPR - Capítulo de livros internacionais</setName>
        </set>
        <set>
            <setSpec>col_10362_6413</setSpec>
            <setName>FCSH: DGPR - Capítulo de livros nacionais</setName>
        </set>
        <set>
            <setSpec>col_10362_6414</setSpec>
            <setName>FCSH: DGPR - Livros internacionais</setName>
        </set>
        <set>
            <setSpec>col_10362_6415</setSpec>
            <setName>FCSH: DGPR - Livros nacionais</setName>
        </set>
        <set>
            <setSpec>col_10362_6416</setSpec>
            <setName>FCSH: DGPR - Relatórios da disciplina</setName>
        </set>
        <set>
            <setSpec>col_10362_6417</setSpec>
            <setName>FCSH: DGPR - Relatórios técnicos</setName>
        </set>
        <set>
            <setSpec>col_10362_6418</setSpec>
            <setName>FCSH: DH - Documentos de conferências internacionais</setName>
        </set>
        <set>
            <setSpec>col_10362_6419</setSpec>
            <setName>FCSH: DH - Documentos de conferências nacionais</setName>
        </set>
        <set>
            <setSpec>col_10362_6420</setSpec>
            <setName>FCSH: DH - Livros internacionais</setName>
        </set>
        <set>
            <setSpec>col_10362_6421</setSpec>
            <setName>FCSH: DH - Relatórios da disciplina</setName>
        </set>
        <set>
            <setSpec>col_10362_6422</setSpec>
            <setName>FCSH: DH - Relatórios técnicos</setName>
        </set>
        <set>
            <setSpec>col_10362_6423</setSpec>
            <setName>FCSH: DHA - Artigos em revista internacional com arbitragem científica</setName>
        </set>
        <set>
            <setSpec>col_10362_6424</setSpec>
            <setName>FCSH: DHA - Artigos em revista nacional com arbitragem científica</setName>
        </set>
        <set>
            <setSpec>col_10362_6425</setSpec>
            <setName>FCSH: DHA - Documentos de conferências internacionais</setName>
        </set>
        <set>
            <setSpec>col_10362_6426</setSpec>
            <setName>FCSH: DHA - Documentos de conferências nacionais</setName>
        </set>
        <set>
            <setSpec>col_10362_6427</setSpec>
            <setName>FCSH: DHA - Relatórios da disciplina</setName>
        </set>
        <set>
            <setSpec>col_10362_6428</setSpec>
            <setName>FCSH: DHA - Livros internacionais</setName>
        </set>
        <set>
            <setSpec>col_10362_6429</setSpec>
            <setName>FCSH: DHA - Livros nacionais</setName>
        </set>
        <set>
            <setSpec>col_10362_6430</setSpec>
            <setName>FCSH: DHA - Relatórios técnicos</setName>
        </set>
        <resumptionToken completeListSize="1584" cursor="11">MToxMjAwfDI6fDM6fDQ6fDU6</resumptionToken>
    </ListSets>
</OAI-PMH>
