<?xml version="1.0" encoding="UTF-8"?><?xml-stylesheet type="text/xsl" href="static/style.xsl"?><OAI-PMH xmlns="http://www.openarchives.org/OAI/2.0/" xmlns:xsi="http://www.w3.org/2001/XMLSchema-instance" xsi:schemaLocation="http://www.openarchives.org/OAI/2.0/ http://www.openarchives.org/OAI/2.0/OAI-PMH.xsd"><responseDate>2014-10-06T12:45:51Z</responseDate>
    <request verb="ListSets" resumptionToken="MTo0MDB8Mjp8Mzp8NDp8NTo=">http://run.unl.pt/oai/request</request>
    <ListSets>
        <set>
            <setSpec>col_10362_2330</setSpec>
            <setName>FCT: DM - Artigos em revista nacional com arbitragem científica</setName>
        </set>
        <set>
            <setSpec>col_10362_2331</setSpec>
            <setName>FCT: DM - Documentos de conferências internacionais</setName>
        </set>
        <set>
            <setSpec>col_10362_2332</setSpec>
            <setName>FCT: DM - Documentos de conferências nacionais</setName>
        </set>
        <set>
            <setSpec>col_10362_2339</setSpec>
            <setName>FCSH: DEP - Teses de Doutoramento</setName>
        </set>
        <set>
            <setSpec>col_10362_2343</setSpec>
            <setName>FCSH: CHC - Teses de Doutoramento</setName>
        </set>
        <set>
            <setSpec>col_10362_2352</setSpec>
            <setName>FCT: CENSE - Artigos em revista internacional com arbitragem científica</setName>
        </set>
        <set>
            <setSpec>col_10362_2353</setSpec>
            <setName>FCT: CENSE - Artigos em revista nacional com arbitragem científica</setName>
        </set>
        <set>
            <setSpec>col_10362_2354</setSpec>
            <setName>FCT: CENSE - Livros</setName>
        </set>
        <set>
            <setSpec>col_10362_2355</setSpec>
            <setName>FCT: CENSE - Capítulos de Livros</setName>
        </set>
        <set>
            <setSpec>col_10362_2356</setSpec>
            <setName>FCT: DEMI - Artigos em revista internacional com arbitragem científica</setName>
        </set>
        <set>
            <setSpec>col_10362_2357</setSpec>
            <setName>FCT: DEMI - Artigos em revista nacional com arbitragem científica</setName>
        </set>
        <set>
            <setSpec>col_10362_2358</setSpec>
            <setName>FCT: DEMI - Capítulos de Livros</setName>
        </set>
        <set>
            <setSpec>col_10362_2370</setSpec>
            <setName>FCT: DM - Livros internacionais</setName>
        </set>
        <set>
            <setSpec>col_10362_2406</setSpec>
            <setName>FCSH: DEPOR - Artigos em revista internacional com arbitragem científica</setName>
        </set>
        <set>
            <setSpec>col_10362_2407</setSpec>
            <setName>FCSH: DEPOR - Artigos em revista nacional com arbitragem científica</setName>
        </set>
        <set>
            <setSpec>col_10362_2408</setSpec>
            <setName>FCSH: DEPOR - Teses de Doutoramento</setName>
        </set>
        <set>
            <setSpec>col_10362_2409</setSpec>
            <setName>FCSH: DEPOR - Dissertações de Mestrado</setName>
        </set>
        <set>
            <setSpec>col_10362_2423</setSpec>
            <setName>FCSH: DLCLM - Dissertações de Mestrado</setName>
        </set>
        <set>
            <setSpec>col_10362_2424</setSpec>
            <setName>FCSH: DLCLM - Teses de Doutoramento</setName>
        </set>
        <set>
            <setSpec>col_10362_2461</setSpec>
            <setName>FCT: UIED - Capítulos de livros</setName>
        </set>
        <set>
            <setSpec>col_10362_2468</setSpec>
            <setName>FCT: CFA - Artigos em revista internacional com arbitragem científica</setName>
        </set>
        <set>
            <setSpec>col_10362_2469</setSpec>
            <setName>FCT: CFA - Artigos em revista nacional com arbitragem científica</setName>
        </set>
        <set>
            <setSpec>col_10362_2473</setSpec>
            <setName>FCT: DM - Capítulos de livros internacionais</setName>
        </set>
        <set>
            <setSpec>col_10362_2476</setSpec>
            <setName>FCT: UIED - Documentos de conferências internacionais</setName>
        </set>
        <set>
            <setSpec>col_10362_2477</setSpec>
            <setName>FCT: UIED - Documentos de conferências nacionais</setName>
        </set>
        <set>
            <setSpec>col_10362_2492</setSpec>
            <setName>NSBE: EG - Capítulos de livros internacionais</setName>
        </set>
        <set>
            <setSpec>col_10362_2493</setSpec>
            <setName>NSBE: EG - Livros internacionais</setName>
        </set>
        <set>
            <setSpec>col_10362_2498</setSpec>
            <setName>FD - Artigos em revista internacional</setName>
        </set>
        <set>
            <setSpec>col_10362_2515</setSpec>
            <setName>FCSH: DA - Artigos em revista internacional com arbitragem científica</setName>
        </set>
        <set>
            <setSpec>col_10362_2516</setSpec>
            <setName>FCSH: DA - Artigos em revista nacional com arbitragem científica</setName>
        </set>
        <set>
            <setSpec>col_10362_2538</setSpec>
            <setName>FCT: CENTRIA - Artigos em revista internacional com arbitragem científica</setName>
        </set>
        <set>
            <setSpec>col_10362_2539</setSpec>
            <setName>FCT: CENTRIA - Artigos em revista nacional com arbitragem científica</setName>
        </set>
        <set>
            <setSpec>col_10362_2540</setSpec>
            <setName>FCT: CENTRIA - Livros nacionais</setName>
        </set>
        <set>
            <setSpec>col_10362_2541</setSpec>
            <setName>FCT: CENTRIA - Livros internacionais</setName>
        </set>
        <set>
            <setSpec>col_10362_2542</setSpec>
            <setName>FCT: CENTRIA - Documentos de conferências internacionais</setName>
        </set>
        <set>
            <setSpec>col_10362_2543</setSpec>
            <setName>FCT: CENTRIA - Documentos de conferências nacionais</setName>
        </set>
        <set>
            <setSpec>col_10362_2544</setSpec>
            <setName>FCT: CENTRIA - Working papers</setName>
        </set>
        <set>
            <setSpec>col_10362_2545</setSpec>
            <setName>FCT: CENTRIA - Capítulos de livros nacionais</setName>
        </set>
        <set>
            <setSpec>col_10362_2546</setSpec>
            <setName>FCT: CENTRIA - Capítulos de livros internacionais</setName>
        </set>
        <set>
            <setSpec>col_10362_2554</setSpec>
            <setName>FCSH: CESNOVA - Artigos em revista nacional com arbitragem científica</setName>
        </set>
        <set>
            <setSpec>col_10362_2597</setSpec>
            <setName>FCSH: CESNOVA - Capítulos de livros nacionais</setName>
        </set>
        <set>
            <setSpec>col_10362_2600</setSpec>
            <setName>FCSH: DA - Documentos de conferências internacionais</setName>
        </set>
        <set>
            <setSpec>col_10362_2601</setSpec>
            <setName>FCSH: DA - Documentos de conferências nacionais</setName>
        </set>
        <set>
            <setSpec>col_10362_2604</setSpec>
            <setName>FCSH: CLUNL - Teses de Doutoramento</setName>
        </set>
        <set>
            <setSpec>col_10362_2605</setSpec>
            <setName>FCSH: CLUNL - Dissertações de Mestrado</setName>
        </set>
        <set>
            <setSpec>col_10362_2621</setSpec>
            <setName>FCT: DEE - Documentos de conferências internacionais</setName>
        </set>
        <set>
            <setSpec>col_10362_2622</setSpec>
            <setName>FCT: DEE - Documentos de conferências nacionais</setName>
        </set>
        <set>
            <setSpec>col_10362_2695</setSpec>
            <setName>FCSH: CRIA - Documentos de conferências nacionais</setName>
        </set>
        <set>
            <setSpec>col_10362_2696</setSpec>
            <setName>FCSH: CRIA - Documentos de conferências internacionais</setName>
        </set>
        <set>
            <setSpec>col_10362_2709</setSpec>
            <setName>FCT: DCM - Artigos em revista internacional com arbitragem científica</setName>
        </set>
        <set>
            <setSpec>col_10362_2710</setSpec>
            <setName>FCT: DCM - Artigos em revista nacional com arbitragem científica</setName>
        </set>
        <set>
            <setSpec>col_10362_2711</setSpec>
            <setName>FCT: CENIMAT - Artigos em revista internacional com arbitragem científica</setName>
        </set>
        <set>
            <setSpec>col_10362_2712</setSpec>
            <setName>FCT: CENIMAT - Artigos em revista nacional com arbitragem científica</setName>
        </set>
        <set>
            <setSpec>col_10362_2713</setSpec>
            <setName>FCT: DCT - Documentos de conferências internacionais</setName>
        </set>
        <set>
            <setSpec>col_10362_2714</setSpec>
            <setName>FCT: DCT - Documentos de conferências nacionais</setName>
        </set>
        <set>
            <setSpec>col_10362_2797</setSpec>
            <setName>FCM: Farmacologia - Artigos em revista internacional com arbitragem científica</setName>
        </set>
        <set>
            <setSpec>col_10362_2803</setSpec>
            <setName>FCM: Farmacologia - Artigos em revista nacional com arbitragem científica</setName>
        </set>
        <set>
            <setSpec>col_10362_2804</setSpec>
            <setName>FCM: Farmacologia - Capítulos de livros</setName>
        </set>
        <set>
            <setSpec>col_10362_2805</setSpec>
            <setName>FCM: Farmacologia - Dissertações de Mestrado</setName>
        </set>
        <set>
            <setSpec>col_10362_2819</setSpec>
            <setName>FCM: Farmacologia - Teses de Doutoramento</setName>
        </set>
        <set>
            <setSpec>col_10362_2820</setSpec>
            <setName>FCM: Fisiologia - Artigos em revista internacional com arbitragem científica</setName>
        </set>
        <set>
            <setSpec>col_10362_2821</setSpec>
            <setName>FCM:  Fisiologia - Artigos em revista nacional com arbitragem científica</setName>
        </set>
        <set>
            <setSpec>col_10362_2823</setSpec>
            <setName>FCM: Fisiologia - Capítulos de livros</setName>
        </set>
        <set>
            <setSpec>col_10362_2825</setSpec>
            <setName>FCM: Fisiologia - Dissertações de Mestrado</setName>
        </set>
        <set>
            <setSpec>col_10362_2829</setSpec>
            <setName>FCM: Fisiologia - Teses de Doutoramento</setName>
        </set>
        <set>
            <setSpec>col_10362_2842</setSpec>
            <setName>FCM: Fisiopatologia - Artigos em revista internacional com arbitragem científica</setName>
        </set>
        <set>
            <setSpec>col_10362_2843</setSpec>
            <setName>FCM: Fisiopatologia - Artigos em revista nacional com arbitragem científica</setName>
        </set>
        <set>
            <setSpec>col_10362_2845</setSpec>
            <setName>FCM: Fisiopatologia - Capítulos de livros</setName>
        </set>
        <set>
            <setSpec>col_10362_2846</setSpec>
            <setName>FCM: Fisiopatologia - Dissertações de Mestrado</setName>
        </set>
        <set>
            <setSpec>col_10362_2851</setSpec>
            <setName>FCM:  Fisiopatologia - Teses de Doutoramento</setName>
        </set>
        <set>
            <setSpec>col_10362_2857</setSpec>
            <setName>FCM: Medicina da Imagem - Artigos em revista internacional com arbitragem científica</setName>
        </set>
        <set>
            <setSpec>col_10362_2860</setSpec>
            <setName>FCM: Medicina da Imagem - Artigos em revista nacional com arbitragem científica</setName>
        </set>
        <set>
            <setSpec>col_10362_2861</setSpec>
            <setName>FCM: Medicina da Imagem - Capítulos de livros</setName>
        </set>
        <set>
            <setSpec>col_10362_2862</setSpec>
            <setName>FCM: Medicina da Imagem - Dissertações de Mestrado</setName>
        </set>
        <set>
            <setSpec>col_10362_2870</setSpec>
            <setName>FCM: Medicina da Imagem - Teses de Doutoramento</setName>
        </set>
        <set>
            <setSpec>col_10362_2872</setSpec>
            <setName>FCM: Morfologia Normal - Artigos em revista internacional com arbitragem científica</setName>
        </set>
        <set>
            <setSpec>col_10362_2876</setSpec>
            <setName>FCM: Morfologia Normal - Artigos em revista nacional com arbitragem científica</setName>
        </set>
        <set>
            <setSpec>col_10362_2878</setSpec>
            <setName>FCM: Morfologia Normal - Capítulos de livros</setName>
        </set>
        <set>
            <setSpec>col_10362_2880</setSpec>
            <setName>FCM: Morfologia Normal - Dissertações de Mestrado</setName>
        </set>
        <set>
            <setSpec>col_10362_2888</setSpec>
            <setName>FCM: Morfologia Normal - Teses de Doutoramento</setName>
        </set>
        <set>
            <setSpec>col_10362_2889</setSpec>
            <setName>FCM: Cirurgia Geral - Artigos em revista internacional com arbitragem científica</setName>
        </set>
        <set>
            <setSpec>col_10362_2890</setSpec>
            <setName>FCM:  Cirurgia Geral - Artigos em revista nacional com arbitragem científica</setName>
        </set>
        <set>
            <setSpec>col_10362_2891</setSpec>
            <setName>FCM:  Cirurgia Geral - Capítulos de livros</setName>
        </set>
        <set>
            <setSpec>col_10362_2892</setSpec>
            <setName>FCM:  Cirurgia Geral - Dissertações de Mestrado</setName>
        </set>
        <set>
            <setSpec>col_10362_2897</setSpec>
            <setName>FCM:  Cirurgia Geral - Teses de Doutoramento</setName>
        </set>
        <set>
            <setSpec>col_10362_2898</setSpec>
            <setName>FCM: Cirurgia Digestiva - Artigos em revista internacional com arbitragem científica</setName>
        </set>
        <set>
            <setSpec>col_10362_2899</setSpec>
            <setName>FCM: Cirurgia Digestiva  - Artigos em revista nacional com arbitragem científica</setName>
        </set>
        <set>
            <setSpec>col_10362_2900</setSpec>
            <setName>FCM: Cirurgia Digestiva - Capítulos de livros</setName>
        </set>
        <set>
            <setSpec>col_10362_2901</setSpec>
            <setName>FCM: Cirurgia Digestiva  - Dissertações de Mestrado</setName>
        </set>
        <set>
            <setSpec>col_10362_2906</setSpec>
            <setName>FCM: Cirurgia Digestiva  - Teses de Doutoramento</setName>
        </set>
        <set>
            <setSpec>col_10362_2907</setSpec>
            <setName>FCM: Cirurgia Plástica e Reconstrutiva - Artigos em revista internacional com arbitragem científica</setName>
        </set>
        <set>
            <setSpec>col_10362_2908</setSpec>
            <setName>FCM: Cirurgia Plástica e Reconstrutiva - Artigos em revista nacional com arbitragem científica</setName>
        </set>
        <set>
            <setSpec>col_10362_2909</setSpec>
            <setName>FCM: Cirurgia Plástica e Reconstrutiva - Capítulos de livros</setName>
        </set>
        <set>
            <setSpec>col_10362_2910</setSpec>
            <setName>FCM: Cirurgia Plástica e Reconstrutiva - Dissertações de Mestrado</setName>
        </set>
        <set>
            <setSpec>col_10362_2915</setSpec>
            <setName>FCM: Cirurgia Plástica e Reconstrutiva - Teses de Doutoramento</setName>
        </set>
        <set>
            <setSpec>col_10362_2916</setSpec>
            <setName>FCM: Cirurgia vascular - Artigos em revista internacional com arbitragem científica</setName>
        </set>
        <set>
            <setSpec>col_10362_2917</setSpec>
            <setName>FCM: Cirurgia vascular - Artigos em revista nacional com arbitragem científica</setName>
        </set>
        <set>
            <setSpec>col_10362_2918</setSpec>
            <setName>FCM: Cirurgia vascular  - Capítulos de livros</setName>
        </set>
        <set>
            <setSpec>col_10362_2919</setSpec>
            <setName>FCM: Cirurgia vascular - Dissertações de Mestrado</setName>
        </set>
        <set>
            <setSpec>col_10362_2924</setSpec>
            <setName>FCM: Cirurgia vascular - Teses de Doutoramento</setName>
        </set>
        <resumptionToken completeListSize="1584" cursor="4">MTo1MDB8Mjp8Mzp8NDp8NTo=</resumptionToken>
    </ListSets>
</OAI-PMH>
