<?xml version="1.0" encoding="UTF-8"?><?xml-stylesheet type="text/xsl" href="static/style.xsl"?><OAI-PMH xmlns="http://www.openarchives.org/OAI/2.0/" xmlns:xsi="http://www.w3.org/2001/XMLSchema-instance" xsi:schemaLocation="http://www.openarchives.org/OAI/2.0/ http://www.openarchives.org/OAI/2.0/OAI-PMH.xsd"><responseDate>2014-10-03T19:33:50Z</responseDate>
    <request verb="ListSets" resumptionToken="MToxNTAwfDI6fDM6fDQ6fDU6">http://run.unl.pt/oai/request</request>
    <ListSets>
        <set>
            <setSpec>col_10362_10667</setSpec>
            <setName>FCT: CMA - Capítulos de livros nacionais</setName>
        </set>
        <set>
            <setSpec>col_10362_10668</setSpec>
            <setName>FCT: CMA - Documentos de conferências internacionais</setName>
        </set>
        <set>
            <setSpec>col_10362_10669</setSpec>
            <setName>FCT: CMA - Documentos de conferências nacionais</setName>
        </set>
        <set>
            <setSpec>col_10362_10670</setSpec>
            <setName>FCT: CMA - Livros internacionais</setName>
        </set>
        <set>
            <setSpec>col_10362_10671</setSpec>
            <setName>FCT: CMA - Livros nacionais</setName>
        </set>
        <set>
            <setSpec>col_10362_10672</setSpec>
            <setName>FCT: CMA - Working papers</setName>
        </set>
        <set>
            <setSpec>col_10362_10673</setSpec>
            <setName>FCT: CMA - Relatórios técnicos</setName>
        </set>
        <set>
            <setSpec>col_10362_10674</setSpec>
            <setName>FCT: CMA - Dissertações de Mestrado</setName>
        </set>
        <set>
            <setSpec>col_10362_10675</setSpec>
            <setName>FCT: CMA - Teses de Doutoramento</setName>
        </set>
        <set>
            <setSpec>col_10362_10676</setSpec>
            <setName>FCT: DM - Working papers</setName>
        </set>
        <set>
            <setSpec>col_10362_10689</setSpec>
            <setName>FCSH: IHC - Capítulos de livros nacionais</setName>
        </set>
        <set>
            <setSpec>col_10362_10690</setSpec>
            <setName>FCSH: IHC - Livros internacionais</setName>
        </set>
        <set>
            <setSpec>col_10362_10691</setSpec>
            <setName>FCSH: IHC - Dissertações de Mestrado</setName>
        </set>
        <set>
            <setSpec>col_10362_10692</setSpec>
            <setName>FCSH: IHC - Teses de Doutoramento</setName>
        </set>
        <set>
            <setSpec>col_10362_10693</setSpec>
            <setName>FCSH: IHC - Relatórios técnicos</setName>
        </set>
        <set>
            <setSpec>col_10362_10699</setSpec>
            <setName>ITQB: MMME-PhD Theses</setName>
        </set>
        <set>
            <setSpec>col_10362_10720</setSpec>
            <setName>FCT: DEC - Livros</setName>
        </set>
        <set>
            <setSpec>col_10362_10721</setSpec>
            <setName>FCT: DEC - Relatórios técnicos</setName>
        </set>
        <set>
            <setSpec>col_10362_10726</setSpec>
            <setName>FCSH: CESNOVA - Livros internacionais</setName>
        </set>
        <set>
            <setSpec>col_10362_10928</setSpec>
            <setName>FCT: IET-APSIOT - Revista Organizações e Trabalho</setName>
        </set>
        <set>
            <setSpec>col_10362_10929</setSpec>
            <setName>FCT: IET-APSIOT - Actas dos Encontros Nacionais</setName>
        </set>
        <set>
            <setSpec>col_10362_11017</setSpec>
            <setName>NOVAFRICA</setName>
        </set>
        <set>
            <setSpec>col_10362_11500</setSpec>
            <setName>FCSH: DCM - Provas de agregação</setName>
        </set>
        <set>
            <setSpec>col_10362_11737</setSpec>
            <setName>FCSH: IDE - Artigos em revista internacional com arbitragem científica</setName>
        </set>
        <set>
            <setSpec>col_10362_11738</setSpec>
            <setName>FCSH: IDE - Artigos em revista nacional com arbitragem científica</setName>
        </set>
        <set>
            <setSpec>col_10362_11739</setSpec>
            <setName>FCSH: IDE - Capítulos de livros internacionais</setName>
        </set>
        <set>
            <setSpec>col_10362_11740</setSpec>
            <setName>FCSH: IDE - Capítulos de livros nacionais</setName>
        </set>
        <set>
            <setSpec>col_10362_11741</setSpec>
            <setName>FCSH: IDE - Documentos de conferências internacionais</setName>
        </set>
        <set>
            <setSpec>col_10362_11742</setSpec>
            <setName>FCSH: IDE - Documentos de conferências nacionais</setName>
        </set>
        <set>
            <setSpec>col_10362_11743</setSpec>
            <setName>FCSH: IDE - Livros internacionais</setName>
        </set>
        <set>
            <setSpec>col_10362_11744</setSpec>
            <setName>FCSH: IDE - Livros nacionais</setName>
        </set>
        <set>
            <setSpec>col_10362_11745</setSpec>
            <setName>FCSH: IDE - Relatórios técnicos</setName>
        </set>
        <set>
            <setSpec>col_10362_11746</setSpec>
            <setName>FCSH: IDE - Dissertações de Mestrado</setName>
        </set>
        <set>
            <setSpec>col_10362_11747</setSpec>
            <setName>FCSH: IDE - Teses de Doutoramento</setName>
        </set>
        <set>
            <setSpec>col_10362_11942</setSpec>
            <setName>ITQB:AEM-PhD Theses</setName>
        </set>
        <set>
            <setSpec>col_10362_12048</setSpec>
            <setName>FCSH: IHA - Artigos em revista internacional com arbitragem científica</setName>
        </set>
        <set>
            <setSpec>col_10362_12049</setSpec>
            <setName>FCSH: IHA - Artigos em revista nacional com arbitragem científica</setName>
        </set>
        <set>
            <setSpec>col_10362_12051</setSpec>
            <setName>FCSH: IHA - Capítulos de livros internacionais</setName>
        </set>
        <set>
            <setSpec>col_10362_12052</setSpec>
            <setName>FCSH: IHA - Capítulos de livros nacionais</setName>
        </set>
        <set>
            <setSpec>col_10362_12053</setSpec>
            <setName>FCSH: IHA - Documentos de conferências internacionais</setName>
        </set>
        <set>
            <setSpec>col_10362_12054</setSpec>
            <setName>FCSH: IHA - Documentos de conferências nacionais</setName>
        </set>
        <set>
            <setSpec>col_10362_12055</setSpec>
            <setName>FCSH: IHA - Livros internacionais</setName>
        </set>
        <set>
            <setSpec>col_10362_12056</setSpec>
            <setName>FCSH: IHA - Livros nacionais</setName>
        </set>
        <set>
            <setSpec>col_10362_12057</setSpec>
            <setName>FCSH: IHA - Relatórios técnicos</setName>
        </set>
        <set>
            <setSpec>col_10362_12058</setSpec>
            <setName>FCSH: IHA - Dissertações de Mestrado</setName>
        </set>
        <set>
            <setSpec>col_10362_12059</setSpec>
            <setName>FCSH: IHA - Teses de Doutoramento</setName>
        </set>
        <set>
            <setSpec>col_10362_12116</setSpec>
            <setName>FCSH: IEM - EBooks</setName>
        </set>
        <set>
            <setSpec>col_10362_12267</setSpec>
            <setName>FCSH: IHA - E-books</setName>
        </set>
        <set>
            <setSpec>col_10362_12270</setSpec>
            <setName>FCSH: IELT - Artigos em revista internacional com arbitragem científica</setName>
        </set>
        <set>
            <setSpec>col_10362_12271</setSpec>
            <setName>FCSH: IELT - Artigos em revista nacional com arbitragem científica</setName>
        </set>
        <set>
            <setSpec>col_10362_12272</setSpec>
            <setName>FCSH: IELT - Capítulos de livros internacionais</setName>
        </set>
        <set>
            <setSpec>col_10362_12273</setSpec>
            <setName>FCSH: IELT - Capítulos de livros nacionais</setName>
        </set>
        <set>
            <setSpec>col_10362_12274</setSpec>
            <setName>FCSH: IELT - Documentos de conferências internacionais</setName>
        </set>
        <set>
            <setSpec>col_10362_12275</setSpec>
            <setName>FCSH: IELT - Documentos de conferências nacionais</setName>
        </set>
        <set>
            <setSpec>col_10362_12276</setSpec>
            <setName>FCSH: IELT - Livros internacionais</setName>
        </set>
        <set>
            <setSpec>col_10362_12277</setSpec>
            <setName>FCSH: IELT - Livros nacionais</setName>
        </set>
        <set>
            <setSpec>col_10362_12278</setSpec>
            <setName>FCSH: IELT - Dissertações de Mestrado</setName>
        </set>
        <set>
            <setSpec>col_10362_12280</setSpec>
            <setName>FCSH: IELT - Teses de Doutoramento</setName>
        </set>
        <set>
            <setSpec>col_10362_12282</setSpec>
            <setName>FCSH: IELT - Relatórios técnicos</setName>
        </set>
        <set>
            <setSpec>col_10362_12327</setSpec>
            <setName>FCSH: IELT - EBooks</setName>
        </set>
        <set>
            <setSpec>col_10362_12404</setSpec>
            <setName>Revista do IHA Nº 10 (2012)</setName>
        </set>
        <set>
            <setSpec>col_10362_12405</setSpec>
            <setName>Revista do IHA Nº 1 (2005)</setName>
        </set>
        <set>
            <setSpec>col_10362_12406</setSpec>
            <setName>Revista do IHA Nº 2 (2006)</setName>
        </set>
        <set>
            <setSpec>col_10362_12407</setSpec>
            <setName>Revista do IHA Nº 3 (2007)</setName>
        </set>
        <set>
            <setSpec>col_10362_12408</setSpec>
            <setName>Revista do IHA Nº 4 (2007)</setName>
        </set>
        <set>
            <setSpec>col_10362_12409</setSpec>
            <setName>Revista do IHA Nº 5 (2008)</setName>
        </set>
        <set>
            <setSpec>col_10362_12410</setSpec>
            <setName>Revista do IHA Nº 6 (2008)</setName>
        </set>
        <set>
            <setSpec>col_10362_12411</setSpec>
            <setName>Revista do IHA Nº 7 (2009)</setName>
        </set>
        <set>
            <setSpec>col_10362_12412</setSpec>
            <setName>Revista do IHA Nº 8 (2011)</setName>
        </set>
        <set>
            <setSpec>col_10362_12413</setSpec>
            <setName>Revista do IHA Nº 9 (2012)</setName>
        </set>
        <set>
            <setSpec>col_10362_12414</setSpec>
            <setName>GeoINova Nº 0 (1999)</setName>
        </set>
        <set>
            <setSpec>col_10362_12415</setSpec>
            <setName>GeoINova Nº 1 (2000)</setName>
        </set>
        <set>
            <setSpec>col_10362_12416</setSpec>
            <setName>GeoINova Nº 2 (2000)</setName>
        </set>
        <set>
            <setSpec>col_10362_12417</setSpec>
            <setName>GeoINova Nº 3 (2001)</setName>
        </set>
        <set>
            <setSpec>col_10362_12418</setSpec>
            <setName>GeoINova Nº 4 (2001)</setName>
        </set>
        <set>
            <setSpec>col_10362_12419</setSpec>
            <setName>GeoINova Nº 5 (2002)</setName>
        </set>
        <set>
            <setSpec>col_10362_12420</setSpec>
            <setName>GeoINova Nº 6 (2002)</setName>
        </set>
        <set>
            <setSpec>col_10362_12421</setSpec>
            <setName>GeoINova Nº 7 (2003)</setName>
        </set>
        <set>
            <setSpec>col_10362_12422</setSpec>
            <setName>GeoINova Nº 8 (2003)</setName>
        </set>
        <set>
            <setSpec>col_10362_12423</setSpec>
            <setName>GeoINova Nº 9 (2004)</setName>
        </set>
        <set>
            <setSpec>col_10362_12424</setSpec>
            <setName>GeoINova Nº 10 (2004)</setName>
        </set>
        <set>
            <setSpec>col_10362_12425</setSpec>
            <setName>GeoINova Nº 11 (2005)</setName>
        </set>
        <set>
            <setSpec>col_10362_12426</setSpec>
            <setName>GeoINova Nº 12 (2006)</setName>
        </set>
        <set>
            <setSpec>col_10362_12551</setSpec>
            <setName>UNL: Converis</setName>
        </set>
        <set>
            <setSpec>col_10362_13019</setSpec>
            <setName>FCSH: CESEM - Outros</setName>
        </set>
        <resumptionToken completeListSize="1584" cursor="15"></resumptionToken>
    </ListSets>
</OAI-PMH>
