<?xml version="1.0" encoding="UTF-8"?><?xml-stylesheet type="text/xsl" href="static/style.xsl"?><OAI-PMH xmlns="http://www.openarchives.org/OAI/2.0/" xmlns:xsi="http://www.w3.org/2001/XMLSchema-instance" xsi:schemaLocation="http://www.openarchives.org/OAI/2.0/ http://www.openarchives.org/OAI/2.0/OAI-PMH.xsd"><responseDate>2014-10-03T19:33:44Z</responseDate>
    <request verb="ListSets" resumptionToken="MTo5MDB8Mjp8Mzp8NDp8NTo=">http://run.unl.pt/oai/request</request>
    <ListSets>
        <set>
            <setSpec>col_10362_3796</setSpec>
            <setName>IHMT: CT - Livros</setName>
        </set>
        <set>
            <setSpec>col_10362_3797</setSpec>
            <setName>IHMT: CT - Dissertações de Mestrado</setName>
        </set>
        <set>
            <setSpec>col_10362_3798</setSpec>
            <setName>IHMT: CT - Teses de Doutoramento</setName>
        </set>
        <set>
            <setSpec>col_10362_3799</setSpec>
            <setName>IHMT: CT - Documentos de conferências internacionais</setName>
        </set>
        <set>
            <setSpec>col_10362_3800</setSpec>
            <setName>IHMT: CT - Documentos de conferências nacionais</setName>
        </set>
        <set>
            <setSpec>col_10362_3801</setSpec>
            <setName>IHMT: CT - Relatórios técnicos</setName>
        </set>
        <set>
            <setSpec>col_10362_3830</setSpec>
            <setName>IHMT: PM - Artigos em revista internacional com arbitragem científica</setName>
        </set>
        <set>
            <setSpec>col_10362_3831</setSpec>
            <setName>IHMT: PM - Artigos em revista nacional com arbitragem científica</setName>
        </set>
        <set>
            <setSpec>col_10362_3832</setSpec>
            <setName>IHMT: PM - Capítulos de livros</setName>
        </set>
        <set>
            <setSpec>col_10362_3833</setSpec>
            <setName>IHMT: PM - Livros</setName>
        </set>
        <set>
            <setSpec>col_10362_3834</setSpec>
            <setName>IHMT: PM - Teses de Doutoramento</setName>
        </set>
        <set>
            <setSpec>col_10362_3835</setSpec>
            <setName>IHMT: PM -  Dissertações de Mestrado</setName>
        </set>
        <set>
            <setSpec>col_10362_3836</setSpec>
            <setName>IHMT: PM - Documentos de conferências internacionais</setName>
        </set>
        <set>
            <setSpec>col_10362_3837</setSpec>
            <setName>IHMT: PM - Documentos de conferências nacionais</setName>
        </set>
        <set>
            <setSpec>col_10362_3838</setSpec>
            <setName>IHMT: PM - Relatórios técnicos</setName>
        </set>
        <set>
            <setSpec>col_10362_3902</setSpec>
            <setName>IHMT: SPIB - Artigos em revista internacional com arbitragem científica</setName>
        </set>
        <set>
            <setSpec>col_10362_3903</setSpec>
            <setName>IHMT: SPIB - Artigos em revista nacional com arbitragem científica</setName>
        </set>
        <set>
            <setSpec>col_10362_3904</setSpec>
            <setName>IHMT: SPIB - Capítulos de livros</setName>
        </set>
        <set>
            <setSpec>col_10362_3905</setSpec>
            <setName>IHMT: SPIB - Livros</setName>
        </set>
        <set>
            <setSpec>col_10362_3906</setSpec>
            <setName>IHMT: SPIB - Teses de Doutoramento</setName>
        </set>
        <set>
            <setSpec>col_10362_3907</setSpec>
            <setName>IHMT: SPIB - Dissertações de Mestrado</setName>
        </set>
        <set>
            <setSpec>col_10362_3908</setSpec>
            <setName>IHMT: SPIB - Documentos de conferências internacionais</setName>
        </set>
        <set>
            <setSpec>col_10362_3909</setSpec>
            <setName>IHMT: SPIB - Documentos de conferências nacionais</setName>
        </set>
        <set>
            <setSpec>col_10362_3910</setSpec>
            <setName>IHMT: SPIB - Relatórios técnicos</setName>
        </set>
        <set>
            <setSpec>col_10362_3921</setSpec>
            <setName>Revista de Estudos Anglo-Portugueses</setName>
        </set>
        <set>
            <setSpec>col_10362_3966</setSpec>
            <setName>Revista da FCSH - 1980</setName>
        </set>
        <set>
            <setSpec>col_10362_3967</setSpec>
            <setName>Revista da FCSH -1988</setName>
        </set>
        <set>
            <setSpec>col_10362_3969</setSpec>
            <setName>Revista da FCSH -1989</setName>
        </set>
        <set>
            <setSpec>col_10362_3970</setSpec>
            <setName>Revista da FCSH -1990-91</setName>
        </set>
        <set>
            <setSpec>col_10362_3971</setSpec>
            <setName>Revista da FCSH -1992-93</setName>
        </set>
        <set>
            <setSpec>col_10362_3972</setSpec>
            <setName>Revista da FCSH -1994/1995</setName>
        </set>
        <set>
            <setSpec>col_10362_3973</setSpec>
            <setName>Revista da FCSH -1996</setName>
        </set>
        <set>
            <setSpec>col_10362_3984</setSpec>
            <setName>FCT: DF - Artigos em revista internacional com arbitragem científica</setName>
        </set>
        <set>
            <setSpec>col_10362_3985</setSpec>
            <setName>FCT: DF - Artigos em revista nacional com arbitragem científica</setName>
        </set>
        <set>
            <setSpec>col_10362_3997</setSpec>
            <setName>FCSH: DLCLM   - Capítulo de livros nacionais</setName>
        </set>
        <set>
            <setSpec>col_10362_3998</setSpec>
            <setName>FCSH: DLCLM   - Capítulo de livros internacionais</setName>
        </set>
        <set>
            <setSpec>col_10362_3999</setSpec>
            <setName>FCSH: DLCLM - Documentos de conferências internacionais</setName>
        </set>
        <set>
            <setSpec>col_10362_4000</setSpec>
            <setName>FCSH: DLCLM - Documentos de conferências nacionais</setName>
        </set>
        <set>
            <setSpec>col_10362_4001</setSpec>
            <setName>FCSH: DLCLM - Artigos em revista internacional com arbitragem científica</setName>
        </set>
        <set>
            <setSpec>col_10362_4007</setSpec>
            <setName>FCT: DDB - Artigos em revista nacional com arbitragem científica</setName>
        </set>
        <set>
            <setSpec>col_10362_4008</setSpec>
            <setName>FCT: DDB - Documentos de conferências nacionais</setName>
        </set>
        <set>
            <setSpec>col_10362_4071</setSpec>
            <setName>ITQB: LA - PhD Theses</setName>
        </set>
        <set>
            <setSpec>col_10362_4123</setSpec>
            <setName>FCSH: DCM - Dissertações de Mestrado</setName>
        </set>
        <set>
            <setSpec>col_10362_4131</setSpec>
            <setName>FCSH: DL - Dissertações de Mestrado</setName>
        </set>
        <set>
            <setSpec>col_10362_4154</setSpec>
            <setName>FCSH: DGPR - Dissertações de Mestrado</setName>
        </set>
        <set>
            <setSpec>col_10362_4166</setSpec>
            <setName>ENSP: DS - Teses de Doutoramento</setName>
        </set>
        <set>
            <setSpec>col_10362_4176</setSpec>
            <setName>ENSP: ES - Teses de Doutoramento</setName>
        </set>
        <set>
            <setSpec>col_10362_4177</setSpec>
            <setName>ENSP: PPS - Teses de Doutoramento</setName>
        </set>
        <set>
            <setSpec>col_10362_4178</setSpec>
            <setName>ENSP: SA - Teses de Doutoramento</setName>
        </set>
        <set>
            <setSpec>col_10362_4179</setSpec>
            <setName>ENSP: SS - Teses de Doutoramento</setName>
        </set>
        <set>
            <setSpec>col_10362_4190</setSpec>
            <setName>FCM: Formação Pós-Graduada - Dissertações de Mestrado</setName>
        </set>
        <set>
            <setSpec>col_10362_4191</setSpec>
            <setName>FCM: Formação Pós-Graduada - Teses de Doutoramento</setName>
        </set>
        <set>
            <setSpec>col_10362_4216</setSpec>
            <setName>ENSP: PC - Capítulos de livros internacionais</setName>
        </set>
        <set>
            <setSpec>col_10362_4218</setSpec>
            <setName>ENSP: PC - Capítulos de livros nacionais</setName>
        </set>
        <set>
            <setSpec>col_10362_4219</setSpec>
            <setName>ENSP: PC - Documentos de conferências internacionais</setName>
        </set>
        <set>
            <setSpec>col_10362_4220</setSpec>
            <setName>ENSP: PC - Documentos de conferências nacionais</setName>
        </set>
        <set>
            <setSpec>col_10362_4221</setSpec>
            <setName>ENSP: PC - Livros internacionais</setName>
        </set>
        <set>
            <setSpec>col_10362_4222</setSpec>
            <setName>ENSP: PC - Livros nacionais</setName>
        </set>
        <set>
            <setSpec>col_10362_4243</setSpec>
            <setName>FCSH: DA - Dissertações de Mestrado</setName>
        </set>
        <set>
            <setSpec>col_10362_4259</setSpec>
            <setName>Revista da FCSH - 2001</setName>
        </set>
        <set>
            <setSpec>col_10362_4269</setSpec>
            <setName>ENSP: PC - Artigos em revistas científicas nacionais com arbitragem científica</setName>
        </set>
        <set>
            <setSpec>col_10362_4271</setSpec>
            <setName>ENSP: PC - Artigos em revistas científicas internacionais com arbitragem científica</setName>
        </set>
        <set>
            <setSpec>col_10362_4297</setSpec>
            <setName>ENSP: PPS - Dissertações de Mestrado</setName>
        </set>
        <set>
            <setSpec>col_10362_4304</setSpec>
            <setName>FCSH: CESNOVA - Documentos de conferências internacionais</setName>
        </set>
        <set>
            <setSpec>col_10362_4332</setSpec>
            <setName>ENSP: PC - Relatórios Técnicos Nacionais</setName>
        </set>
        <set>
            <setSpec>col_10362_4333</setSpec>
            <setName>ENSP: PC - Relatórios Técnicos Internacionais</setName>
        </set>
        <set>
            <setSpec>col_10362_4395</setSpec>
            <setName>FCT: DCSA - Livros</setName>
        </set>
        <set>
            <setSpec>col_10362_4399</setSpec>
            <setName>FCT: DCR - Artigos em revista internacional com arbitragem cientifica</setName>
        </set>
        <set>
            <setSpec>col_10362_4400</setSpec>
            <setName>FCT: DCR - Artigos em revista nacional com arbitragem cientifica</setName>
        </set>
        <set>
            <setSpec>col_10362_4401</setSpec>
            <setName>FCT: DCR - Documentos de conferências internacionais</setName>
        </set>
        <set>
            <setSpec>col_10362_4402</setSpec>
            <setName>FCT: DCR - Documentos de conferências nacionais</setName>
        </set>
        <set>
            <setSpec>col_10362_4408</setSpec>
            <setName>FCT: UIED - Working Papers</setName>
        </set>
        <set>
            <setSpec>col_10362_4412</setSpec>
            <setName>FCSH: DS - Teses de Doutoramento</setName>
        </set>
        <set>
            <setSpec>col_10362_4413</setSpec>
            <setName>FCSH: DCE - Teses de Doutoramento</setName>
        </set>
        <set>
            <setSpec>col_10362_4439</setSpec>
            <setName>FCT: UIED - Relatórios nacionais</setName>
        </set>
        <set>
            <setSpec>col_10362_4523</setSpec>
            <setName>ITQB: BCPD - Artigos em revista internacional com arbitragem científica</setName>
        </set>
        <set>
            <setSpec>col_10362_4524</setSpec>
            <setName>ITQB: BCPD - Artigos em revista nacional com arbitragem científica</setName>
        </set>
        <set>
            <setSpec>col_10362_4525</setSpec>
            <setName>ITQB: BC - Artigos em revista internacional com arbitragem científica</setName>
        </set>
        <set>
            <setSpec>col_10362_4526</setSpec>
            <setName>ITQB: BC - Artigos em revista nacional com arbitragem científica</setName>
        </set>
        <set>
            <setSpec>col_10362_4527</setSpec>
            <setName>ITQB: CPS - Artigos em revista internacional com arbitragem científica</setName>
        </set>
        <set>
            <setSpec>col_10362_4528</setSpec>
            <setName>ITQB: CPS - Artigos em revista nacional com arbitragem científica</setName>
        </set>
        <set>
            <setSpec>col_10362_4529</setSpec>
            <setName>ITQB: CSC - Artigos em revista internacional com arbitragem científica</setName>
        </set>
        <set>
            <setSpec>col_10362_4530</setSpec>
            <setName>ITQB: CSC - Artigos em revista nacional com arbitragem científica</setName>
        </set>
        <set>
            <setSpec>col_10362_4531</setSpec>
            <setName>ITQB: HC - Artigos em revista internacional com arbitragem científica</setName>
        </set>
        <set>
            <setSpec>col_10362_4532</setSpec>
            <setName>ITQB: HC - Artigos em revista nacional com arbitragem científica</setName>
        </set>
        <set>
            <setSpec>col_10362_4533</setSpec>
            <setName>ITQB: MHS - Artigos em revista internacional com arbitragem científica</setName>
        </set>
        <set>
            <setSpec>col_10362_4534</setSpec>
            <setName>ITQB: MHS - Artigos em revista nacional com arbitragem científica</setName>
        </set>
        <set>
            <setSpec>col_10362_4535</setSpec>
            <setName>ITQB: OS - Artigos em revista internacional com arbitragem científica</setName>
        </set>
        <set>
            <setSpec>col_10362_4536</setSpec>
            <setName>ITQB: OS - Artigos em revista nacional com arbitragem científica</setName>
        </set>
        <set>
            <setSpec>col_10362_4537</setSpec>
            <setName>ITQB: OC - Artigos em revista internacional com arbitragem científica</setName>
        </set>
        <set>
            <setSpec>col_10362_4538</setSpec>
            <setName>ITQB: OC - Artigos em revista nacional com arbitragem científica</setName>
        </set>
        <set>
            <setSpec>col_10362_4539</setSpec>
            <setName>ITQB: SMP - Artigos em revista internacional com arbitragem científica</setName>
        </set>
        <set>
            <setSpec>col_10362_4540</setSpec>
            <setName>ITQB: SMP - Artigos em revista nacional com arbitragem científica</setName>
        </set>
        <set>
            <setSpec>col_10362_4541</setSpec>
            <setName>ITQB: BCPD - PhD Theses</setName>
        </set>
        <set>
            <setSpec>col_10362_4542</setSpec>
            <setName>ITQB: BC - PhD Theses</setName>
        </set>
        <set>
            <setSpec>col_10362_4543</setSpec>
            <setName>ITQB: CPS - PhD Theses</setName>
        </set>
        <set>
            <setSpec>col_10362_4544</setSpec>
            <setName>ITQB: CSC - PhD Theses</setName>
        </set>
        <set>
            <setSpec>col_10362_4545</setSpec>
            <setName>ITQB: HC - PhD Theses</setName>
        </set>
        <set>
            <setSpec>col_10362_4546</setSpec>
            <setName>ITQB: MHS - PhD Theses</setName>
        </set>
        <set>
            <setSpec>col_10362_4547</setSpec>
            <setName>ITQB: OS - PhD Theses</setName>
        </set>
        <resumptionToken completeListSize="1584" cursor="9">MToxMDAwfDI6fDM6fDQ6fDU6</resumptionToken>
    </ListSets>
</OAI-PMH>
